<?xml version="1.0" encoding="utf-8"?>
<!-- Generator: Adobe Illustrator 24.2.0, SVG Export Plug-In . SVG Version: 6.00 Build 0)  -->
<svg version="1.1" id="Layer_1" xmlns="http://www.w3.org/2000/svg" xmlns:xlink="http://www.w3.org/1999/xlink" x="0px" y="0px"
	 viewBox="0 0 100 100" style="enable-background:new 0 0 100 100;" xml:space="preserve">
<style type="text/css">
	.st0{fill:#AC7FFF;}
	.st1{fill:#FBA438;}
	.st2{fill:#341472;}
	.st3{fill:#FCA121;}
	.st4{fill:#380D75;}
	.st5{fill:#38F2AF;}
</style>
<g>
	<g>
		<path class="st0" d="M24.54,50c0-14.34,11.62-25.96,25.96-25.96S76.46,35.66,76.46,50c0,14.34-11.62,25.96-25.96,25.96
			S24.54,64.34,24.54,50z"/>
	</g>
	<g>
		<path class="st2" d="M21.54,50c0,15.69,12.77,28.46,28.46,28.46S78.46,65.69,78.46,50S65.69,21.54,50,21.54S21.54,34.31,21.54,50z
			 M50,26.54c12.94,0,23.46,10.53,23.46,23.46c0,12.94-10.53,23.46-23.46,23.46S26.54,62.94,26.54,50
			C26.54,37.06,37.06,26.54,50,26.54z"/>
		<path class="st2" d="M52.37,7.26l3-3c0.98-0.98,0.98-2.56,0-3.54c-0.98-0.98-2.56-0.98-3.54,0l-7.19,7.19
			c-0.98,0.98-0.98,2.56,0,3.54l7.19,7.19c0.49,0.49,1.13,0.73,1.77,0.73s1.28-0.24,1.77-0.73c0.98-0.98,0.98-2.56,0-3.54
			l-2.83-2.83C72.2,13.6,87.81,30.01,87.81,50c0,15.1-8.96,28.72-22.81,34.72c-1.27,0.55-1.85,2.02-1.3,3.29
			c0.41,0.94,1.33,1.51,2.3,1.51c0.33,0,0.67-0.07,0.99-0.21C82.67,82.52,92.81,67.09,92.81,50C92.81,27.19,74.87,8.5,52.37,7.26z"
			/>
		<path class="st2" d="M48.17,81.34c-0.98-0.98-2.56-0.98-3.54,0c-0.98,0.98-0.98,2.56,0,3.54l2.83,2.83
			C27.8,86.4,12.19,69.99,12.19,50c0-15.23,9.06-28.9,23.09-34.83c1.27-0.54,1.87-2,1.33-3.28c-0.54-1.27-2-1.87-3.28-1.33
			C17.46,17.28,7.19,32.76,7.19,50c0,22.81,17.93,41.5,40.44,42.74l-3,3c-0.98,0.98-0.98,2.56,0,3.54c0.49,0.49,1.13,0.73,1.77,0.73
			s1.28-0.24,1.77-0.73l7.19-7.19c0.98-0.98,0.98-2.56,0-3.54L48.17,81.34z"/>
		<path class="st2" d="M32.8,51.7l5.57,5.57c0.49,0.49,1.13,0.73,1.77,0.73s1.28-0.24,1.77-0.73c0.98-0.98,0.98-2.56,0-3.54
			l-3.8-3.81l3.8-3.81c0.98-0.98,0.98-2.56,0-3.54c-0.98-0.98-2.56-0.98-3.54,0l-5.57,5.57C31.82,49.14,31.82,50.73,32.8,51.7z"/>
		<path class="st2" d="M60.21,57.28c0.49,0.49,1.13,0.73,1.77,0.73s1.28-0.24,1.77-0.73l5.57-5.57c0.98-0.98,0.98-2.56,0-3.54
			l-5.57-5.57c-0.98-0.98-2.56-0.98-3.54,0c-0.98,0.98-0.98,2.56,0,3.54l3.8,3.81l-3.8,3.81C59.23,54.72,59.23,56.3,60.21,57.28z"/>
		<path class="st2" d="M47.34,60.95c0.27,0.09,0.54,0.13,0.8,0.13c1.04,0,2.01-0.66,2.37-1.7l5.83-17.16
			c0.44-1.31-0.26-2.73-1.56-3.17c-1.31-0.44-2.73,0.26-3.17,1.56l-5.83,17.16C45.33,59.09,46.03,60.5,47.34,60.95z"/>
	</g>
</g>
</svg>
