<?xml version="1.0" encoding="utf-8"?>
<!-- Generator: Adobe Illustrator 24.2.0, SVG Export Plug-In . SVG Version: 6.00 Build 0)  -->
<svg version="1.1" id="Layer_1" xmlns="http://www.w3.org/2000/svg" xmlns:xlink="http://www.w3.org/1999/xlink" x="0px" y="0px"
	 viewBox="0 0 100 100" style="enable-background:new 0 0 100 100;" xml:space="preserve">
<style type="text/css">
	.st0{fill:#AC7FFF;}
	.st1{fill:#FBA438;}
	.st2{fill:#341472;}
	.st3{fill:#FCA121;}
	.st4{fill:#380D75;}
	.st5{fill:#38F2AF;}
</style>
<g>
	<g>
		<circle class="st5" cx="44.76" cy="44.76" r="14.71"/>
	</g>
	<path class="st4" d="M97.5,29.71h-7.99v-7.99c0-1.38-1.12-2.5-2.5-2.5H2.5c-1.38,0-2.5,1.12-2.5,2.5s1.12,2.5,2.5,2.5h82.01v34.24
		c0,1.38,1.12,2.5,2.5,2.5s2.5-1.12,2.5-2.5V34.71H95v41.07H15.49v-5.49h71.52c1.38,0,2.5-1.12,2.5-2.5s-1.12-2.5-2.5-2.5H5V30.64
		c0-1.38-1.12-2.5-2.5-2.5S0,29.26,0,30.64v37.15c0,1.38,1.12,2.5,2.5,2.5h7.99v7.99c0,1.38,1.12,2.5,2.5,2.5H97.5
		c1.38,0,2.5-1.12,2.5-2.5V32.21C100,30.83,98.88,29.71,97.5,29.71z"/>
	<g>
		<path class="st4" d="M44.76,61.96c-9.49,0-17.21-7.72-17.21-17.21c0-9.49,7.72-17.21,17.21-17.21c9.49,0,17.21,7.72,17.21,17.21
			C61.96,54.24,54.24,61.96,44.76,61.96z M44.76,32.55c-6.73,0-12.21,5.48-12.21,12.21s5.48,12.21,12.21,12.21
			s12.21-5.48,12.21-12.21S51.49,32.55,44.76,32.55z"/>
	</g>
</g>
</svg>
