<?xml version="1.0" encoding="utf-8"?>
<!-- Generator: Adobe Illustrator 23.0.1, SVG Export Plug-In . SVG Version: 6.00 Build 0)  -->
<svg version="1.1" id="Layer_1" xmlns="http://www.w3.org/2000/svg" xmlns:xlink="http://www.w3.org/1999/xlink" x="0px" y="0px"
	 viewBox="0 0 76 80" style="enable-background:new 0 0 76 80;" xml:space="preserve">
<style type="text/css">
	.st0{fill:#5BA2E8;}
	.st1{fill:#606060;}
	.st2{opacity:0.1;}
	.st3{fill:none;stroke:#FFFFFF;stroke-width:4;stroke-linecap:round;stroke-linejoin:round;stroke-miterlimit:10;}
	.st4{fill:#FFFFFF;}
	.st5{fill:none;stroke:#606060;stroke-width:2;stroke-linecap:round;stroke-linejoin:round;stroke-miterlimit:10;}
</style>
<g>
	<g>
		<g>
			<path class="st0" d="M13.3,79c-1.8,0-3.3-1.5-3.3-3.3V4.3C10,2.5,11.5,1,13.3,1h49.5C64.5,1,66,2.5,66,4.3v71.5
				c0,1.8-1.5,3.3-3.3,3.3H13.3z"/>
			<path class="st1" d="M62.7,2C64,2,65,3,65,4.3v71.5c0,1.2-1,2.3-2.3,2.3H13.3C12,78,11,77,11,75.7V4.3C11,3,12,2,13.3,2L62.7,2
				 M62.7,0H13.3C10.9,0,9,1.9,9,4.3v71.5c0,2.3,1.9,4.3,4.3,4.3h49.5c2.3,0,4.3-1.9,4.3-4.3V4.3C67,1.9,65.1,0,62.7,0z"/>
		</g>
		<g class="st2">
			<path class="st3" d="M20,19h16"/>
			<path class="st3" d="M20,33h36"/>
			<path class="st3" d="M20,47h36"/>
			<path class="st3" d="M20,61h36"/>
		</g>
		<g>
			<g>
				<path class="st4" d="M13,22.8c-0.2-0.2-0.4-0.3-0.7-0.3H4c-1.7,0-3-1.3-3-3v-8c0-1.7,1.3-3,3-3h15c1.7,0,3,1.3,3,3v8
					c0,1.7-1.3,3-3,3h-1.3c-0.3,0-0.5,0.1-0.7,0.3l-2,1.9L13,22.8"/>
				<path class="st1" d="M19,9.5c1.1,0,2,0.9,2,2v8c0,1.1-0.9,2-2,2h-1.3c-0.5,0-1,0.2-1.4,0.5L15,23.3L13.7,22
					c-0.4-0.4-0.9-0.5-1.4-0.5H4c-1.1,0-2-0.9-2-2v-8c0-1.1,0.9-2,2-2H19 M19,7.5H4c-2.2,0-4,1.8-4,4v8c0,2.2,1.8,4,4,4h8.3L15,26
					l2.7-2.5H19c2.2,0,4-1.8,4-4v-8C23,9.3,21.2,7.5,19,7.5z"/>
			</g>
			<g>
				<circle class="st4" cx="6.5" cy="15.5" r="0.5"/>
				<path class="st1" d="M6.5,14C5.7,14,5,14.7,5,15.5C5,16.3,5.7,17,6.5,17S8,16.3,8,15.5S7.3,14,6.5,14"/>
			</g>
			<g>
				<circle class="st4" cx="11.5" cy="15.5" r="0.5"/>
				<path class="st1" d="M11.5,14c-0.8,0-1.5,0.7-1.5,1.5c0,0.8,0.7,1.5,1.5,1.5s1.5-0.7,1.5-1.5S12.3,14,11.5,14"/>
			</g>
			<g>
				<circle class="st4" cx="16.5" cy="15.5" r="0.5"/>
				<path class="st1" d="M16.5,14c-0.8,0-1.5,0.7-1.5,1.5c0,0.8,0.7,1.5,1.5,1.5c0.8,0,1.5-0.7,1.5-1.5S17.3,14,16.5,14"/>
			</g>
		</g>
		<g>
			<g>
				<path class="st4" d="M59,41.8c-0.2-0.2-0.4-0.3-0.7-0.3H57c-1.7,0-3-1.3-3-3v-8c0-1.7,1.3-3,3-3h15c1.7,0,3,1.3,3,3v8
					c0,1.7-1.3,3-3,3h-8.3c-0.3,0-0.5,0.1-0.7,0.3l-2,1.9L59,41.8"/>
				<path class="st1" d="M72,28.5c1.1,0,2,0.9,2,2v8c0,1.1-0.9,2-2,2h-8.3c-0.5,0-1,0.2-1.4,0.5L61,42.3L59.7,41
					c-0.4-0.3-0.9-0.5-1.4-0.5H57c-1.1,0-2-0.9-2-2v-8c0-1.1,0.9-2,2-2H72 M72,26.5H57c-2.2,0-4,1.8-4,4v8c0,2.2,1.8,4,4,4h1.3
					L61,45l2.7-2.5H72c2.2,0,4-1.8,4-4v-8C76,28.3,74.2,26.5,72,26.5z"/>
			</g>
			<path class="st5" d="M59,33h11"/>
			<path class="st5" d="M59,36h7"/>
		</g>
		<g>
			<g>
				<path class="st4" d="M26,67.8c-0.2-0.2-0.4-0.3-0.7-0.3H17c-1.7,0-3-1.3-3-3v-8c0-1.7,1.3-3,3-3h15c1.7,0,3,1.3,3,3v8
					c0,1.7-1.3,3-3,3h-1.3c-0.3,0-0.5,0.1-0.7,0.3l-2,1.9L26,67.8"/>
				<path class="st1" d="M32,54.5c1.1,0,2,0.9,2,2v8c0,1.1-0.9,2-2,2h-1.3c-0.5,0-1,0.2-1.4,0.5L28,68.3L26.7,67
					c-0.4-0.3-0.9-0.5-1.4-0.5H17c-1.1,0-2-0.9-2-2v-8c0-1.1,0.9-2,2-2H32 M32,52.5H17c-2.2,0-4,1.8-4,4v8c0,2.2,1.8,4,4,4h8.3
					L28,71l2.7-2.5H32c2.2,0,4-1.8,4-4v-8C36,54.3,34.2,52.5,32,52.5z"/>
			</g>
			<path class="st5" d="M30,59H19"/>
			<path class="st5" d="M26,62h-7"/>
		</g>
	</g>
</g>
</svg>
