<?xml version="1.0" encoding="utf-8"?>
<!-- Generator: Adobe Illustrator 23.0.1, SVG Export Plug-In . SVG Version: 6.00 Build 0)  -->
<svg version="1.1" id="Layer_1" xmlns="http://www.w3.org/2000/svg" xmlns:xlink="http://www.w3.org/1999/xlink" x="0px" y="0px"
	 viewBox="0 0 58 80" style="enable-background:new 0 0 58 80;" xml:space="preserve">
<style type="text/css">
	.st0{fill:#FFFFFF;}
	.st1{fill:#606060;}
	.st2{opacity:0.36;}
	.st3{fill:none;stroke:#5BA2E8;stroke-width:4;stroke-linecap:round;stroke-linejoin:round;stroke-miterlimit:10;}
	.st4{fill:none;stroke:#606060;stroke-width:2.066;stroke-linecap:round;stroke-linejoin:round;stroke-miterlimit:10;}
</style>
<g>
	<g>
		<g>
			<path class="st0" d="M4.3,79C2.5,79,1,77.5,1,75.7V4.3C1,2.5,2.5,1,4.3,1h49.5C55.5,1,57,2.5,57,4.3v71.5c0,1.8-1.5,3.3-3.3,3.3
				H4.3z"/>
			<path class="st1" d="M53.7,2C55,2,56,3,56,4.3v71.5c0,1.2-1,2.3-2.3,2.3H4.3C3,78,2,77,2,75.7V4.3C2,3,3,2,4.3,2H53.7 M53.7,0
				H4.3C1.9,0,0,1.9,0,4.3v71.5C0,78.1,1.9,80,4.3,80h49.5c2.3,0,4.3-1.9,4.3-4.3V4.3C58,1.9,56.1,0,53.7,0L53.7,0z"/>
		</g>
		<g class="st2">
			<path class="st3" d="M11,19h16"/>
			<path class="st3" d="M11,33h36"/>
			<path class="st3" d="M11,47h36"/>
			<path class="st3" d="M11,61h36"/>
		</g>
		<g>
			<circle class="st0" cx="29" cy="40" r="17"/>
			<path class="st1" d="M29,24c8.8,0,16,7.2,16,16s-7.2,16-16,16s-16-7.2-16-16S20.2,24,29,24 M29,22c-9.9,0-18,8.1-18,18
				s8.1,18,18,18s18-8.1,18-18S38.9,22,29,22z"/>
		</g>
		<path class="st4" d="M33,40h-4v-8"/>
	</g>
</g>
</svg>
