<svg width="144" height="80" viewBox="0 0 144 80" fill="none" xmlns="http://www.w3.org/2000/svg">
<path d="M55.5892 18.9105C55.0187 18.435 55.1474 17.5254 55.8275 17.2268L80.6801 6.31447C81.3975 5.99947 82.182 6.59442 82.0722 7.3702L78.0689 35.6618C77.9591 36.4376 77.0403 36.7915 76.4384 36.2898L55.5892 18.9105Z" fill="white"/>
<rect x="122.088" y="50" width="22.7432" height="22.7432" rx="1" transform="rotate(20.6084 122.088 50)" fill="#FCA326"/>
<ellipse cx="11.5" cy="56" rx="11" ry="11.5" transform="rotate(-90 11.5 56)" fill="#27AE60"/>
</svg>
