<svg width="130" height="115" viewBox="0 0 130 115" fill="none" xmlns="http://www.w3.org/2000/svg">
<path d="M105.039 113.091C104.671 113.742 103.747 113.773 103.337 113.147L84.1239 83.816C83.6955 83.1621 84.1457 82.2899 84.9248 82.2643L121.398 81.0649C122.177 81.0392 122.684 81.8803 122.299 82.5609L105.039 113.091Z" fill="#52CDB7"/>
<rect width="28.7941" height="28.7218" rx="1" transform="matrix(-0.223103 -0.974795 0.974125 -0.226011 86.5427 35.0753)" fill="white"/>
<circle r="16.7748" transform="matrix(-0.705732 0.708479 -0.705732 -0.708479 24.6723 80.5282)" fill="#FCA326"/>
</svg>
