<svg width="250" height="76" viewBox="0 0 250 76" fill="none" xmlns="http://www.w3.org/2000/svg">
<path d="M175.85 18.131H170.493L170.518 57.8409H192.215V52.9291H175.874L175.85 18.131Z" fill="#8C929D"/>
<path d="M212.862 50.8739C212.004 51.7609 210.973 52.4651 209.833 52.944C208.692 53.4229 207.466 53.6664 206.228 53.6597C202.149 53.6597 200.503 51.6559 200.503 49.0412C200.503 45.1068 203.255 43.2252 209.103 43.2252C210.37 43.2301 211.634 43.3281 212.887 43.5184V50.8739H212.862ZM207.309 26.8036C203.145 26.7908 199.109 28.2355 195.908 30.8846L197.8 34.1591C199.987 32.8884 202.665 31.6177 206.523 31.6177C210.921 31.6177 212.862 33.8659 212.862 37.6292V39.5597C211.635 39.3682 210.394 39.2702 209.152 39.2664C199.766 39.2664 194.999 42.541 194.999 49.3833C194.999 55.5169 198.783 58.596 204.508 58.596C208.366 58.596 212.076 56.8365 213.354 53.9774L214.337 57.8629H218.121V37.5314C218.096 31.1045 215.295 26.8036 207.309 26.8036Z" fill="#8C929D"/>
<path d="M235.404 53.8405C233.389 53.8405 231.62 53.5962 230.293 52.9852V34.6331C232.112 33.1181 234.372 32.0184 237.247 32.0184C242.432 32.0184 244.422 35.6595 244.422 41.5488C244.422 49.9062 241.203 53.8405 235.404 53.8405ZM237.665 26.8133C236.275 26.8048 234.899 27.0902 233.628 27.6505C232.357 28.2108 231.221 29.0333 230.293 30.0634V24.9268L230.269 18.1334H225.035L225.06 56.8658C227.689 57.9655 231.276 58.552 235.183 58.552C245.184 58.552 250 52.1984 250 41.2262C249.975 32.5511 245.528 26.8085 237.665 26.8085" fill="#8C929D"/>
<path d="M117.526 22.4392C122.269 22.4392 125.34 24.0031 127.331 25.5915L129.64 21.6083C126.52 18.8714 122.293 17.4052 117.772 17.4052C106.371 17.4052 98.3851 24.3208 98.3851 38.2743C98.3851 52.8875 107.01 58.5813 116.863 58.5813C120.94 58.5907 124.979 57.8105 128.756 56.2843L128.633 40.6691V35.7573H114.003V40.6691H123.34L123.463 52.521C122.234 53.1319 120.121 53.6207 117.246 53.6207C109.334 53.6207 104.027 48.66 104.027 38.2254C104.002 27.5954 109.482 22.4392 117.517 22.4392" fill="#8C929D"/>
<path d="M155.251 18.1261H150.018L150.042 24.7973V47.8413C150.042 54.2682 152.843 58.5691 160.829 58.5691C161.909 58.5719 162.987 58.4737 164.048 58.2759V53.6084C163.243 53.7296 162.43 53.7868 161.616 53.7795C157.217 53.7795 155.276 51.5313 155.276 47.768V31.884H164.048V27.5343H155.283L155.259 18.1261H155.251Z" fill="#8C929D"/>
<path d="M136.707 57.841H141.941V27.5393H136.707V57.841Z" fill="#8C929D"/>
<path d="M136.707 23.3604H141.941V18.1553H136.707V23.3604Z" fill="#8C929D"/>
<path d="M82.797 43.4525L78.1505 29.2498L68.9557 1.07891C68.8499 0.764627 68.6474 0.491373 68.3769 0.297769C68.1064 0.104164 67.7815 0 67.4482 0C67.115 0 66.7901 0.104164 66.5196 0.297769C66.2491 0.491373 66.0466 0.764627 65.9408 1.07891L56.7509 29.2326H26.1985L17.0037 1.07891C16.8979 0.764627 16.6954 0.491373 16.4249 0.297769C16.1544 0.104164 15.8295 0 15.4962 0C15.163 0 14.8381 0.104164 14.5676 0.297769C14.2971 0.491373 14.0946 0.764627 13.9888 1.07891L4.81123 29.2326L0.162262 43.4525C-0.0437798 44.0838 -0.0440012 44.7638 0.161629 45.3953C0.367259 46.0268 0.76823 46.5776 1.30731 46.9689L41.4722 76L81.6372 46.9689C82.1786 46.5792 82.5823 46.0293 82.7906 45.3978C82.9988 44.7662 83.0011 44.0854 82.797 43.4525Z" fill="#FC6D26"/>
<path d="M41.4819 75.9731L56.7508 29.2302H26.2081L41.4819 75.9731Z" fill="#E24329"/>
<path d="M41.472 75.9755L26.1983 29.2302H4.82086L41.472 75.9755Z" fill="#FC6D26"/>
<path d="M4.80366 29.2473L0.154694 43.4501C-0.0513481 44.0814 -0.0515696 44.7614 0.15406 45.3929C0.359691 46.0244 0.760662 46.5751 1.29974 46.9665L41.4647 76L4.80366 29.2473Z" fill="#FCA326"/>
<path d="M4.80859 29.2474H26.213L17.0011 1.09362C16.8952 0.779335 16.6927 0.50608 16.4222 0.312476C16.1517 0.118872 15.8269 0.0147095 15.4936 0.0147095C15.1603 0.0147095 14.8355 0.118872 14.565 0.312476C14.2945 0.50608 14.092 0.779335 13.9861 1.09362L4.80859 29.2474Z" fill="#E24329"/>
<path d="M41.4819 75.9755L56.7508 29.2302H78.1528L41.4819 75.9755Z" fill="#FC6D26"/>
<path d="M78.1453 29.2473L82.7968 43.4501C83.0028 44.0814 83.003 44.7614 82.7974 45.3929C82.5918 46.0244 82.1908 46.5751 81.6517 46.9665L41.4843 75.9731L78.1453 29.2473Z" fill="#FCA326"/>
<path d="M78.1576 29.2474H56.7507L65.9455 1.09362C66.0513 0.779335 66.2538 0.50608 66.5243 0.312476C66.7948 0.118872 67.1197 0.0147095 67.4529 0.0147095C67.7862 0.0147095 68.1111 0.118872 68.3816 0.312476C68.6521 0.50608 68.8546 0.779335 68.9604 1.09362L78.1552 29.2474H78.1576Z" fill="#E24329"/>
</svg>
