<svg width="298" height="353" viewBox="0 0 298 353" fill="none" xmlns="http://www.w3.org/2000/svg">
<path d="M10.9938 217.542C10.2915 217.779 9.58467 217.196 9.68318 216.461L21.5139 128.241C21.6182 127.464 22.536 127.104 23.1412 127.603L95.6562 187.388C96.2614 187.887 96.0828 188.857 95.3395 189.107L10.9938 217.542Z" fill="#EB5757"/>
<rect x="135" y="259" width="67" height="67" rx="1" transform="rotate(36.106 135 259)" fill="#FCA326"/>
<ellipse cx="260.5" cy="217" rx="37" ry="37.5" transform="rotate(-90 260.5 217)" fill="white"/>
<path d="M139.119 134.481C138.902 134.96 139.476 135.405 139.886 135.078L203.679 84.1594C203.971 83.9263 203.913 83.4668 203.573 83.313L177.665 71.6106C177.413 71.497 177.301 71.2008 177.415 70.9491L200.801 19.1743C201.02 18.6903 200.433 18.2443 200.025 18.5846L131.422 75.8547C131.138 76.0911 131.2 76.5424 131.536 76.6942L159.057 89.125C159.308 89.2387 159.42 89.5349 159.307 89.7865L139.119 134.481Z" fill="#52CDB7"/>
</svg>
