<svg width="1536" height="713" viewBox="0 0 1536 713" fill="none" xmlns="http://www.w3.org/2000/svg">
<path fill-rule="evenodd" clip-rule="evenodd" d="M1465.66 562.75C1466.08 563.116 1466.12 563.748 1465.75 564.162L1459.79 570.906C1459.42 571.32 1458.79 571.359 1458.38 570.993C1457.96 570.627 1457.93 569.995 1458.29 569.582L1462.65 564.647L1461.08 564.744L1460.96 562.747L1462.53 562.65L1457.59 558.289C1457.18 557.924 1457.14 557.292 1457.51 556.878C1457.87 556.464 1458.5 556.425 1458.92 556.791L1465.66 562.75ZM1453.12 565.235L1445.16 565.727L1445.04 563.73L1453 563.239L1453.12 565.235ZM1437.2 566.218L1429.24 566.71L1429.12 564.713L1437.08 564.222L1437.2 566.218ZM1421.28 567.201L1413.32 567.693L1413.2 565.696L1421.16 565.205L1421.28 567.201ZM1405.36 568.184L1397.4 568.675L1397.28 566.679L1405.24 566.188L1405.36 568.184ZM1389.44 569.167L1381.48 569.658L1381.36 567.662L1389.32 567.171L1389.44 569.167ZM1373.52 570.15L1365.56 570.641L1365.43 568.645L1373.4 568.154L1373.52 570.15ZM1357.6 571.133L1349.64 571.624L1349.51 569.628L1357.47 569.137L1357.6 571.133ZM1341.68 572.116L1333.72 572.607L1333.59 570.611L1341.55 570.12L1341.68 572.116ZM1325.76 573.099L1317.8 573.59L1317.67 571.594L1325.63 571.103L1325.76 573.099ZM1309.84 574.082L1301.88 574.573L1301.75 572.577L1309.71 572.085L1309.84 574.082ZM1293.92 575.065L1285.96 575.556L1285.83 573.56L1293.79 573.068L1293.92 575.065ZM1278 576.048L1270.04 576.539L1269.91 574.543L1277.87 574.051L1278 576.048ZM1262.08 577.031L1254.12 577.522L1253.99 575.526L1261.95 575.034L1262.08 577.031ZM1246.16 578.013L1238.2 578.505L1238.07 576.509L1246.03 576.017L1246.16 578.013ZM1230.23 578.996L1222.27 579.488L1222.15 577.492L1230.11 577L1230.23 578.996ZM1214.31 579.979L1206.35 580.471L1206.23 578.475L1214.19 577.983L1214.31 579.979ZM1198.39 580.962L1190.43 581.454L1190.31 579.458L1198.27 578.966L1198.39 580.962ZM1182.47 581.945L1174.51 582.437L1174.39 580.441L1182.35 579.949L1182.47 581.945ZM1166.55 582.928L1158.59 583.42L1158.47 581.423L1166.43 580.932L1166.55 582.928ZM1150.63 583.911L1142.67 584.403L1142.55 582.406L1150.51 581.915L1150.63 583.911ZM1134.71 584.894L1126.75 585.386L1126.63 583.389L1134.59 582.898L1134.71 584.894ZM1118.79 585.877L1110.83 586.369L1110.71 584.372L1118.67 583.881L1118.79 585.877ZM1102.87 586.86L1094.91 587.351L1094.79 585.355L1102.75 584.864L1102.87 586.86ZM1086.95 587.843L1078.99 588.334L1078.87 586.338L1086.83 585.847L1086.95 587.843ZM1071.03 588.826L1063.07 589.317L1062.95 587.321L1070.91 586.83L1071.03 588.826ZM1055.11 589.809L1047.15 590.3L1047.03 588.304L1054.99 587.813L1055.11 589.809ZM1039.19 590.792L1031.23 591.283L1031.11 589.287L1039.07 588.796L1039.19 590.792ZM1023.27 591.775L1015.31 592.266L1015.19 590.27L1023.15 589.779L1023.27 591.775ZM1007.35 592.758L999.389 593.249L999.266 591.253L1007.23 590.762L1007.35 592.758ZM991.429 593.741L983.468 594.232L983.345 592.236L991.305 591.745L991.429 593.741ZM975.508 594.724L967.548 595.215L967.425 593.219L975.385 592.727L975.508 594.724ZM959.588 595.707L951.628 596.198L951.504 594.202L959.464 593.71L959.588 595.707ZM943.667 596.69L935.707 597.181L935.584 595.185L943.544 594.693L943.667 596.69ZM927.747 597.673L919.787 598.164L919.663 596.168L927.624 595.676L927.747 597.673ZM911.826 598.655L903.866 599.147L903.743 597.151L911.703 596.659L911.826 598.655ZM895.906 599.638L887.945 600.13L887.822 598.134L895.783 597.642L895.906 599.638ZM879.985 600.621L872.025 601.113L871.902 599.117L879.862 598.625L879.985 600.621ZM864.065 601.604L856.105 602.096L855.981 600.1L863.941 599.608L864.065 601.604ZM848.144 602.587L840.184 603.079L840.061 601.083L848.021 600.591L848.144 602.587ZM832.224 603.57L824.264 604.062L824.14 602.066L832.101 601.574L832.224 603.57ZM816.303 604.553L808.343 605.045L808.22 603.049L816.18 602.557L816.303 604.553ZM800.383 605.536L792.423 606.028L792.299 604.031L800.26 603.54L800.383 605.536ZM784.462 606.519L776.502 607.011L776.379 605.014L784.339 604.523L784.462 606.519ZM768.542 607.502L760.582 607.994L760.458 605.997L768.419 605.506L768.542 607.502ZM752.621 608.485L744.661 608.977L744.538 606.98L752.498 606.489L752.621 608.485ZM736.701 609.468L728.741 609.959L728.617 607.963L736.578 607.472L736.701 609.468ZM720.78 610.451L712.82 610.942L712.697 608.946L720.657 608.455L720.78 610.451ZM704.86 611.434L696.9 611.925L696.776 609.929L704.737 609.438L704.86 611.434ZM688.939 612.417L680.979 612.908L680.856 610.912L688.816 610.421L688.939 612.417ZM673.019 613.4L665.059 613.891L664.935 611.895L672.896 611.404L673.019 613.4ZM657.098 614.383L649.138 614.874L649.015 612.878L656.975 612.387L657.098 614.383ZM641.178 615.366L633.218 615.857L633.094 613.861L641.055 613.37L641.178 615.366ZM625.257 616.349L617.297 616.84L617.174 614.844L625.134 614.353L625.257 616.349ZM609.337 617.332L601.377 617.823L601.253 615.827L609.214 615.335L609.337 617.332ZM593.416 618.315L585.456 618.806L585.333 616.81L593.293 616.318L593.416 618.315ZM577.496 619.298L569.536 619.789L569.412 617.793L577.373 617.301L577.496 619.298ZM561.575 620.281L553.615 620.772L553.492 618.776L561.452 618.284L561.575 620.281ZM545.655 621.263L537.695 621.755L537.572 619.759L545.532 619.267L545.655 621.263ZM529.735 622.246L521.774 622.738L521.651 620.742L529.611 620.25L529.735 622.246ZM513.814 623.229L505.854 623.721L505.731 621.725L513.691 621.233L513.814 623.229ZM497.894 624.212L489.934 624.704L489.81 622.708L497.77 622.216L497.894 624.212ZM481.973 625.195L474.013 625.687L473.89 623.691L481.85 623.199L481.973 625.195ZM466.053 626.178L458.093 626.67L457.969 624.674L465.93 624.182L466.053 626.178ZM450.132 627.161L442.172 627.653L442.049 625.656L450.009 625.165L450.132 627.161ZM434.212 628.144L426.252 628.636L426.129 626.639L434.089 626.148L434.212 628.144ZM418.292 629.127L410.331 629.619L410.208 627.622L418.168 627.131L418.292 629.127ZM402.371 630.11L394.411 630.602L394.288 628.605L402.248 628.114L402.371 630.11ZM386.451 631.093L378.491 631.584L378.367 629.588L386.327 629.097L386.451 631.093ZM370.53 632.076L362.57 632.567L362.447 630.571L370.407 630.08L370.53 632.076ZM354.61 633.059L346.65 633.55L346.526 631.554L354.487 631.063L354.61 633.059ZM338.689 634.042L330.729 634.533L330.606 632.537L338.566 632.046L338.689 634.042ZM322.769 635.025L314.809 635.516L314.686 633.52L322.646 633.029L322.769 635.025ZM306.849 636.008L298.888 636.499L298.765 634.503L306.725 634.012L306.849 636.008ZM290.928 636.991L282.968 637.482L282.845 635.486L290.805 634.995L290.928 636.991ZM275.008 637.974L267.047 638.465L266.924 636.469L274.884 635.977L275.008 637.974ZM259.087 638.957L251.127 639.448L251.004 637.452L258.964 636.96L259.087 638.957ZM243.167 639.94L235.207 640.431L235.083 638.435L243.043 637.943L243.167 639.94ZM227.246 640.923L219.286 641.414L219.163 639.418L227.123 638.926L227.246 640.923ZM211.326 641.906L203.366 642.397L203.242 640.401L211.203 639.909L211.326 641.906ZM195.405 642.888L187.445 643.38L187.322 641.384L195.282 640.892L195.405 642.888ZM179.485 643.871L171.525 644.363L171.401 642.367L179.362 641.875L179.485 643.871ZM163.564 644.854L155.604 645.346L155.481 643.35L163.441 642.858L163.564 644.854ZM147.644 645.837L139.684 646.329L139.561 644.333L147.521 643.841L147.644 645.837ZM131.724 646.82L123.763 647.312L123.64 645.316L131.6 644.824L131.724 646.82ZM115.803 647.803L107.843 648.295L107.72 646.299L115.68 645.807L115.803 647.803ZM99.8826 648.786L91.9224 649.278L91.7992 647.281L99.7594 646.79L99.8826 648.786ZM83.9622 649.769L76.0019 650.261L75.8787 648.264L83.8389 647.773L83.9622 649.769ZM68.0417 650.752L64.0616 650.998L63.9384 649.002L67.9185 648.756L68.0417 650.752Z" fill="#18A3FF"/>
<path d="M59 622H292V659H59V622Z" fill="#6E49CB"/>
<path fill-rule="evenodd" clip-rule="evenodd" d="M1465.59 429.692C1466.04 430.017 1466.13 430.643 1465.81 431.089L1460.51 438.361C1460.18 438.808 1459.55 438.906 1459.11 438.58C1458.66 438.255 1458.56 437.629 1458.89 437.183L1462.77 431.862L1461.22 432.105L1460.91 430.129L1462.46 429.886L1457.14 426.006C1456.69 425.68 1456.59 425.055 1456.92 424.609C1457.24 424.162 1457.87 424.064 1458.32 424.39L1465.59 429.692ZM1453.35 433.338L1445.48 434.571L1445.17 432.595L1453.04 431.362L1453.35 433.338ZM1437.61 435.804L1429.74 437.037L1429.43 435.061L1437.3 433.828L1437.61 435.804ZM1421.86 438.27L1413.99 439.504L1413.68 437.528L1421.56 436.294L1421.86 438.27ZM1406.12 440.737L1398.25 441.97L1397.94 439.994L1405.81 438.761L1406.12 440.737ZM1390.38 443.203L1382.51 444.436L1382.2 442.46L1390.07 441.227L1390.38 443.203ZM1374.64 445.669L1366.77 446.902L1366.46 444.927L1374.33 443.693L1374.64 445.669ZM1358.9 448.136L1351.03 449.369L1350.72 447.393L1358.59 446.16L1358.9 448.136ZM1343.16 450.602L1335.29 451.835L1334.98 449.859L1342.85 448.626L1343.16 450.602ZM1327.42 453.068L1319.54 454.301L1319.23 452.325L1327.11 451.092L1327.42 453.068ZM1311.67 455.534L1303.8 456.768L1303.49 454.792L1311.36 453.559L1311.67 455.534ZM1295.93 458.001L1288.06 459.234L1287.75 457.258L1295.62 456.025L1295.93 458.001ZM1280.19 460.467L1272.32 461.7L1272.01 459.724L1279.88 458.491L1280.19 460.467ZM1264.45 462.933L1256.58 464.166L1256.27 462.191L1264.14 460.957L1264.45 462.933ZM1248.71 465.4L1240.84 466.633L1240.53 464.657L1248.4 463.424L1248.71 465.4ZM1232.97 467.866L1225.1 469.099L1224.79 467.123L1232.66 465.89L1232.97 467.866ZM1217.22 470.332L1209.35 471.565L1209.04 469.589L1216.91 468.356L1217.22 470.332ZM1201.48 472.798L1193.61 474.032L1193.3 472.056L1201.17 470.823L1201.48 472.798ZM1185.74 475.265L1177.87 476.498L1177.56 474.522L1185.43 473.289L1185.74 475.265ZM1170 477.731L1162.13 478.964L1161.82 476.988L1169.69 475.755L1170 477.731ZM1154.26 480.197L1146.39 481.43L1146.08 479.455L1153.95 478.221L1154.26 480.197ZM1138.52 482.664L1130.65 483.897L1130.34 481.921L1138.21 480.688L1138.52 482.664ZM1122.78 485.13L1114.9 486.363L1114.59 484.387L1122.47 483.154L1122.78 485.13ZM1107.03 487.596L1099.16 488.829L1098.85 486.853L1106.72 485.62L1107.03 487.596ZM1091.29 490.062L1083.42 491.296L1083.11 489.32L1090.98 488.087L1091.29 490.062ZM1075.55 492.529L1067.68 493.762L1067.37 491.786L1075.24 490.553L1075.55 492.529ZM1059.81 494.995L1051.94 496.228L1051.63 494.252L1059.5 493.019L1059.81 494.995ZM1044.07 497.461L1036.2 498.695L1035.89 496.719L1043.76 495.485L1044.07 497.461ZM1028.33 499.928L1020.45 501.161L1020.15 499.185L1028.02 497.952L1028.33 499.928ZM1012.58 502.394L1004.71 503.627L1004.4 501.651L1012.27 500.418L1012.58 502.394ZM996.843 504.86L988.972 506.093L988.662 504.118L996.533 502.884L996.843 504.86ZM981.101 507.327L973.23 508.56L972.921 506.584L980.791 505.351L981.101 507.327ZM965.359 509.793L957.489 511.026L957.179 509.05L965.05 507.817L965.359 509.793ZM949.618 512.259L941.747 513.492L941.438 511.516L949.308 510.283L949.618 512.259ZM933.876 514.725L926.006 515.959L925.696 513.983L933.567 512.75L933.876 514.725ZM918.135 517.192L910.264 518.425L909.954 516.449L917.825 515.216L918.135 517.192ZM902.393 519.658L894.522 520.891L894.213 518.915L902.084 517.682L902.393 519.658ZM886.652 522.124L878.781 523.357L878.471 521.382L886.342 520.148L886.652 522.124ZM870.91 524.591L863.039 525.824L862.73 523.848L870.6 522.615L870.91 524.591ZM855.168 527.057L847.298 528.29L846.988 526.314L854.859 525.081L855.168 527.057ZM839.427 529.523L831.556 530.756L831.247 528.78L839.117 527.547L839.427 529.523ZM823.685 531.989L815.815 533.223L815.505 531.247L823.376 530.014L823.685 531.989ZM807.944 534.456L800.073 535.689L799.763 533.713L807.634 532.48L807.944 534.456ZM792.202 536.922L784.331 538.155L784.022 536.179L791.893 534.946L792.202 536.922ZM776.461 539.388L768.59 540.621L768.28 538.646L776.151 537.412L776.461 539.388ZM760.719 541.855L752.848 543.088L752.539 541.112L760.41 539.879L760.719 541.855ZM744.978 544.321L737.107 545.554L736.797 543.578L744.668 542.345L744.978 544.321ZM729.236 546.787L721.365 548.02L721.056 546.044L728.926 544.811L729.236 546.787ZM713.494 549.253L705.624 550.487L705.314 548.511L713.185 547.278L713.494 549.253ZM697.753 551.72L689.882 552.953L689.572 550.977L697.443 549.744L697.753 551.72ZM682.011 554.186L674.141 555.419L673.831 553.443L681.702 552.21L682.011 554.186ZM666.27 556.652L658.399 557.885L658.089 555.91L665.96 554.676L666.27 556.652ZM650.528 559.119L642.657 560.352L642.348 558.376L650.219 557.143L650.528 559.119ZM634.787 561.585L626.916 562.818L626.606 560.842L634.477 559.609L634.787 561.585ZM619.045 564.051L611.174 565.284L610.865 563.308L618.735 562.075L619.045 564.051ZM603.303 566.518L595.433 567.751L595.123 565.775L602.994 564.542L603.303 566.518ZM587.562 568.984L579.691 570.217L579.382 568.241L587.252 567.008L587.562 568.984ZM571.82 571.45L563.95 572.683L563.64 570.707L571.511 569.474L571.82 571.45ZM556.079 573.916L548.208 575.15L547.898 573.174L555.769 571.94L556.079 573.916ZM540.337 576.383L532.466 577.616L532.157 575.64L540.028 574.407L540.337 576.383ZM524.596 578.849L516.725 580.082L516.415 578.106L524.286 576.873L524.596 578.849ZM508.854 581.315L500.983 582.548L500.674 580.573L508.544 579.339L508.854 581.315ZM493.112 583.782L485.242 585.015L484.932 583.039L492.803 581.806L493.112 583.782ZM477.371 586.248L469.5 587.481L469.191 585.505L477.061 584.272L477.371 586.248ZM461.629 588.714L453.759 589.947L453.449 587.971L461.32 586.738L461.629 588.714ZM445.888 591.18L438.017 592.414L437.707 590.438L445.578 589.205L445.888 591.18ZM430.146 593.647L422.275 594.88L421.966 592.904L429.837 591.671L430.146 593.647ZM414.405 596.113L406.534 597.346L406.224 595.37L414.095 594.137L414.405 596.113ZM398.663 598.579L390.792 599.812L390.483 597.837L398.354 596.603L398.663 598.579ZM382.922 601.046L375.051 602.279L374.741 600.303L382.612 599.07L382.922 601.046ZM367.18 603.512L359.309 604.745L359 602.769L366.87 601.536L367.18 603.512ZM351.438 605.978L343.568 607.211L343.258 605.235L351.129 604.002L351.438 605.978ZM335.697 608.444L327.826 609.678L327.517 607.702L335.387 606.469L335.697 608.444ZM319.955 610.911L312.085 612.144L311.775 610.168L319.646 608.935L319.955 610.911ZM304.214 613.377L296.343 614.61L296.033 612.634L303.904 611.401L304.214 613.377ZM288.472 615.843L280.601 617.076L280.292 615.101L288.163 613.867L288.472 615.843ZM272.731 618.31L264.86 619.543L264.55 617.567L272.421 616.334L272.731 618.31ZM256.989 620.776L249.118 622.009L248.809 620.033L256.679 618.8L256.989 620.776ZM241.247 623.242L233.377 624.475L233.067 622.499L240.938 621.266L241.247 623.242ZM225.506 625.708L217.635 626.942L217.326 624.966L225.196 623.733L225.506 625.708ZM209.764 628.175L201.894 629.408L201.584 627.432L209.455 626.199L209.764 628.175ZM194.023 630.641L186.152 631.874L185.842 629.898L193.713 628.665L194.023 630.641ZM178.281 633.107L170.41 634.34L170.101 632.365L177.972 631.131L178.281 633.107ZM162.54 635.574L154.669 636.807L154.359 634.831L162.23 633.598L162.54 635.574ZM146.798 638.04L138.927 639.273L138.618 637.297L146.488 636.064L146.798 638.04ZM131.056 640.506L123.186 641.739L122.876 639.763L130.747 638.53L131.056 640.506ZM115.315 642.973L107.444 644.206L107.135 642.23L115.005 640.997L115.315 642.973ZM99.5733 645.439L91.7025 646.672L91.393 644.696L99.2638 643.463L99.5733 645.439ZM83.8318 647.905L75.961 649.138L75.6514 647.162L83.5222 645.929L83.8318 647.905ZM68.0902 650.371L64.1548 650.988L63.8452 649.012L67.7806 648.396L68.0902 650.371Z" fill="#FF99D1"/>
<path d="M59 614H261V655H59V614Z" fill="#6E49CB"/>
<path d="M594 544H702V574H594V544Z" fill="#6E49CB"/>
<path d="M772.659 712H775.039V700.92H778.799V698.92H768.899V700.92H772.659V712Z" fill="#380D75"/>
<path d="M780.756 712H783.136V702.16H780.756V712ZM781.956 700.48C782.796 700.48 783.376 699.94 783.376 699.14C783.376 698.34 782.796 697.8 781.956 697.8C781.116 697.8 780.536 698.34 780.536 699.14C780.536 699.94 781.116 700.48 781.956 700.48Z" fill="#380D75"/>
<path d="M786.01 712H788.39V705.16C789.13 704.34 789.81 703.96 790.41 703.96C791.41 703.96 791.89 704.54 791.89 706.14V712H794.25V705.16C794.99 704.34 795.67 703.96 796.27 703.96C797.29 703.96 797.75 704.54 797.75 706.14V712H800.13V705.84C800.13 703.36 799.17 701.92 797.09 701.92C795.83 701.92 794.87 702.68 793.93 703.68C793.47 702.58 792.65 701.92 791.21 701.92C789.97 701.92 789.03 702.64 788.19 703.5H788.13L787.95 702.16H786.01V712Z" fill="#380D75"/>
<path d="M807.105 712.24C808.385 712.24 809.585 711.88 810.505 711.2L809.705 709.72C809.025 710.16 808.265 710.4 807.425 710.4C805.865 710.4 804.825 709.44 804.585 707.8H810.785C810.865 707.44 810.905 707.08 810.905 706.6C810.905 703.84 809.465 701.92 806.805 701.92C804.505 701.92 802.265 703.88 802.265 707.08C802.265 710.36 804.385 712.24 807.105 712.24ZM804.585 706.04C804.785 704.56 805.745 703.76 806.865 703.76C808.145 703.76 808.825 704.6 808.825 706.04H804.585Z" fill="#380D75"/>
<path d="M15.24 378.741C15.24 377.061 14.6 375.701 13.34 374.601L11.92 375.881C12.72 376.601 13.18 377.501 13.18 378.641C13.18 380.821 11.38 382.201 8.43999 382.201C5.51999 382.201 3.75999 380.681 3.75999 378.601C3.75999 377.581 4.13999 376.801 4.79999 376.121L3.33999 374.861C2.43999 375.681 1.67999 377.001 1.67999 378.641C1.67999 381.961 4.21999 384.641 8.49999 384.641C12.84 384.641 15.24 382.021 15.24 378.741Z" fill="#380D75"/>
<path d="M15.24 368.578C15.24 366.138 13.36 363.898 10.1 363.898C6.81999 363.898 4.91999 366.138 4.91999 368.578C4.91999 371.038 6.81999 373.278 10.1 373.278C13.36 373.278 15.24 371.038 15.24 368.578ZM13.32 368.578C13.32 369.998 12.04 370.838 10.1 370.838C8.13999 370.838 6.85999 369.998 6.85999 368.578C6.85999 367.158 8.13999 366.318 10.1 366.318C12.04 366.318 13.32 367.158 13.32 368.578Z" fill="#380D75"/>
<path d="M15 361.662L15 359.282L8.15999 359.282C7.33999 358.542 6.95999 357.862 6.95999 357.262C6.95999 356.262 7.53999 355.782 9.13999 355.782L15 355.782L15 353.422L8.15999 353.422C7.33999 352.682 6.95999 352.002 6.95999 351.402C6.95999 350.382 7.53999 349.922 9.13999 349.922L15 349.922L15 347.542L8.83999 347.542C6.35999 347.542 4.91999 348.502 4.91999 350.582C4.91999 351.842 5.67999 352.802 6.67999 353.742C5.57999 354.202 4.91999 355.022 4.91999 356.462C4.91999 357.702 5.63999 358.642 6.49999 359.482L6.49999 359.542L5.15999 359.722L5.15999 361.662L15 361.662Z" fill="#380D75"/>
<path d="M18.86 344.767L18.86 342.387L15.8 342.387L14.16 342.467C14.84 341.687 15.24 340.827 15.24 339.947C15.24 337.767 13.3 335.767 9.93999 335.767C6.89999 335.767 4.91999 337.187 4.91999 339.627C4.91999 340.707 5.49999 341.747 6.19999 342.587L6.19999 342.647L5.15999 342.827L5.15999 344.767L18.86 344.767ZM13.28 340.467C13.28 341.027 13.08 341.707 12.5 342.387L7.95999 342.387C7.21999 341.647 6.87999 340.987 6.87999 340.287C6.87999 338.827 8.01999 338.187 9.95999 338.187C12.16 338.187 13.28 339.187 13.28 340.467Z" fill="#380D75"/>
<path d="M15.24 331.178C15.24 330.618 15.16 330.218 15.02 329.938L13.28 330.218C13.32 330.378 13.32 330.458 13.32 330.578C13.32 330.818 13.12 331.078 12.54 331.078L0.879985 331.078L0.879985 333.458L12.42 333.458C14.16 333.458 15.24 332.838 15.24 331.178Z" fill="#380D75"/>
<path d="M15.24 323.809C15.24 322.529 14.88 321.329 14.2 320.409L12.72 321.209C13.16 321.889 13.4 322.649 13.4 323.489C13.4 325.049 12.44 326.089 10.8 326.329L10.8 320.129C10.44 320.049 10.08 320.009 9.59999 320.009C6.83998 320.009 4.91999 321.449 4.91999 324.109C4.91999 326.409 6.87999 328.649 10.08 328.649C13.36 328.649 15.24 326.529 15.24 323.809ZM9.03999 326.329C7.55999 326.129 6.75999 325.169 6.75999 324.049C6.75999 322.769 7.59999 322.089 9.03999 322.089L9.03999 326.329Z" fill="#380D75"/>
<path d="M15 319.247L15 316.787L13.08 315.787C12.5 315.487 11.9 315.207 11.34 314.907L11.34 314.827C11.9 314.507 12.5 314.167 13.08 313.847L15 312.667L15 310.127L10.14 313.227L5.15999 310.327L5.15999 312.787L6.99999 313.687C7.55999 313.947 8.11999 314.207 8.65999 314.467L8.65999 314.547C8.11999 314.827 7.55999 315.147 6.99999 315.427L5.15999 316.507L5.15999 319.047L9.87999 316.147L15 319.247Z" fill="#380D75"/>
<path d="M15 308.4L15 306.02L5.15998 306.02L5.15999 308.4L15 308.4ZM3.47998 307.2C3.47998 306.36 2.93998 305.78 2.13998 305.78C1.33998 305.78 0.799984 306.36 0.799984 307.2C0.799984 308.04 1.33998 308.62 2.13999 308.62C2.93998 308.62 3.47998 308.04 3.47998 307.2Z" fill="#380D75"/>
<path d="M15.24 299.646C15.24 298.846 15.06 298.126 14.82 297.606L13.16 298.026C13.3 298.366 13.36 298.706 13.36 299.046C13.36 299.966 12.8 300.426 11.66 300.426L7.03998 300.426L7.03998 297.926L5.15998 297.926L5.15998 300.426L2.09998 300.426L2.09998 302.386L5.15998 302.666L5.27998 304.186L7.03998 304.186L7.03998 302.786L11.66 302.786C13.8 302.786 15.24 301.946 15.24 299.646Z" fill="#380D75"/>
<path d="M19.02 295.18C19.02 293.02 17.66 291.98 15.42 291.16L5.15998 287.62L5.15998 289.9L9.93998 291.34C10.84 291.58 11.8 291.84 12.72 292.08L12.72 292.16C11.78 292.44 10.8 292.72 9.93998 293.02L5.15998 294.68L5.15998 297.08L14.86 293.22L15.48 293.4C16.44 293.72 17.12 294.32 17.12 295.34C17.12 295.56 17.1 295.74 17.02 296.02L18.8 296.48C18.94 296.1 19.02 295.72 19.02 295.18Z" fill="#380D75"/>
<path fill-rule="evenodd" clip-rule="evenodd" d="M1536 673.5H43V670.5H1536V673.5Z" fill="#380D75"/>
<path fill-rule="evenodd" clip-rule="evenodd" d="M44.5 0V673.5H41.5V0H44.5Z" fill="#380D75"/>
<path d="M987.207 20.0001H989.427V14.2801C989.427 12.8201 989.267 11.2001 989.127 9.84014H989.207C989.627 10.8801 990.067 11.9201 990.547 12.8001L994.467 20.0001H997.007V6.92014H994.787V12.6401C994.787 14.0801 994.947 15.6801 995.087 17.0801H995.007C994.587 16.0401 994.147 15.0001 993.667 14.1201L989.747 6.92014H987.207V20.0001Z" fill="white"/>
<path d="M1004.17 20.2401C1006.61 20.2401 1008.85 18.3601 1008.85 15.1001C1008.85 11.8201 1006.61 9.92014 1004.17 9.92014C1001.71 9.92014 999.472 11.8201 999.472 15.1001C999.472 18.3601 1001.71 20.2401 1004.17 20.2401ZM1004.17 18.3201C1002.75 18.3201 1001.91 17.0401 1001.91 15.1001C1001.91 13.1401 1002.75 11.8601 1004.17 11.8601C1005.59 11.8601 1006.43 13.1401 1006.43 15.1001C1006.43 17.0401 1005.59 18.3201 1004.17 18.3201Z" fill="white"/>
<path d="M1012.23 20.2401C1013.09 20.2401 1013.75 19.5601 1013.75 18.6601C1013.75 17.7401 1013.09 17.0601 1012.23 17.0601C1011.37 17.0601 1010.71 17.7401 1010.71 18.6601C1010.71 19.5601 1011.37 20.2401 1012.23 20.2401Z" fill="white"/>
<path d="M1024.52 20.2401C1026.96 20.2401 1029.2 18.3601 1029.2 15.1001C1029.2 11.8201 1026.96 9.92014 1024.52 9.92014C1022.06 9.92014 1019.82 11.8201 1019.82 15.1001C1019.82 18.3601 1022.06 20.2401 1024.52 20.2401ZM1024.52 18.3201C1023.1 18.3201 1022.26 17.0401 1022.26 15.1001C1022.26 13.1401 1023.1 11.8601 1024.52 11.8601C1025.94 11.8601 1026.78 13.1401 1026.78 15.1001C1026.78 17.0401 1025.94 18.3201 1024.52 18.3201Z" fill="white"/>
<path d="M1031.78 20.0001H1034.14V12.0401H1036.04V10.1601H1034.14V9.16014C1034.14 8.04014 1034.56 7.52014 1035.38 7.52014C1035.7 7.52014 1036.04 7.58014 1036.4 7.68014L1036.88 5.98014C1036.46 5.82014 1035.78 5.64014 1035.06 5.64014C1032.72 5.64014 1031.78 7.16014 1031.78 9.20014V10.1601L1030.46 10.2801V12.0401H1031.78V20.0001Z" fill="white"/>
<path d="M1041.75 23.8601H1044.13V20.8001L1044.05 19.1601C1044.83 19.8401 1045.69 20.2401 1046.57 20.2401C1048.75 20.2401 1050.75 18.3001 1050.75 14.9401C1050.75 11.9001 1049.33 9.92014 1046.89 9.92014C1045.81 9.92014 1044.77 10.5001 1043.93 11.2001H1043.87L1043.69 10.1601H1041.75V23.8601ZM1046.05 18.2801C1045.49 18.2801 1044.81 18.0801 1044.13 17.5001V12.9601C1044.87 12.2201 1045.53 11.8801 1046.23 11.8801C1047.69 11.8801 1048.33 13.0201 1048.33 14.9601C1048.33 17.1601 1047.33 18.2801 1046.05 18.2801Z" fill="white"/>
<path d="M1053.06 20.0001H1055.44V14.0401C1056.02 12.5401 1056.96 12.0201 1057.74 12.0201C1058.14 12.0201 1058.38 12.0601 1058.68 12.1401L1059.16 10.1201C1058.86 10.0001 1058.54 9.92014 1058.04 9.92014C1057 9.92014 1055.96 10.6401 1055.24 11.9201H1055.18L1055 10.1601H1053.06V20.0001Z" fill="white"/>
<path d="M1064.45 20.2401C1066.89 20.2401 1069.13 18.3601 1069.13 15.1001C1069.13 11.8201 1066.89 9.92014 1064.45 9.92014C1061.99 9.92014 1059.75 11.8201 1059.75 15.1001C1059.75 18.3601 1061.99 20.2401 1064.45 20.2401ZM1064.45 18.3201C1063.03 18.3201 1062.19 17.0401 1062.19 15.1001C1062.19 13.1401 1063.03 11.8601 1064.45 11.8601C1065.87 11.8601 1066.71 13.1401 1066.71 15.1001C1066.71 17.0401 1065.87 18.3201 1064.45 18.3201Z" fill="white"/>
<path d="M1070.6 24.1001C1072.96 24.1001 1073.76 22.5401 1073.76 20.4401V10.1601H1071.4V20.5001C1071.4 21.6401 1071.14 22.2401 1070.28 22.2401C1069.98 22.2401 1069.7 22.1601 1069.44 22.0801L1069 23.8201C1069.38 23.9801 1069.9 24.1001 1070.6 24.1001ZM1072.56 8.48014C1073.4 8.48014 1073.98 7.94014 1073.98 7.14014C1073.98 6.34014 1073.4 5.80014 1072.56 5.80014C1071.72 5.80014 1071.14 6.34014 1071.14 7.14014C1071.14 7.94014 1071.72 8.48014 1072.56 8.48014Z" fill="white"/>
<path d="M1080.84 20.2401C1082.12 20.2401 1083.32 19.8801 1084.24 19.2001L1083.44 17.7201C1082.76 18.1601 1082 18.4001 1081.16 18.4001C1079.6 18.4001 1078.56 17.4401 1078.32 15.8001H1084.52C1084.6 15.4401 1084.64 15.0801 1084.64 14.6001C1084.64 11.8401 1083.2 9.92014 1080.54 9.92014C1078.24 9.92014 1076 11.8801 1076 15.0801C1076 18.3601 1078.12 20.2401 1080.84 20.2401ZM1078.32 14.0401C1078.52 12.5601 1079.48 11.7601 1080.6 11.7601C1081.88 11.7601 1082.56 12.6001 1082.56 14.0401H1078.32Z" fill="white"/>
<path d="M1090.91 20.2401C1092.03 20.2401 1093.19 19.8601 1094.13 19.0401L1093.17 17.5401C1092.61 18.0001 1091.93 18.3201 1091.15 18.3201C1089.65 18.3201 1088.59 17.0401 1088.59 15.1001C1088.59 13.1401 1089.67 11.8601 1091.23 11.8601C1091.85 11.8601 1092.35 12.0601 1092.85 12.5001L1093.99 11.0201C1093.27 10.3801 1092.35 9.92014 1091.11 9.92014C1088.47 9.92014 1086.15 11.8201 1086.15 15.1001C1086.15 18.3601 1088.23 20.2401 1090.91 20.2401Z" fill="white"/>
<path d="M1099.33 20.2401C1100.13 20.2401 1100.85 20.0601 1101.37 19.8201L1100.95 18.1601C1100.61 18.3001 1100.27 18.3601 1099.93 18.3601C1099.01 18.3601 1098.55 17.8001 1098.55 16.6601V12.0401H1101.05V10.1601H1098.55V7.10014H1096.59L1096.31 10.1601L1094.79 10.2801V12.0401H1096.19V16.6601C1096.19 18.8001 1097.03 20.2401 1099.33 20.2401Z" fill="white"/>
<path d="M1109.84 9.94014C1109.84 8.96014 1110.42 8.28014 1111.22 8.28014C1111.96 8.28014 1112.26 8.82014 1112.26 9.50014C1112.26 10.5001 1111.42 11.1601 1110.36 11.8201C1110.02 11.1601 1109.84 10.5201 1109.84 9.94014ZM1110.42 20.2401C1112 20.2401 1113.32 19.7001 1114.38 18.8401C1115.46 19.5401 1116.56 20.0001 1117.56 20.2401L1118.16 18.3201C1117.46 18.1801 1116.66 17.8001 1115.8 17.3001C1116.82 15.9401 1117.56 14.4001 1118.04 12.7601H1115.86C1115.5 14.1001 1114.94 15.2401 1114.2 16.2001C1113.12 15.3601 1112.06 14.3201 1111.26 13.2601C1112.68 12.2801 1114.1 11.2001 1114.1 9.48014C1114.1 7.80014 1113 6.68014 1111.18 6.68014C1109.16 6.68014 1107.86 8.16014 1107.86 9.96014C1107.86 10.8401 1108.16 11.8401 1108.7 12.8401C1107.38 13.7001 1106.22 14.7601 1106.22 16.5601C1106.22 18.6001 1107.78 20.2401 1110.42 20.2401ZM1108.48 16.4201C1108.48 15.6401 1108.98 15.0001 1109.68 14.4201C1110.54 15.5801 1111.6 16.7001 1112.76 17.6601C1112.1 18.1201 1111.4 18.4201 1110.7 18.4201C1109.42 18.4201 1108.48 17.6201 1108.48 16.4201Z" fill="white"/>
<path d="M1127.44 20.2401C1128.24 20.2401 1128.96 20.0601 1129.48 19.8201L1129.06 18.1601C1128.72 18.3001 1128.38 18.3601 1128.04 18.3601C1127.12 18.3601 1126.66 17.8001 1126.66 16.6601V12.0401H1129.16V10.1601H1126.66V7.10014H1124.7L1124.42 10.1601L1122.9 10.2801V12.0401H1124.3V16.6601C1124.3 18.8001 1125.14 20.2401 1127.44 20.2401Z" fill="white"/>
<path d="M1134.95 20.2401C1137.39 20.2401 1139.63 18.3601 1139.63 15.1001C1139.63 11.8201 1137.39 9.92014 1134.95 9.92014C1132.49 9.92014 1130.25 11.8201 1130.25 15.1001C1130.25 18.3601 1132.49 20.2401 1134.95 20.2401ZM1134.95 18.3201C1133.53 18.3201 1132.69 17.0401 1132.69 15.1001C1132.69 13.1401 1133.53 11.8601 1134.95 11.8601C1136.37 11.8601 1137.21 13.1401 1137.21 15.1001C1137.21 17.0401 1136.37 18.3201 1134.95 18.3201Z" fill="white"/>
<path d="M1145.93 20.2401C1148.37 20.2401 1150.61 18.3601 1150.61 15.1001C1150.61 11.8201 1148.37 9.92014 1145.93 9.92014C1143.47 9.92014 1141.23 11.8201 1141.23 15.1001C1141.23 18.3601 1143.47 20.2401 1145.93 20.2401ZM1145.93 18.3201C1144.51 18.3201 1143.67 17.0401 1143.67 15.1001C1143.67 13.1401 1144.51 11.8601 1145.93 11.8601C1147.35 11.8601 1148.19 13.1401 1148.19 15.1001C1148.19 17.0401 1147.35 18.3201 1145.93 18.3201Z" fill="white"/>
<path d="M1155.13 20.2401C1155.69 20.2401 1156.09 20.1601 1156.37 20.0201L1156.09 18.2801C1155.93 18.3201 1155.85 18.3201 1155.73 18.3201C1155.49 18.3201 1155.23 18.1201 1155.23 17.5401V5.88014H1152.85V17.4201C1152.85 19.1601 1153.47 20.2401 1155.13 20.2401Z" fill="white"/>
<path d="M1162.3 20.0001H1164.68V10.1601H1162.3V20.0001ZM1163.5 8.48014C1164.34 8.48014 1164.92 7.94014 1164.92 7.14014C1164.92 6.34014 1164.34 5.80014 1163.5 5.80014C1162.66 5.80014 1162.08 6.34014 1162.08 7.14014C1162.08 7.94014 1162.66 8.48014 1163.5 8.48014Z" fill="white"/>
<path d="M1167.55 20.0001H1169.93V13.1601C1170.71 12.3601 1171.27 11.9601 1172.13 11.9601C1173.17 11.9601 1173.63 12.5401 1173.63 14.1401V20.0001H1175.99V13.8401C1175.99 11.3601 1175.07 9.92014 1172.95 9.92014C1171.61 9.92014 1170.61 10.6401 1169.73 11.4801H1169.67L1169.49 10.1601H1167.55V20.0001Z" fill="white"/>
<path d="M1182.26 20.2401C1183.06 20.2401 1183.78 20.0601 1184.3 19.8201L1183.88 18.1601C1183.54 18.3001 1183.2 18.3601 1182.86 18.3601C1181.94 18.3601 1181.48 17.8001 1181.48 16.6601V12.0401H1183.98V10.1601H1181.48V7.10014H1179.52L1179.24 10.1601L1177.72 10.2801V12.0401H1179.12V16.6601C1179.12 18.8001 1179.96 20.2401 1182.26 20.2401Z" fill="white"/>
<path d="M1189.92 20.2401C1191.2 20.2401 1192.4 19.8801 1193.32 19.2001L1192.52 17.7201C1191.84 18.1601 1191.08 18.4001 1190.24 18.4001C1188.68 18.4001 1187.64 17.4401 1187.4 15.8001H1193.6C1193.68 15.4401 1193.72 15.0801 1193.72 14.6001C1193.72 11.8401 1192.28 9.92014 1189.62 9.92014C1187.32 9.92014 1185.08 11.8801 1185.08 15.0801C1185.08 18.3601 1187.2 20.2401 1189.92 20.2401ZM1187.4 14.0401C1187.6 12.5601 1188.56 11.7601 1189.68 11.7601C1190.96 11.7601 1191.64 12.6001 1191.64 14.0401H1187.4Z" fill="white"/>
<path d="M1199.12 24.3401C1202.34 24.3401 1204.38 22.8001 1204.38 20.8601C1204.38 19.1601 1203.12 18.4201 1200.78 18.4201H1199.04C1197.86 18.4201 1197.46 18.1001 1197.46 17.5601C1197.46 17.1201 1197.64 16.8801 1197.92 16.6401C1198.36 16.8001 1198.82 16.8801 1199.24 16.8801C1201.32 16.8801 1203 15.7201 1203 13.5401C1203 12.8801 1202.76 12.2801 1202.46 11.9201H1204.22V10.1601H1200.7C1200.3 10.0201 1199.78 9.92014 1199.24 9.92014C1197.18 9.92014 1195.34 11.2001 1195.34 13.4601C1195.34 14.6201 1195.96 15.5601 1196.64 16.0601V16.1401C1196.06 16.5401 1195.54 17.2001 1195.54 17.9601C1195.54 18.7601 1195.94 19.2801 1196.44 19.6001V19.6801C1195.54 20.2401 1195.02 20.9401 1195.02 21.7801C1195.02 23.5001 1196.78 24.3401 1199.12 24.3401ZM1199.24 15.4001C1198.32 15.4001 1197.56 14.7001 1197.56 13.4601C1197.56 12.2401 1198.3 11.5601 1199.24 11.5601C1200.18 11.5601 1200.9 12.2401 1200.9 13.4601C1200.9 14.7001 1200.16 15.4001 1199.24 15.4001ZM1199.48 22.8001C1197.96 22.8001 1197 22.3001 1197 21.4201C1197 20.9601 1197.22 20.5401 1197.74 20.1401C1198.12 20.2401 1198.54 20.2801 1199.08 20.2801H1200.4C1201.5 20.2801 1202.1 20.5001 1202.1 21.2401C1202.1 22.0801 1201.04 22.8001 1199.48 22.8001Z" fill="white"/>
<path d="M1206.11 20.0001H1208.49V14.0401C1209.07 12.5401 1210.01 12.0201 1210.79 12.0201C1211.19 12.0201 1211.43 12.0601 1211.73 12.1401L1212.21 10.1201C1211.91 10.0001 1211.59 9.92014 1211.09 9.92014C1210.05 9.92014 1209.01 10.6401 1208.29 11.9201H1208.23L1208.05 10.1601H1206.11V20.0001Z" fill="white"/>
<path d="M1215.5 20.2401C1216.66 20.2401 1217.62 19.6801 1218.5 18.9201H1218.58L1218.78 20.0001H1220.7V14.1801C1220.7 11.4401 1219.46 9.92014 1217.02 9.92014C1215.46 9.92014 1214.06 10.5201 1212.98 11.2001L1213.82 12.7601C1214.7 12.2401 1215.62 11.8401 1216.58 11.8401C1217.9 11.8401 1218.3 12.6801 1218.34 13.6801C1214.3 14.1201 1212.58 15.2001 1212.58 17.3601C1212.58 19.0801 1213.78 20.2401 1215.5 20.2401ZM1216.22 18.3601C1215.42 18.3601 1214.86 18.0401 1214.86 17.2001C1214.86 16.2001 1215.66 15.6001 1218.34 15.2801V17.3601C1217.62 18.0401 1217.02 18.3601 1216.22 18.3601Z" fill="white"/>
<path d="M1226.6 20.2401C1227.4 20.2401 1228.12 20.0601 1228.64 19.8201L1228.22 18.1601C1227.88 18.3001 1227.54 18.3601 1227.2 18.3601C1226.28 18.3601 1225.82 17.8001 1225.82 16.6601V12.0401H1228.32V10.1601H1225.82V7.10014H1223.86L1223.58 10.1601L1222.06 10.2801V12.0401H1223.46V16.6601C1223.46 18.8001 1224.3 20.2401 1226.6 20.2401Z" fill="white"/>
<path d="M1230.37 20.0001H1232.75V10.1601H1230.37V20.0001ZM1231.57 8.48014C1232.41 8.48014 1232.99 7.94014 1232.99 7.14014C1232.99 6.34014 1232.41 5.80014 1231.57 5.80014C1230.73 5.80014 1230.15 6.34014 1230.15 7.14014C1230.15 7.94014 1230.73 8.48014 1231.57 8.48014Z" fill="white"/>
<path d="M1239.68 20.2401C1242.12 20.2401 1244.36 18.3601 1244.36 15.1001C1244.36 11.8201 1242.12 9.92014 1239.68 9.92014C1237.22 9.92014 1234.98 11.8201 1234.98 15.1001C1234.98 18.3601 1237.22 20.2401 1239.68 20.2401ZM1239.68 18.3201C1238.26 18.3201 1237.42 17.0401 1237.42 15.1001C1237.42 13.1401 1238.26 11.8601 1239.68 11.8601C1241.1 11.8601 1241.94 13.1401 1241.94 15.1001C1241.94 17.0401 1241.1 18.3201 1239.68 18.3201Z" fill="white"/>
<path d="M1246.6 20.0001H1248.98V13.1601C1249.76 12.3601 1250.32 11.9601 1251.18 11.9601C1252.22 11.9601 1252.68 12.5401 1252.68 14.1401V20.0001H1255.04V13.8401C1255.04 11.3601 1254.12 9.92014 1252 9.92014C1250.66 9.92014 1249.66 10.6401 1248.78 11.4801H1248.72L1248.54 10.1601H1246.6V20.0001Z" fill="white"/>
<path d="M1260.57 20.2401C1263.07 20.2401 1264.43 18.8801 1264.43 17.1801C1264.43 15.4801 1263.09 14.7001 1261.57 14.1801C1260.33 13.7601 1259.63 13.4801 1259.63 12.7601C1259.63 12.1801 1260.07 11.7001 1261.05 11.7001C1261.83 11.7001 1262.55 11.9401 1263.25 12.4601L1264.27 11.1201C1263.47 10.4201 1262.33 9.92014 1260.99 9.92014C1258.79 9.92014 1257.39 11.1601 1257.39 12.8801C1257.39 14.4401 1258.71 15.2601 1260.13 15.7801C1261.23 16.1801 1262.19 16.5001 1262.19 17.3201C1262.19 17.9801 1261.69 18.4601 1260.65 18.4601C1259.65 18.4601 1258.75 18.1601 1257.89 17.4601L1256.85 18.8001C1257.81 19.7201 1259.21 20.2401 1260.57 20.2401Z" fill="white"/>
<path d="M1368.91 402H1371.13V396.28C1371.13 394.82 1370.97 393.2 1370.83 391.84H1370.91C1371.33 392.88 1371.77 393.92 1372.25 394.8L1376.17 402H1378.71V388.92H1376.49V394.64C1376.49 396.08 1376.65 397.68 1376.79 399.08H1376.71C1376.29 398.04 1375.85 397 1375.37 396.12L1371.45 388.92H1368.91V402Z" fill="white"/>
<path d="M1385.87 402.24C1388.31 402.24 1390.55 400.36 1390.55 397.1C1390.55 393.82 1388.31 391.92 1385.87 391.92C1383.41 391.92 1381.17 393.82 1381.17 397.1C1381.17 400.36 1383.41 402.24 1385.87 402.24ZM1385.87 400.32C1384.45 400.32 1383.61 399.04 1383.61 397.1C1383.61 395.14 1384.45 393.86 1385.87 393.86C1387.29 393.86 1388.13 395.14 1388.13 397.1C1388.13 399.04 1387.29 400.32 1385.87 400.32Z" fill="white"/>
<path d="M1393.93 402.24C1394.79 402.24 1395.45 401.56 1395.45 400.66C1395.45 399.74 1394.79 399.06 1393.93 399.06C1393.07 399.06 1392.41 399.74 1392.41 400.66C1392.41 401.56 1393.07 402.24 1393.93 402.24Z" fill="white"/>
<path d="M1406.22 402.24C1408.66 402.24 1410.9 400.36 1410.9 397.1C1410.9 393.82 1408.66 391.92 1406.22 391.92C1403.76 391.92 1401.52 393.82 1401.52 397.1C1401.52 400.36 1403.76 402.24 1406.22 402.24ZM1406.22 400.32C1404.8 400.32 1403.96 399.04 1403.96 397.1C1403.96 395.14 1404.8 393.86 1406.22 393.86C1407.64 393.86 1408.48 395.14 1408.48 397.1C1408.48 399.04 1407.64 400.32 1406.22 400.32Z" fill="white"/>
<path d="M1413.48 402H1415.84V394.04H1417.74V392.16H1415.84V391.16C1415.84 390.04 1416.26 389.52 1417.08 389.52C1417.4 389.52 1417.74 389.58 1418.1 389.68L1418.58 387.98C1418.16 387.82 1417.48 387.64 1416.76 387.64C1414.42 387.64 1413.48 389.16 1413.48 391.2V392.16L1412.16 392.28V394.04H1413.48V402Z" fill="white"/>
<path d="M1426.95 402.24C1427.75 402.24 1428.47 402.06 1428.99 401.82L1428.57 400.16C1428.23 400.3 1427.89 400.36 1427.55 400.36C1426.63 400.36 1426.17 399.8 1426.17 398.66V394.04H1428.67V392.16H1426.17V389.1H1424.21L1423.93 392.16L1422.41 392.28V394.04H1423.81V398.66C1423.81 400.8 1424.65 402.24 1426.95 402.24Z" fill="white"/>
<path d="M1434.46 402.24C1436.9 402.24 1439.14 400.36 1439.14 397.1C1439.14 393.82 1436.9 391.92 1434.46 391.92C1432 391.92 1429.76 393.82 1429.76 397.1C1429.76 400.36 1432 402.24 1434.46 402.24ZM1434.46 400.32C1433.04 400.32 1432.2 399.04 1432.2 397.1C1432.2 395.14 1433.04 393.86 1434.46 393.86C1435.88 393.86 1436.72 395.14 1436.72 397.1C1436.72 399.04 1435.88 400.32 1434.46 400.32Z" fill="white"/>
<path d="M1445.44 402.24C1447.88 402.24 1450.12 400.36 1450.12 397.1C1450.12 393.82 1447.88 391.92 1445.44 391.92C1442.98 391.92 1440.74 393.82 1440.74 397.1C1440.74 400.36 1442.98 402.24 1445.44 402.24ZM1445.44 400.32C1444.02 400.32 1443.18 399.04 1443.18 397.1C1443.18 395.14 1444.02 393.86 1445.44 393.86C1446.86 393.86 1447.7 395.14 1447.7 397.1C1447.7 399.04 1446.86 400.32 1445.44 400.32Z" fill="white"/>
<path d="M1454.64 402.24C1455.2 402.24 1455.6 402.16 1455.88 402.02L1455.6 400.28C1455.44 400.32 1455.36 400.32 1455.24 400.32C1455 400.32 1454.74 400.12 1454.74 399.54V387.88H1452.36V399.42C1452.36 401.16 1452.98 402.24 1454.64 402.24Z" fill="white"/>
<path d="M1460.57 402.24C1463.07 402.24 1464.43 400.88 1464.43 399.18C1464.43 397.48 1463.09 396.7 1461.57 396.18C1460.33 395.76 1459.63 395.48 1459.63 394.76C1459.63 394.18 1460.07 393.7 1461.05 393.7C1461.83 393.7 1462.55 393.94 1463.25 394.46L1464.27 393.12C1463.47 392.42 1462.33 391.92 1460.99 391.92C1458.79 391.92 1457.39 393.16 1457.39 394.88C1457.39 396.44 1458.71 397.26 1460.13 397.78C1461.23 398.18 1462.19 398.5 1462.19 399.32C1462.19 399.98 1461.69 400.46 1460.65 400.46C1459.65 400.46 1458.75 400.16 1457.89 399.46L1456.85 400.8C1457.81 401.72 1459.21 402.24 1460.57 402.24Z" fill="white"/>
<path d="M1342.11 535H1344.33V529.28C1344.33 527.82 1344.17 526.2 1344.03 524.84H1344.11C1344.53 525.88 1344.97 526.92 1345.45 527.8L1349.37 535H1351.91V521.92H1349.69V527.64C1349.69 529.08 1349.85 530.68 1349.99 532.08H1349.91C1349.49 531.04 1349.05 530 1348.57 529.12L1344.65 521.92H1342.11V535Z" fill="white"/>
<path d="M1359.07 535.24C1361.51 535.24 1363.75 533.36 1363.75 530.1C1363.75 526.82 1361.51 524.92 1359.07 524.92C1356.61 524.92 1354.37 526.82 1354.37 530.1C1354.37 533.36 1356.61 535.24 1359.07 535.24ZM1359.07 533.32C1357.65 533.32 1356.81 532.04 1356.81 530.1C1356.81 528.14 1357.65 526.86 1359.07 526.86C1360.49 526.86 1361.33 528.14 1361.33 530.1C1361.33 532.04 1360.49 533.32 1359.07 533.32Z" fill="white"/>
<path d="M1367.14 535.24C1368 535.24 1368.66 534.56 1368.66 533.66C1368.66 532.74 1368 532.06 1367.14 532.06C1366.28 532.06 1365.62 532.74 1365.62 533.66C1365.62 534.56 1366.28 535.24 1367.14 535.24Z" fill="white"/>
<path d="M1379.43 535.24C1381.87 535.24 1384.11 533.36 1384.11 530.1C1384.11 526.82 1381.87 524.92 1379.43 524.92C1376.97 524.92 1374.73 526.82 1374.73 530.1C1374.73 533.36 1376.97 535.24 1379.43 535.24ZM1379.43 533.32C1378.01 533.32 1377.17 532.04 1377.17 530.1C1377.17 528.14 1378.01 526.86 1379.43 526.86C1380.85 526.86 1381.69 528.14 1381.69 530.1C1381.69 532.04 1380.85 533.32 1379.43 533.32Z" fill="white"/>
<path d="M1386.68 535H1389.04V527.04H1390.94V525.16H1389.04V524.16C1389.04 523.04 1389.46 522.52 1390.28 522.52C1390.6 522.52 1390.94 522.58 1391.3 522.68L1391.78 520.98C1391.36 520.82 1390.68 520.64 1389.96 520.64C1387.62 520.64 1386.68 522.16 1386.68 524.2V525.16L1385.36 525.28V527.04H1386.68V535Z" fill="white"/>
<path d="M1396.65 538.86H1399.03V535.8L1398.95 534.16C1399.73 534.84 1400.59 535.24 1401.47 535.24C1403.65 535.24 1405.65 533.3 1405.65 529.94C1405.65 526.9 1404.23 524.92 1401.79 524.92C1400.71 524.92 1399.67 525.5 1398.83 526.2H1398.77L1398.59 525.16H1396.65V538.86ZM1400.95 533.28C1400.39 533.28 1399.71 533.08 1399.03 532.5V527.96C1399.77 527.22 1400.43 526.88 1401.13 526.88C1402.59 526.88 1403.23 528.02 1403.23 529.96C1403.23 532.16 1402.23 533.28 1400.95 533.28Z" fill="white"/>
<path d="M1407.96 535H1410.34V529.04C1410.92 527.54 1411.86 527.02 1412.64 527.02C1413.04 527.02 1413.28 527.06 1413.58 527.14L1414.06 525.12C1413.76 525 1413.44 524.92 1412.94 524.92C1411.9 524.92 1410.86 525.64 1410.14 526.92H1410.08L1409.9 525.16H1407.96V535Z" fill="white"/>
<path d="M1419.35 535.24C1421.79 535.24 1424.03 533.36 1424.03 530.1C1424.03 526.82 1421.79 524.92 1419.35 524.92C1416.89 524.92 1414.65 526.82 1414.65 530.1C1414.65 533.36 1416.89 535.24 1419.35 535.24ZM1419.35 533.32C1417.93 533.32 1417.09 532.04 1417.09 530.1C1417.09 528.14 1417.93 526.86 1419.35 526.86C1420.77 526.86 1421.61 528.14 1421.61 530.1C1421.61 532.04 1420.77 533.32 1419.35 533.32Z" fill="white"/>
<path d="M1425.5 539.1C1427.86 539.1 1428.66 537.54 1428.66 535.44V525.16H1426.3V535.5C1426.3 536.64 1426.04 537.24 1425.18 537.24C1424.88 537.24 1424.6 537.16 1424.34 537.08L1423.9 538.82C1424.28 538.98 1424.8 539.1 1425.5 539.1ZM1427.46 523.48C1428.3 523.48 1428.88 522.94 1428.88 522.14C1428.88 521.34 1428.3 520.8 1427.46 520.8C1426.62 520.8 1426.04 521.34 1426.04 522.14C1426.04 522.94 1426.62 523.48 1427.46 523.48Z" fill="white"/>
<path d="M1435.74 535.24C1437.02 535.24 1438.22 534.88 1439.14 534.2L1438.34 532.72C1437.66 533.16 1436.9 533.4 1436.06 533.4C1434.5 533.4 1433.46 532.44 1433.22 530.8H1439.42C1439.5 530.44 1439.54 530.08 1439.54 529.6C1439.54 526.84 1438.1 524.92 1435.44 524.92C1433.14 524.92 1430.9 526.88 1430.9 530.08C1430.9 533.36 1433.02 535.24 1435.74 535.24ZM1433.22 529.04C1433.42 527.56 1434.38 526.76 1435.5 526.76C1436.78 526.76 1437.46 527.6 1437.46 529.04H1433.22Z" fill="white"/>
<path d="M1445.81 535.24C1446.93 535.24 1448.09 534.86 1449.03 534.04L1448.07 532.54C1447.51 533 1446.83 533.32 1446.05 533.32C1444.55 533.32 1443.49 532.04 1443.49 530.1C1443.49 528.14 1444.57 526.86 1446.13 526.86C1446.75 526.86 1447.25 527.06 1447.75 527.5L1448.89 526.02C1448.17 525.38 1447.25 524.92 1446.01 524.92C1443.37 524.92 1441.05 526.82 1441.05 530.1C1441.05 533.36 1443.13 535.24 1445.81 535.24Z" fill="white"/>
<path d="M1454.24 535.24C1455.04 535.24 1455.76 535.06 1456.28 534.82L1455.86 533.16C1455.52 533.3 1455.18 533.36 1454.84 533.36C1453.92 533.36 1453.46 532.8 1453.46 531.66V527.04H1455.96V525.16H1453.46V522.1H1451.5L1451.22 525.16L1449.7 525.28V527.04H1451.1V531.66C1451.1 533.8 1451.94 535.24 1454.24 535.24Z" fill="white"/>
<path d="M1460.57 535.24C1463.07 535.24 1464.43 533.88 1464.43 532.18C1464.43 530.48 1463.09 529.7 1461.57 529.18C1460.33 528.76 1459.63 528.48 1459.63 527.76C1459.63 527.18 1460.07 526.7 1461.05 526.7C1461.83 526.7 1462.55 526.94 1463.25 527.46L1464.27 526.12C1463.47 525.42 1462.33 524.92 1460.99 524.92C1458.79 524.92 1457.39 526.16 1457.39 527.88C1457.39 529.44 1458.71 530.26 1460.13 530.78C1461.23 531.18 1462.19 531.5 1462.19 532.32C1462.19 532.98 1461.69 533.46 1460.65 533.46C1459.65 533.46 1458.75 533.16 1457.89 532.46L1456.85 533.8C1457.81 534.72 1459.21 535.24 1460.57 535.24Z" fill="white"/>
<path fill-rule="evenodd" clip-rule="evenodd" d="M1264.7 46.7852C1265.38 46.622 1266.05 47.0336 1266.21 47.7044L1268.87 58.6356C1269.04 59.3064 1268.63 59.9825 1267.95 60.1456C1267.28 60.3088 1266.61 59.8973 1266.44 59.2265L1264.5 51.2165C1193.9 165.81 1057.09 296.755 912.362 402.322C839.443 455.511 764.478 502.283 694.906 537.296C625.354 572.299 561.109 595.591 509.648 601.741C407.142 613.992 295.762 626.367 210.01 635.68C167.134 640.336 130.664 644.227 104.913 646.954C92.0374 648.317 81.8417 649.389 74.8647 650.121C71.3762 650.487 68.6925 650.767 66.8808 650.956L64.1403 651.242L64.132 651.243C64.1302 651.243 64.1293 651.243 64 650C63.8708 648.757 63.8717 648.756 63.8735 648.756L66.6212 648.47C68.4326 648.281 71.116 648 74.604 647.635C81.5802 646.903 91.7751 645.831 104.65 644.468C130.399 641.741 166.866 637.851 209.74 633.195C295.488 623.882 406.858 611.508 509.352 599.259C560.391 593.159 624.334 570.013 693.782 535.063C763.21 500.123 838.057 453.426 910.888 400.302C1055.49 294.829 1192 164.121 1262.35 49.9304L1254.36 51.8733C1253.69 52.0365 1253.02 51.625 1252.85 50.9542C1252.69 50.2834 1253.1 49.6073 1253.77 49.4442L1264.7 46.7852Z" fill="#FF9769"/>
<path d="M175.075 410H185.2V407.5H178.05V402.75H183.9V400.25H178.05V396.15H184.95V393.65H175.075V410Z" fill="white"/>
<path d="M185.85 410H188.925L190.175 407.6C190.55 406.875 190.9 406.125 191.275 405.425H191.375C191.775 406.125 192.2 406.875 192.6 407.6L194.075 410H197.25L193.375 403.925L197 397.7H193.925L192.8 400C192.475 400.7 192.15 401.4 191.825 402.075H191.725C191.375 401.4 190.975 400.7 190.625 400L189.275 397.7H186.1L189.725 403.6L185.85 410Z" fill="white"/>
<path d="M199.409 414.825H202.384V411L202.284 408.95C203.259 409.8 204.334 410.3 205.434 410.3C208.159 410.3 210.659 407.875 210.659 403.675C210.659 399.875 208.884 397.4 205.834 397.4C204.484 397.4 203.184 398.125 202.134 399H202.059L201.834 397.7H199.409V414.825ZM204.784 407.85C204.084 407.85 203.234 407.6 202.384 406.875V401.2C203.309 400.275 204.134 399.85 205.009 399.85C206.834 399.85 207.634 401.275 207.634 403.7C207.634 406.45 206.384 407.85 204.784 407.85Z" fill="white"/>
<path d="M218.62 410.3C221.67 410.3 224.47 407.95 224.47 403.875C224.47 399.775 221.67 397.4 218.62 397.4C215.545 397.4 212.745 399.775 212.745 403.875C212.745 407.95 215.545 410.3 218.62 410.3ZM218.62 407.9C216.845 407.9 215.795 406.3 215.795 403.875C215.795 401.425 216.845 399.825 218.62 399.825C220.395 399.825 221.445 401.425 221.445 403.875C221.445 406.3 220.395 407.9 218.62 407.9Z" fill="white"/>
<path d="M227.266 410H230.241V401.45C231.216 400.45 231.916 399.95 232.991 399.95C234.291 399.95 234.866 400.675 234.866 402.675V410H237.816V402.3C237.816 399.2 236.666 397.4 234.016 397.4C232.341 397.4 231.091 398.3 229.991 399.35H229.916L229.691 397.7H227.266V410Z" fill="white"/>
<path d="M246.529 410.3C248.129 410.3 249.629 409.85 250.779 409L249.779 407.15C248.929 407.7 247.979 408 246.929 408C244.979 408 243.679 406.8 243.379 404.75H251.129C251.229 404.3 251.279 403.85 251.279 403.25C251.279 399.8 249.479 397.4 246.154 397.4C243.279 397.4 240.479 399.85 240.479 403.85C240.479 407.95 243.129 410.3 246.529 410.3ZM243.379 402.55C243.629 400.7 244.829 399.7 246.229 399.7C247.829 399.7 248.679 400.75 248.679 402.55H243.379Z" fill="white"/>
<path d="M253.975 410H256.95V401.45C257.925 400.45 258.625 399.95 259.7 399.95C261 399.95 261.575 400.675 261.575 402.675V410H264.525V402.3C264.525 399.2 263.375 397.4 260.725 397.4C259.05 397.4 257.8 398.3 256.7 399.35H256.625L256.4 397.7H253.975V410Z" fill="white"/>
<path d="M272.363 410.3C273.363 410.3 274.263 410.075 274.913 409.775L274.388 407.7C273.963 407.875 273.538 407.95 273.113 407.95C271.963 407.95 271.388 407.25 271.388 405.825V400.05H274.513V397.7H271.388V393.875H268.938L268.588 397.7L266.688 397.85V400.05H268.438V405.825C268.438 408.5 269.488 410.3 272.363 410.3Z" fill="white"/>
<path d="M277.07 410H280.045V397.7H277.07V410ZM278.57 395.6C279.62 395.6 280.345 394.925 280.345 393.925C280.345 392.925 279.62 392.25 278.57 392.25C277.52 392.25 276.795 392.925 276.795 393.925C276.795 394.925 277.52 395.6 278.57 395.6Z" fill="white"/>
<path d="M286.638 410.3C288.088 410.3 289.288 409.6 290.388 408.65H290.488L290.738 410H293.138V402.725C293.138 399.3 291.588 397.4 288.538 397.4C286.588 397.4 284.838 398.15 283.488 399L284.538 400.95C285.638 400.3 286.788 399.8 287.988 399.8C289.638 399.8 290.138 400.85 290.188 402.1C285.138 402.65 282.988 404 282.988 406.7C282.988 408.85 284.488 410.3 286.638 410.3ZM287.538 407.95C286.538 407.95 285.838 407.55 285.838 406.5C285.838 405.25 286.838 404.5 290.188 404.1V406.7C289.288 407.55 288.538 407.95 287.538 407.95Z" fill="white"/>
<path d="M299.379 410.3C300.079 410.3 300.578 410.2 300.928 410.025L300.578 407.85C300.378 407.9 300.279 407.9 300.129 407.9C299.829 407.9 299.504 407.65 299.504 406.925V392.35H296.529V406.775C296.529 408.95 297.304 410.3 299.379 410.3Z" fill="white"/>
<path d="M313.495 410.3C314.895 410.3 316.345 409.825 317.52 408.8L316.32 406.925C315.62 407.5 314.77 407.9 313.795 407.9C311.92 407.9 310.595 406.3 310.595 403.875C310.595 401.425 311.945 399.825 313.895 399.825C314.67 399.825 315.295 400.075 315.92 400.625L317.345 398.775C316.445 397.975 315.295 397.4 313.745 397.4C310.445 397.4 307.545 399.775 307.545 403.875C307.545 407.95 310.145 410.3 313.495 410.3Z" fill="white"/>
<path d="M324.333 410.3C327.383 410.3 330.183 407.95 330.183 403.875C330.183 399.775 327.383 397.4 324.333 397.4C321.258 397.4 318.458 399.775 318.458 403.875C318.458 407.95 321.258 410.3 324.333 410.3ZM324.333 407.9C322.558 407.9 321.508 406.3 321.508 403.875C321.508 401.425 322.558 399.825 324.333 399.825C326.108 399.825 327.158 401.425 327.158 403.875C327.158 406.3 326.108 407.9 324.333 407.9Z" fill="white"/>
<path d="M332.979 410H335.954V401.45C336.879 400.425 337.729 399.95 338.479 399.95C339.729 399.95 340.329 400.675 340.329 402.675V410H343.279V401.45C344.204 400.425 345.054 399.95 345.804 399.95C347.079 399.95 347.654 400.675 347.654 402.675V410H350.629V402.3C350.629 399.2 349.429 397.4 346.829 397.4C345.254 397.4 344.054 398.35 342.879 399.6C342.304 398.225 341.279 397.4 339.479 397.4C337.929 397.4 336.754 398.3 335.704 399.375H335.629L335.404 397.7H332.979V410Z" fill="white"/>
<path d="M354.097 414.825H357.072V411L356.972 408.95C357.947 409.8 359.022 410.3 360.122 410.3C362.847 410.3 365.347 407.875 365.347 403.675C365.347 399.875 363.572 397.4 360.522 397.4C359.172 397.4 357.872 398.125 356.822 399H356.747L356.522 397.7H354.097V414.825ZM359.472 407.85C358.772 407.85 357.922 407.6 357.072 406.875V401.2C357.997 400.275 358.822 399.85 359.697 399.85C361.522 399.85 362.322 401.275 362.322 403.7C362.322 406.45 361.072 407.85 359.472 407.85Z" fill="white"/>
<path d="M371.083 410.3C371.783 410.3 372.283 410.2 372.633 410.025L372.283 407.85C372.083 407.9 371.983 407.9 371.833 407.9C371.533 407.9 371.208 407.65 371.208 406.925V392.35H368.233V406.775C368.233 408.95 369.008 410.3 371.083 410.3Z" fill="white"/>
<path d="M380.294 410.3C381.894 410.3 383.394 409.85 384.544 409L383.544 407.15C382.694 407.7 381.744 408 380.694 408C378.744 408 377.444 406.8 377.144 404.75H384.894C384.994 404.3 385.044 403.85 385.044 403.25C385.044 399.8 383.244 397.4 379.919 397.4C377.044 397.4 374.244 399.85 374.244 403.85C374.244 407.95 376.894 410.3 380.294 410.3ZM377.144 402.55C377.394 400.7 378.594 399.7 379.994 399.7C381.594 399.7 382.444 400.75 382.444 402.55H377.144Z" fill="white"/>
<path d="M385.996 410H389.071L390.321 407.6C390.696 406.875 391.046 406.125 391.421 405.425H391.521C391.921 406.125 392.346 406.875 392.746 407.6L394.221 410H397.396L393.521 403.925L397.146 397.7H394.071L392.946 400C392.621 400.7 392.296 401.4 391.971 402.075H391.871C391.521 401.4 391.121 400.7 390.771 400L389.421 397.7H386.246L389.871 403.6L385.996 410Z" fill="white"/>
<path d="M399.556 410H402.531V397.7H399.556V410ZM401.056 395.6C402.106 395.6 402.831 394.925 402.831 393.925C402.831 392.925 402.106 392.25 401.056 392.25C400.006 392.25 399.281 392.925 399.281 393.925C399.281 394.925 400.006 395.6 401.056 395.6Z" fill="white"/>
<path d="M410.498 410.3C411.498 410.3 412.398 410.075 413.048 409.775L412.523 407.7C412.098 407.875 411.673 407.95 411.248 407.95C410.098 407.95 409.523 407.25 409.523 405.825V400.05H412.648V397.7H409.523V393.875H407.073L406.723 397.7L404.823 397.85V400.05H406.573V405.825C406.573 408.5 407.623 410.3 410.498 410.3Z" fill="white"/>
<path d="M416.08 415.025C418.78 415.025 420.08 413.325 421.105 410.525L425.53 397.7H422.68L420.88 403.675C420.58 404.8 420.255 406 419.955 407.15H419.855C419.505 405.975 419.155 404.75 418.78 403.675L416.705 397.7H413.705L418.53 409.825L418.305 410.6C417.905 411.8 417.155 412.65 415.88 412.65C415.605 412.65 415.38 412.625 415.03 412.525L414.455 414.75C414.93 414.925 415.405 415.025 416.08 415.025Z" fill="white"/>
<path d="M175.075 456H179.6C184.45 456 187.45 453.2 187.45 447.75C187.45 442.325 184.45 439.65 179.45 439.65H175.075V456ZM178.05 453.6V442.075H179.25C182.5 442.075 184.375 443.75 184.375 447.75C184.375 451.775 182.5 453.6 179.25 453.6H178.05Z" fill="white"/>
<path d="M195.699 456.3C197.299 456.3 198.799 455.85 199.949 455L198.949 453.15C198.099 453.7 197.149 454 196.099 454C194.149 454 192.849 452.8 192.549 450.75H200.299C200.399 450.3 200.449 449.85 200.449 449.25C200.449 445.8 198.649 443.4 195.324 443.4C192.449 443.4 189.649 445.85 189.649 449.85C189.649 453.95 192.299 456.3 195.699 456.3ZM192.549 448.55C192.799 446.7 193.999 445.7 195.399 445.7C196.999 445.7 197.849 446.75 197.849 448.55H192.549Z" fill="white"/>
<path d="M205.92 456H209.32L213.495 443.7H210.645L208.72 450.025C208.395 451.25 208.02 452.5 207.695 453.75H207.595C207.245 452.5 206.895 451.25 206.545 450.025L204.645 443.7H201.645L205.92 456Z" fill="white"/>
<path d="M222.246 456.3C226.521 456.3 229.471 453.05 229.471 447.75C229.471 442.475 226.521 439.35 222.246 439.35C217.971 439.35 215.021 442.475 215.021 447.75C215.021 453.05 217.971 456.3 222.246 456.3ZM222.246 453.725C219.696 453.725 218.071 451.4 218.071 447.75C218.071 444.125 219.696 441.95 222.246 441.95C224.771 441.95 226.421 444.125 226.421 447.75C226.421 451.4 224.771 453.725 222.246 453.725Z" fill="white"/>
<path d="M232.466 460.825H235.441V457L235.341 454.95C236.316 455.8 237.391 456.3 238.491 456.3C241.216 456.3 243.716 453.875 243.716 449.675C243.716 445.875 241.941 443.4 238.891 443.4C237.541 443.4 236.241 444.125 235.191 445H235.116L234.891 443.7H232.466V460.825ZM237.841 453.85C237.141 453.85 236.291 453.6 235.441 452.875V447.2C236.366 446.275 237.191 445.85 238.066 445.85C239.891 445.85 240.691 447.275 240.691 449.7C240.691 452.45 239.441 453.85 237.841 453.85Z" fill="white"/>
<path d="M249.954 456.3C253.079 456.3 254.779 454.6 254.779 452.475C254.779 450.35 253.104 449.375 251.204 448.725C249.654 448.2 248.779 447.85 248.779 446.95C248.779 446.225 249.329 445.625 250.554 445.625C251.529 445.625 252.429 445.925 253.304 446.575L254.579 444.9C253.579 444.025 252.154 443.4 250.479 443.4C247.729 443.4 245.979 444.95 245.979 447.1C245.979 449.05 247.629 450.075 249.404 450.725C250.779 451.225 251.979 451.625 251.979 452.65C251.979 453.475 251.354 454.075 250.054 454.075C248.804 454.075 247.679 453.7 246.604 452.825L245.304 454.5C246.504 455.65 248.254 456.3 249.954 456.3Z" fill="white"/>
<path d="M262.3 456H265.275V447.45C266.2 446.425 267.05 445.95 267.8 445.95C269.05 445.95 269.65 446.675 269.65 448.675V456H272.6V447.45C273.525 446.425 274.375 445.95 275.125 445.95C276.4 445.95 276.975 446.675 276.975 448.675V456H279.95V448.3C279.95 445.2 278.75 443.4 276.15 443.4C274.575 443.4 273.375 444.35 272.2 445.6C271.625 444.225 270.6 443.4 268.8 443.4C267.25 443.4 266.075 444.3 265.025 445.375H264.95L264.725 443.7H262.3V456Z" fill="white"/>
<path d="M286.418 456.3C287.868 456.3 289.068 455.6 290.168 454.65H290.268L290.518 456H292.918V448.725C292.918 445.3 291.368 443.4 288.318 443.4C286.368 443.4 284.618 444.15 283.268 445L284.318 446.95C285.418 446.3 286.568 445.8 287.768 445.8C289.418 445.8 289.918 446.85 289.968 448.1C284.918 448.65 282.768 450 282.768 452.7C282.768 454.85 284.268 456.3 286.418 456.3ZM287.318 453.95C286.318 453.95 285.618 453.55 285.618 452.5C285.618 451.25 286.618 450.5 289.968 450.1V452.7C289.068 453.55 288.318 453.95 287.318 453.95Z" fill="white"/>
<path d="M300.293 456.3C301.293 456.3 302.193 456.075 302.843 455.775L302.318 453.7C301.893 453.875 301.468 453.95 301.043 453.95C299.893 453.95 299.318 453.25 299.318 451.825V446.05H302.443V443.7H299.318V439.875H296.868L296.518 443.7L294.618 443.85V446.05H296.368V451.825C296.368 454.5 297.418 456.3 300.293 456.3Z" fill="white"/>
<path d="M308.65 456.3C310.35 456.3 311.525 455.475 312.6 454.2H312.675L312.9 456H315.325V443.7H312.375V452.1C311.475 453.275 310.775 453.775 309.7 453.775C308.4 453.775 307.825 453.025 307.825 451.025V443.7H304.875V451.4C304.875 454.5 306.025 456.3 308.65 456.3Z" fill="white"/>
<path d="M318.941 456H321.916V448.55C322.641 446.675 323.816 446.025 324.791 446.025C325.291 446.025 325.591 446.075 325.966 446.175L326.566 443.65C326.191 443.5 325.791 443.4 325.166 443.4C323.866 443.4 322.566 444.3 321.666 445.9H321.591L321.366 443.7H318.941V456Z" fill="white"/>
<path d="M328.34 456H331.315V443.7H328.34V456ZM329.84 441.6C330.89 441.6 331.615 440.925 331.615 439.925C331.615 438.925 330.89 438.25 329.84 438.25C328.79 438.25 328.065 438.925 328.065 439.925C328.065 440.925 328.79 441.6 329.84 441.6Z" fill="white"/>
<path d="M339.282 456.3C340.282 456.3 341.182 456.075 341.832 455.775L341.307 453.7C340.882 453.875 340.457 453.95 340.032 453.95C338.882 453.95 338.307 453.25 338.307 451.825V446.05H341.432V443.7H338.307V439.875H335.857L335.507 443.7L333.607 443.85V446.05H335.357V451.825C335.357 454.5 336.407 456.3 339.282 456.3Z" fill="white"/>
<path d="M344.864 461.025C347.564 461.025 348.864 459.325 349.889 456.525L354.314 443.7H351.464L349.664 449.675C349.364 450.8 349.039 452 348.739 453.15H348.639C348.289 451.975 347.939 450.75 347.564 449.675L345.489 443.7H342.489L347.314 455.825L347.089 456.6C346.689 457.8 345.939 458.65 344.664 458.65C344.389 458.65 344.164 458.625 343.814 458.525L343.239 460.75C343.714 460.925 344.189 461.025 344.864 461.025Z" fill="white"/>
<path d="M360.471 446.025H371.621V443.875H360.471V446.025ZM360.471 451.625H371.621V449.475H360.471V451.625Z" fill="white"/>
<path d="M379.718 456H381.593V446.975C381.593 445.525 381.443 443.575 381.343 442.125H381.443L382.743 445.85L385.843 454.35H387.218L390.318 445.85L391.618 442.125H391.718C391.618 443.575 391.443 445.525 391.443 446.975V456H393.393V439.6H390.868L387.768 448.35C387.368 449.475 387.043 450.65 386.643 451.775H386.543C386.143 450.65 385.768 449.475 385.368 448.35L382.218 439.6H379.718V456Z" fill="white"/>
<path d="M402.407 456.3C405.382 456.3 408.032 453.975 408.032 449.95C408.032 445.875 405.382 443.55 402.407 443.55C399.432 443.55 396.782 445.875 396.782 449.95C396.782 453.975 399.432 456.3 402.407 456.3ZM402.407 454.6C400.332 454.6 398.907 452.725 398.907 449.95C398.907 447.15 400.332 445.25 402.407 445.25C404.507 445.25 405.907 447.15 405.907 449.95C405.907 452.725 404.507 454.6 402.407 454.6Z" fill="white"/>
<path d="M411.232 456H413.282V448.2C414.107 446.15 415.332 445.4 416.357 445.4C416.857 445.4 417.132 445.475 417.532 445.6L417.932 443.8C417.532 443.625 417.157 443.55 416.632 443.55C415.257 443.55 414.007 444.525 413.182 446.05H413.107L412.932 443.85H411.232V456Z" fill="white"/>
<path d="M424.579 456.3C426.229 456.3 427.529 455.725 428.579 455.05L427.854 453.7C426.954 454.275 425.979 454.65 424.829 454.65C422.504 454.65 420.929 453 420.779 450.425H428.979C429.029 450.125 429.054 449.675 429.054 449.25C429.054 445.775 427.304 443.55 424.204 443.55C421.429 443.55 418.754 445.975 418.754 449.95C418.754 453.925 421.329 456.3 424.579 456.3ZM420.754 448.95C421.004 446.55 422.554 445.175 424.254 445.175C426.154 445.175 427.254 446.5 427.254 448.95H420.754Z" fill="white"/>
<path d="M440.887 456.3C441.637 456.3 442.462 456.075 443.137 455.85L442.737 454.3C442.337 454.45 441.787 454.625 441.362 454.625C439.962 454.625 439.487 453.775 439.487 452.275V445.525H442.762V443.85H439.487V440.45H437.762L437.512 443.85L435.612 443.975V445.525H437.412V452.25C437.412 454.65 438.287 456.3 440.887 456.3Z" fill="white"/>
<path d="M449.892 456.3C452.867 456.3 455.517 453.975 455.517 449.95C455.517 445.875 452.867 443.55 449.892 443.55C446.917 443.55 444.267 445.875 444.267 449.95C444.267 453.975 446.917 456.3 449.892 456.3ZM449.892 454.6C447.817 454.6 446.392 452.725 446.392 449.95C446.392 447.15 447.817 445.25 449.892 445.25C451.992 445.25 453.392 447.15 453.392 449.95C453.392 452.725 451.992 454.6 449.892 454.6Z" fill="white"/>
<path d="M463.442 456.3C466.417 456.3 469.067 453.975 469.067 449.95C469.067 445.875 466.417 443.55 463.442 443.55C460.467 443.55 457.817 445.875 457.817 449.95C457.817 453.975 460.467 456.3 463.442 456.3ZM463.442 454.6C461.367 454.6 459.942 452.725 459.942 449.95C459.942 447.15 461.367 445.25 463.442 445.25C465.542 445.25 466.942 447.15 466.942 449.95C466.942 452.725 465.542 454.6 463.442 454.6Z" fill="white"/>
<path d="M474.442 456.3C474.992 456.3 475.342 456.225 475.617 456.1L475.342 454.55C475.117 454.6 475.017 454.6 474.892 454.6C474.592 454.6 474.317 454.35 474.317 453.7V438.2H472.267V453.55C472.267 455.325 472.892 456.3 474.442 456.3Z" fill="white"/>
<path d="M481.814 456.3C484.689 456.3 486.264 454.65 486.264 452.675C486.264 450.375 484.314 449.65 482.564 449C481.189 448.475 479.864 448.05 479.864 446.9C479.864 445.975 480.564 445.15 482.089 445.15C483.164 445.15 484.039 445.6 484.864 446.225L485.839 444.925C484.914 444.175 483.589 443.55 482.064 443.55C479.439 443.55 477.889 445.05 477.889 447C477.889 449.05 479.789 449.875 481.514 450.5C482.839 451 484.289 451.55 484.289 452.8C484.289 453.85 483.489 454.7 481.889 454.7C480.439 454.7 479.364 454.1 478.314 453.25L477.289 454.625C478.439 455.575 480.089 456.3 481.814 456.3Z" fill="white"/>
<path d="M494.117 461.125H496.167V457.025L496.117 454.9C497.242 455.775 498.367 456.3 499.492 456.3C502.267 456.3 504.742 453.875 504.742 449.75C504.742 445.975 503.067 443.55 499.942 443.55C498.517 443.55 497.167 444.325 496.067 445.25H495.992L495.817 443.85H494.117V461.125ZM499.142 454.575C498.342 454.575 497.267 454.225 496.167 453.3V446.925C497.367 445.85 498.392 445.275 499.417 445.275C501.717 445.275 502.617 447.075 502.617 449.75C502.617 452.75 501.142 454.575 499.142 454.575Z" fill="white"/>
<path d="M512.91 456.3C514.56 456.3 515.86 455.725 516.91 455.05L516.185 453.7C515.285 454.275 514.31 454.65 513.16 454.65C510.835 454.65 509.26 453 509.11 450.425H517.31C517.36 450.125 517.385 449.675 517.385 449.25C517.385 445.775 515.635 443.55 512.535 443.55C509.76 443.55 507.085 445.975 507.085 449.95C507.085 453.925 509.66 456.3 512.91 456.3ZM509.085 448.95C509.335 446.55 510.885 445.175 512.585 445.175C514.485 445.175 515.585 446.5 515.585 448.95H509.085Z" fill="white"/>
<path d="M520.387 456H522.437V448.2C523.262 446.15 524.487 445.4 525.512 445.4C526.012 445.4 526.287 445.475 526.687 445.6L527.087 443.8C526.687 443.625 526.312 443.55 525.787 443.55C524.412 443.55 523.162 444.525 522.337 446.05H522.262L522.087 443.85H520.387V456Z" fill="white"/>
<path d="M534.059 461.125H536.109V457.025L536.059 454.9C537.184 455.775 538.309 456.3 539.434 456.3C542.209 456.3 544.684 453.875 544.684 449.75C544.684 445.975 543.009 443.55 539.884 443.55C538.459 443.55 537.109 444.325 536.009 445.25H535.934L535.759 443.85H534.059V461.125ZM539.084 454.575C538.284 454.575 537.209 454.225 536.109 453.3V446.925C537.309 445.85 538.334 445.275 539.359 445.275C541.659 445.275 542.559 447.075 542.559 449.75C542.559 452.75 541.084 454.575 539.084 454.575Z" fill="white"/>
<path d="M547.926 456H549.976V448.2C550.801 446.15 552.026 445.4 553.051 445.4C553.551 445.4 553.826 445.475 554.226 445.6L554.626 443.8C554.226 443.625 553.851 443.55 553.326 443.55C551.951 443.55 550.701 444.525 549.876 446.05H549.801L549.626 443.85H547.926V456Z" fill="white"/>
<path d="M561.074 456.3C564.049 456.3 566.699 453.975 566.699 449.95C566.699 445.875 564.049 443.55 561.074 443.55C558.099 443.55 555.449 445.875 555.449 449.95C555.449 453.975 558.099 456.3 561.074 456.3ZM561.074 454.6C558.999 454.6 557.574 452.725 557.574 449.95C557.574 447.15 558.999 445.25 561.074 445.25C563.174 445.25 564.574 447.15 564.574 449.95C564.574 452.725 563.174 454.6 561.074 454.6Z" fill="white"/>
<path d="M568.649 461.425C571.074 461.425 571.974 459.85 571.974 457.375V443.85H569.924V457.375C569.924 458.85 569.624 459.75 568.424 459.75C567.999 459.75 567.574 459.65 567.274 459.55L566.849 461.1C567.274 461.275 567.899 461.425 568.649 461.425ZM570.974 441.35C571.749 441.35 572.374 440.8 572.374 440.025C572.374 439.225 571.749 438.7 570.974 438.7C570.174 438.7 569.549 439.225 569.549 440.025C569.549 440.8 570.174 441.35 570.974 441.35Z" fill="white"/>
<path d="M581 456.3C582.65 456.3 583.95 455.725 585 455.05L584.275 453.7C583.375 454.275 582.4 454.65 581.25 454.65C578.925 454.65 577.35 453 577.2 450.425H585.4C585.45 450.125 585.475 449.675 585.475 449.25C585.475 445.775 583.725 443.55 580.625 443.55C577.85 443.55 575.175 445.975 575.175 449.95C575.175 453.925 577.75 456.3 581 456.3ZM577.175 448.95C577.425 446.55 578.975 445.175 580.675 445.175C582.575 445.175 583.675 446.5 583.675 448.95H577.175Z" fill="white"/>
<path d="M593.278 456.3C594.728 456.3 596.103 455.725 597.203 454.75L596.303 453.375C595.553 454.05 594.578 454.6 593.453 454.6C591.228 454.6 589.703 452.725 589.703 449.95C589.703 447.15 591.303 445.25 593.503 445.25C594.478 445.25 595.228 445.7 595.928 446.325L596.978 444.975C596.128 444.2 595.028 443.55 593.428 443.55C590.303 443.55 587.578 445.875 587.578 449.95C587.578 453.975 590.053 456.3 593.278 456.3Z" fill="white"/>
<path d="M603.46 456.3C604.21 456.3 605.035 456.075 605.71 455.85L605.31 454.3C604.91 454.45 604.36 454.625 603.935 454.625C602.535 454.625 602.06 453.775 602.06 452.275V445.525H605.335V443.85H602.06V440.45H600.335L600.085 443.85L598.185 443.975V445.525H599.985V452.25C599.985 454.65 600.86 456.3 603.46 456.3Z" fill="white"/>
<path d="M175.05 502H177.75V494.55C177.75 493 177.5 490.75 177.3 489.25H177.4L178.7 493.2L181.3 500.5H183.25L185.9 493.2L187.2 489.25H187.3C187.1 490.75 186.85 493 186.85 494.55V502H189.6V485.65H186.1L183.3 493.65C182.95 494.7 182.7 495.65 182.4 496.85H182.3C182 495.65 181.7 494.7 181.35 493.65L178.55 485.65H175.05V502Z" fill="white"/>
<path d="M193.452 502H196.427V489.7H193.452V502ZM194.952 487.6C196.002 487.6 196.727 486.925 196.727 485.925C196.727 484.925 196.002 484.25 194.952 484.25C193.902 484.25 193.177 484.925 193.177 485.925C193.177 486.925 193.902 487.6 194.952 487.6Z" fill="white"/>
<path d="M205.17 502.3C206.57 502.3 208.02 501.825 209.195 500.8L207.995 498.925C207.295 499.5 206.445 499.9 205.47 499.9C203.595 499.9 202.27 498.3 202.27 495.875C202.27 493.425 203.62 491.825 205.57 491.825C206.345 491.825 206.97 492.075 207.595 492.625L209.02 490.775C208.12 489.975 206.97 489.4 205.42 489.4C202.12 489.4 199.22 491.775 199.22 495.875C199.22 499.95 201.82 502.3 205.17 502.3Z" fill="white"/>
<path d="M211.568 502H214.543V494.55C215.268 492.675 216.443 492.025 217.418 492.025C217.918 492.025 218.218 492.075 218.593 492.175L219.193 489.65C218.818 489.5 218.418 489.4 217.793 489.4C216.493 489.4 215.193 490.3 214.293 491.9H214.218L213.993 489.7H211.568V502Z" fill="white"/>
<path d="M225.798 502.3C228.848 502.3 231.648 499.95 231.648 495.875C231.648 491.775 228.848 489.4 225.798 489.4C222.723 489.4 219.923 491.775 219.923 495.875C219.923 499.95 222.723 502.3 225.798 502.3ZM225.798 499.9C224.023 499.9 222.973 498.3 222.973 495.875C222.973 493.425 224.023 491.825 225.798 491.825C227.573 491.825 228.623 493.425 228.623 495.875C228.623 498.3 227.573 499.9 225.798 499.9Z" fill="white"/>
<path d="M237.796 502.3C240.921 502.3 242.621 500.6 242.621 498.475C242.621 496.35 240.946 495.375 239.046 494.725C237.496 494.2 236.621 493.85 236.621 492.95C236.621 492.225 237.171 491.625 238.396 491.625C239.371 491.625 240.271 491.925 241.146 492.575L242.421 490.9C241.421 490.025 239.996 489.4 238.321 489.4C235.571 489.4 233.821 490.95 233.821 493.1C233.821 495.05 235.471 496.075 237.246 496.725C238.621 497.225 239.821 497.625 239.821 498.65C239.821 499.475 239.196 500.075 237.896 500.075C236.646 500.075 235.521 499.7 234.446 498.825L233.146 500.5C234.346 501.65 236.096 502.3 237.796 502.3Z" fill="white"/>
<path d="M250.387 502.3C251.987 502.3 253.487 501.85 254.637 501L253.637 499.15C252.787 499.7 251.837 500 250.787 500C248.837 500 247.537 498.8 247.237 496.75H254.987C255.087 496.3 255.137 495.85 255.137 495.25C255.137 491.8 253.337 489.4 250.012 489.4C247.137 489.4 244.337 491.85 244.337 495.85C244.337 499.95 246.987 502.3 250.387 502.3ZM247.237 494.55C247.487 492.7 248.687 491.7 250.087 491.7C251.687 491.7 252.537 492.75 252.537 494.55H247.237Z" fill="white"/>
<path d="M257.832 502H260.807V494.55C261.532 492.675 262.707 492.025 263.682 492.025C264.182 492.025 264.482 492.075 264.857 492.175L265.457 489.65C265.082 489.5 264.682 489.4 264.057 489.4C262.757 489.4 261.457 490.3 260.557 491.9H260.482L260.257 489.7H257.832V502Z" fill="white"/>
<path d="M270.373 502H273.773L277.948 489.7H275.098L273.173 496.025C272.848 497.25 272.473 498.5 272.148 499.75H272.048C271.698 498.5 271.348 497.25 270.998 496.025L269.098 489.7H266.098L270.373 502Z" fill="white"/>
<path d="M280.049 502H283.024V489.7H280.049V502ZM281.549 487.6C282.599 487.6 283.324 486.925 283.324 485.925C283.324 484.925 282.599 484.25 281.549 484.25C280.499 484.25 279.774 484.925 279.774 485.925C279.774 486.925 280.499 487.6 281.549 487.6Z" fill="white"/>
<path d="M291.766 502.3C293.166 502.3 294.616 501.825 295.791 500.8L294.591 498.925C293.891 499.5 293.041 499.9 292.066 499.9C290.191 499.9 288.866 498.3 288.866 495.875C288.866 493.425 290.216 491.825 292.166 491.825C292.941 491.825 293.566 492.075 294.191 492.625L295.616 490.775C294.716 489.975 293.566 489.4 292.016 489.4C288.716 489.4 285.816 491.775 285.816 495.875C285.816 499.95 288.416 502.3 291.766 502.3Z" fill="white"/>
<path d="M302.779 502.3C304.379 502.3 305.879 501.85 307.029 501L306.029 499.15C305.179 499.7 304.229 500 303.179 500C301.229 500 299.929 498.8 299.629 496.75H307.379C307.479 496.3 307.529 495.85 307.529 495.25C307.529 491.8 305.729 489.4 302.404 489.4C299.529 489.4 296.729 491.85 296.729 495.85C296.729 499.95 299.379 502.3 302.779 502.3ZM299.629 494.55C299.879 492.7 301.079 491.7 302.479 491.7C304.079 491.7 304.929 492.75 304.929 494.55H299.629Z" fill="white"/>
<path d="M313.675 502.3C316.8 502.3 318.5 500.6 318.5 498.475C318.5 496.35 316.825 495.375 314.925 494.725C313.375 494.2 312.5 493.85 312.5 492.95C312.5 492.225 313.05 491.625 314.275 491.625C315.25 491.625 316.15 491.925 317.025 492.575L318.3 490.9C317.3 490.025 315.875 489.4 314.2 489.4C311.45 489.4 309.7 490.95 309.7 493.1C309.7 495.05 311.35 496.075 313.125 496.725C314.5 497.225 315.7 497.625 315.7 498.65C315.7 499.475 315.075 500.075 313.775 500.075C312.525 500.075 311.4 499.7 310.325 498.825L309.025 500.5C310.225 501.65 311.975 502.3 313.675 502.3Z" fill="white"/>
<path d="M325.071 492.025H336.221V489.875H325.071V492.025ZM325.071 497.625H336.221V495.475H325.071V497.625Z" fill="white"/>
<path d="M344.317 502H346.192V492.975C346.192 491.525 346.042 489.575 345.942 488.125H346.042L347.342 491.85L350.442 500.35H351.817L354.917 491.85L356.217 488.125H356.317C356.217 489.575 356.042 491.525 356.042 492.975V502H357.992V485.6H355.467L352.367 494.35C351.967 495.475 351.642 496.65 351.242 497.775H351.142C350.742 496.65 350.367 495.475 349.967 494.35L346.817 485.6H344.317V502Z" fill="white"/>
<path d="M367.006 502.3C369.981 502.3 372.631 499.975 372.631 495.95C372.631 491.875 369.981 489.55 367.006 489.55C364.031 489.55 361.381 491.875 361.381 495.95C361.381 499.975 364.031 502.3 367.006 502.3ZM367.006 500.6C364.931 500.6 363.506 498.725 363.506 495.95C363.506 493.15 364.931 491.25 367.006 491.25C369.106 491.25 370.506 493.15 370.506 495.95C370.506 498.725 369.106 500.6 367.006 500.6Z" fill="white"/>
<path d="M375.831 502H377.881V494.2C378.706 492.15 379.931 491.4 380.956 491.4C381.456 491.4 381.731 491.475 382.131 491.6L382.531 489.8C382.131 489.625 381.756 489.55 381.231 489.55C379.856 489.55 378.606 490.525 377.781 492.05H377.706L377.531 489.85H375.831V502Z" fill="white"/>
<path d="M389.179 502.3C390.829 502.3 392.129 501.725 393.179 501.05L392.454 499.7C391.554 500.275 390.579 500.65 389.429 500.65C387.104 500.65 385.529 499 385.379 496.425H393.579C393.629 496.125 393.654 495.675 393.654 495.25C393.654 491.775 391.904 489.55 388.804 489.55C386.029 489.55 383.354 491.975 383.354 495.95C383.354 499.925 385.929 502.3 389.179 502.3ZM385.354 494.95C385.604 492.55 387.154 491.175 388.854 491.175C390.754 491.175 391.854 492.5 391.854 494.95H385.354Z" fill="white"/>
<path d="M401.661 507.125H403.711V503.025L403.661 500.9C404.786 501.775 405.911 502.3 407.036 502.3C409.811 502.3 412.286 499.875 412.286 495.75C412.286 491.975 410.611 489.55 407.486 489.55C406.061 489.55 404.711 490.325 403.611 491.25H403.536L403.361 489.85H401.661V507.125ZM406.686 500.575C405.886 500.575 404.811 500.225 403.711 499.3V492.925C404.911 491.85 405.936 491.275 406.961 491.275C409.261 491.275 410.161 493.075 410.161 495.75C410.161 498.75 408.686 500.575 406.686 500.575Z" fill="white"/>
<path d="M415.529 502H417.579V494.2C418.404 492.15 419.629 491.4 420.654 491.4C421.154 491.4 421.429 491.475 421.829 491.6L422.229 489.8C421.829 489.625 421.453 489.55 420.928 489.55C419.553 489.55 418.304 490.525 417.479 492.05H417.404L417.229 489.85H415.529V502Z" fill="white"/>
<path d="M428.676 502.3C431.651 502.3 434.301 499.975 434.301 495.95C434.301 491.875 431.651 489.55 428.676 489.55C425.701 489.55 423.051 491.875 423.051 495.95C423.051 499.975 425.701 502.3 428.676 502.3ZM428.676 500.6C426.601 500.6 425.176 498.725 425.176 495.95C425.176 493.15 426.601 491.25 428.676 491.25C430.776 491.25 432.176 493.15 432.176 495.95C432.176 498.725 430.776 500.6 428.676 500.6Z" fill="white"/>
<path d="M436.251 507.425C438.676 507.425 439.576 505.85 439.576 503.375V489.85H437.526V503.375C437.526 504.85 437.226 505.75 436.026 505.75C435.601 505.75 435.176 505.65 434.876 505.55L434.451 507.1C434.876 507.275 435.501 507.425 436.251 507.425ZM438.576 487.35C439.351 487.35 439.976 486.8 439.976 486.025C439.976 485.225 439.351 484.7 438.576 484.7C437.776 484.7 437.151 485.225 437.151 486.025C437.151 486.8 437.776 487.35 438.576 487.35Z" fill="white"/>
<path d="M448.603 502.3C450.253 502.3 451.553 501.725 452.603 501.05L451.878 499.7C450.978 500.275 450.003 500.65 448.853 500.65C446.528 500.65 444.953 499 444.803 496.425H453.003C453.053 496.125 453.078 495.675 453.078 495.25C453.078 491.775 451.328 489.55 448.228 489.55C445.453 489.55 442.778 491.975 442.778 495.95C442.778 499.925 445.353 502.3 448.603 502.3ZM444.778 494.95C445.028 492.55 446.578 491.175 448.278 491.175C450.178 491.175 451.278 492.5 451.278 494.95H444.778Z" fill="white"/>
<path d="M460.88 502.3C462.33 502.3 463.705 501.725 464.805 500.75L463.905 499.375C463.155 500.05 462.18 500.6 461.055 500.6C458.83 500.6 457.305 498.725 457.305 495.95C457.305 493.15 458.905 491.25 461.105 491.25C462.08 491.25 462.83 491.7 463.53 492.325L464.58 490.975C463.73 490.2 462.63 489.55 461.03 489.55C457.905 489.55 455.18 491.875 455.18 495.95C455.18 499.975 457.655 502.3 460.88 502.3Z" fill="white"/>
<path d="M471.062 502.3C471.812 502.3 472.637 502.075 473.312 501.85L472.913 500.3C472.513 500.45 471.963 500.625 471.538 500.625C470.138 500.625 469.663 499.775 469.663 498.275V491.525H472.938V489.85H469.663V486.45H467.938L467.688 489.85L465.788 489.975V491.525H467.587V498.25C467.587 500.65 468.462 502.3 471.062 502.3Z" fill="white"/>
<path d="M478.616 502.3C481.491 502.3 483.066 500.65 483.066 498.675C483.066 496.375 481.116 495.65 479.366 495C477.991 494.475 476.666 494.05 476.666 492.9C476.666 491.975 477.366 491.15 478.891 491.15C479.966 491.15 480.841 491.6 481.666 492.225L482.641 490.925C481.716 490.175 480.391 489.55 478.866 489.55C476.241 489.55 474.691 491.05 474.691 493C474.691 495.05 476.591 495.875 478.316 496.5C479.641 497 481.091 497.55 481.091 498.8C481.091 499.85 480.291 500.7 478.691 500.7C477.241 500.7 476.166 500.1 475.116 499.25L474.091 500.625C475.241 501.575 476.891 502.3 478.616 502.3Z" fill="white"/>
<path fill-rule="evenodd" clip-rule="evenodd" d="M158 402H118V400H158V402Z" fill="#FF9769"/>
<path fill-rule="evenodd" clip-rule="evenodd" d="M121.333 448H118V446H121.333V448ZM134.667 448H128V446H134.667V448ZM148 448H141.333V446H148V448ZM158 448H154.667V446H158V448Z" fill="#FF99D1"/>
<path fill-rule="evenodd" clip-rule="evenodd" d="M121.333 494H118V492H121.333V494ZM134.667 494H128V492H134.667V494ZM148 494H141.333V492H148V494ZM158 494H154.667V492H158V494Z" fill="#18A3FF"/>
</svg>
