<svg width="892" height="608" viewBox="0 0 892 608" fill="none" xmlns="http://www.w3.org/2000/svg">
<path d="M892 112C892 173.856 841.856 224 780 224C718.144 224 668 173.856 668 112C668 50.1441 718.144 0 780 0C841.856 0 892 50.1441 892 112Z" fill="#08C48C"/>
<path d="M117.972 603H120.352V589.92H117.972V603Z" fill="#AC7FFF"/>
<path d="M123.436 603H125.816V596.16C126.596 595.36 127.156 594.96 128.016 594.96C129.056 594.96 129.516 595.54 129.516 597.14V603H131.876V596.84C131.876 594.36 130.956 592.92 128.836 592.92C127.496 592.92 126.496 593.64 125.616 594.48H125.556L125.376 593.16H123.436V603Z" fill="#AC7FFF"/>
<path d="M138.767 603.24C139.887 603.24 141.047 602.86 141.987 602.04L141.027 600.54C140.467 601 139.787 601.32 139.007 601.32C137.507 601.32 136.447 600.04 136.447 598.1C136.447 596.14 137.527 594.86 139.087 594.86C139.707 594.86 140.207 595.06 140.707 595.5L141.847 594.02C141.127 593.38 140.207 592.92 138.967 592.92C136.327 592.92 134.007 594.82 134.007 598.1C134.007 601.36 136.087 603.24 138.767 603.24Z" fill="#AC7FFF"/>
<path d="M143.885 603H146.265V597.04C146.845 595.54 147.785 595.02 148.565 595.02C148.965 595.02 149.205 595.06 149.505 595.14L149.985 593.12C149.685 593 149.365 592.92 148.865 592.92C147.825 592.92 146.785 593.64 146.065 594.92H146.005L145.825 593.16H143.885V603Z" fill="#AC7FFF"/>
<path d="M155.41 603.24C156.69 603.24 157.89 602.88 158.81 602.2L158.01 600.72C157.33 601.16 156.57 601.4 155.73 601.4C154.17 601.4 153.13 600.44 152.89 598.8H159.09C159.17 598.44 159.21 598.08 159.21 597.6C159.21 594.84 157.77 592.92 155.11 592.92C152.81 592.92 150.57 594.88 150.57 598.08C150.57 601.36 152.69 603.24 155.41 603.24ZM152.89 597.04C153.09 595.56 154.05 594.76 155.17 594.76C156.45 594.76 157.13 595.6 157.13 597.04H152.89Z" fill="#AC7FFF"/>
<path d="M163.531 603.24C164.691 603.24 165.651 602.68 166.531 601.92H166.611L166.811 603H168.731V597.18C168.731 594.44 167.491 592.92 165.051 592.92C163.491 592.92 162.091 593.52 161.011 594.2L161.851 595.76C162.731 595.24 163.651 594.84 164.611 594.84C165.931 594.84 166.331 595.68 166.371 596.68C162.331 597.12 160.611 598.2 160.611 600.36C160.611 602.08 161.811 603.24 163.531 603.24ZM164.251 601.36C163.451 601.36 162.891 601.04 162.891 600.2C162.891 599.2 163.691 598.6 166.371 598.28V600.36C165.651 601.04 165.051 601.36 164.251 601.36Z" fill="#AC7FFF"/>
<path d="M174.204 603.24C176.704 603.24 178.064 601.88 178.064 600.18C178.064 598.48 176.724 597.7 175.204 597.18C173.964 596.76 173.264 596.48 173.264 595.76C173.264 595.18 173.704 594.7 174.684 594.7C175.464 594.7 176.184 594.94 176.884 595.46L177.904 594.12C177.104 593.42 175.964 592.92 174.624 592.92C172.424 592.92 171.024 594.16 171.024 595.88C171.024 597.44 172.344 598.26 173.764 598.78C174.864 599.18 175.824 599.5 175.824 600.32C175.824 600.98 175.324 601.46 174.284 601.46C173.284 601.46 172.384 601.16 171.524 600.46L170.484 601.8C171.444 602.72 172.844 603.24 174.204 603.24Z" fill="#AC7FFF"/>
<path d="M184.277 603.24C185.557 603.24 186.757 602.88 187.677 602.2L186.877 600.72C186.197 601.16 185.437 601.4 184.597 601.4C183.037 601.4 181.997 600.44 181.757 598.8H187.957C188.037 598.44 188.077 598.08 188.077 597.6C188.077 594.84 186.637 592.92 183.977 592.92C181.677 592.92 179.437 594.88 179.437 598.08C179.437 601.36 181.557 603.24 184.277 603.24ZM181.757 597.04C181.957 595.56 182.917 594.76 184.037 594.76C185.317 594.76 185.997 595.6 185.997 597.04H181.757Z" fill="#AC7FFF"/>
<path d="M194.237 603H196.617V593.16H194.237V603ZM195.437 591.48C196.277 591.48 196.857 590.94 196.857 590.14C196.857 589.34 196.277 588.8 195.437 588.8C194.597 588.8 194.017 589.34 194.017 590.14C194.017 590.94 194.597 591.48 195.437 591.48Z" fill="#AC7FFF"/>
<path d="M199.491 603H201.871V596.16C202.651 595.36 203.211 594.96 204.071 594.96C205.111 594.96 205.571 595.54 205.571 597.14V603H207.931V596.84C207.931 594.36 207.011 592.92 204.891 592.92C203.551 592.92 202.551 593.64 201.671 594.48H201.611L201.431 593.16H199.491V603Z" fill="#AC7FFF"/>
<path d="M214.706 606.86H217.086V603.8L217.006 602.16C217.786 602.84 218.646 603.24 219.526 603.24C221.706 603.24 223.706 601.3 223.706 597.94C223.706 594.9 222.286 592.92 219.846 592.92C218.766 592.92 217.726 593.5 216.886 594.2H216.826L216.646 593.16H214.706V606.86ZM219.006 601.28C218.446 601.28 217.766 601.08 217.086 600.5V595.96C217.826 595.22 218.486 594.88 219.186 594.88C220.646 594.88 221.286 596.02 221.286 597.96C221.286 600.16 220.286 601.28 219.006 601.28Z" fill="#AC7FFF"/>
<path d="M228.294 603.24C228.854 603.24 229.254 603.16 229.534 603.02L229.254 601.28C229.094 601.32 229.014 601.32 228.894 601.32C228.654 601.32 228.394 601.12 228.394 600.54V588.88H226.014V600.42C226.014 602.16 226.634 603.24 228.294 603.24Z" fill="#AC7FFF"/>
<path d="M233.863 603.24C235.023 603.24 235.983 602.68 236.863 601.92H236.943L237.143 603H239.063V597.18C239.063 594.44 237.823 592.92 235.383 592.92C233.823 592.92 232.423 593.52 231.343 594.2L232.183 595.76C233.063 595.24 233.983 594.84 234.943 594.84C236.263 594.84 236.663 595.68 236.703 596.68C232.663 597.12 230.943 598.2 230.943 600.36C230.943 602.08 232.143 603.24 233.863 603.24ZM234.583 601.36C233.783 601.36 233.223 601.04 233.223 600.2C233.223 599.2 234.023 598.6 236.703 598.28V600.36C235.983 601.04 235.383 601.36 234.583 601.36Z" fill="#AC7FFF"/>
<path d="M244.963 603.24C245.763 603.24 246.483 603.06 247.003 602.82L246.583 601.16C246.243 601.3 245.903 601.36 245.563 601.36C244.643 601.36 244.183 600.8 244.183 599.66V595.04H246.683V593.16H244.183V590.1H242.223L241.943 593.16L240.423 593.28V595.04H241.823V599.66C241.823 601.8 242.663 603.24 244.963 603.24Z" fill="#AC7FFF"/>
<path d="M248.915 603H251.275V595.04H253.175V593.16H251.275V592.16C251.275 591.04 251.695 590.52 252.515 590.52C252.835 590.52 253.175 590.58 253.535 590.68L254.015 588.98C253.595 588.82 252.915 588.64 252.195 588.64C249.855 588.64 248.915 590.16 248.915 592.2V593.16L247.595 593.28V595.04H248.915V603Z" fill="#AC7FFF"/>
<path d="M258.746 603.24C261.186 603.24 263.426 601.36 263.426 598.1C263.426 594.82 261.186 592.92 258.746 592.92C256.286 592.92 254.046 594.82 254.046 598.1C254.046 601.36 256.286 603.24 258.746 603.24ZM258.746 601.32C257.326 601.32 256.486 600.04 256.486 598.1C256.486 596.14 257.326 594.86 258.746 594.86C260.166 594.86 261.006 596.14 261.006 598.1C261.006 600.04 260.166 601.32 258.746 601.32Z" fill="#AC7FFF"/>
<path d="M265.663 603H268.043V597.04C268.623 595.54 269.563 595.02 270.343 595.02C270.743 595.02 270.983 595.06 271.283 595.14L271.763 593.12C271.463 593 271.143 592.92 270.643 592.92C269.603 592.92 268.563 593.64 267.843 594.92H267.783L267.603 593.16H265.663V603Z" fill="#AC7FFF"/>
<path d="M273.182 603H275.562V596.16C276.302 595.34 276.982 594.96 277.582 594.96C278.582 594.96 279.062 595.54 279.062 597.14V603H281.422V596.16C282.162 595.34 282.842 594.96 283.442 594.96C284.462 594.96 284.922 595.54 284.922 597.14V603H287.302V596.84C287.302 594.36 286.342 592.92 284.262 592.92C283.002 592.92 282.042 593.68 281.102 594.68C280.642 593.58 279.822 592.92 278.382 592.92C277.142 592.92 276.202 593.64 275.362 594.5H275.302L275.122 593.16H273.182V603Z" fill="#AC7FFF"/>
<path d="M297.001 603.24C298.361 603.24 299.301 602.58 300.161 601.56H300.221L300.401 603H302.341V593.16H299.981V599.88C299.261 600.82 298.701 601.22 297.841 601.22C296.801 601.22 296.341 600.62 296.341 599.02V593.16H293.981V599.32C293.981 601.8 294.901 603.24 297.001 603.24Z" fill="#AC7FFF"/>
<path d="M307.993 603.24C310.493 603.24 311.853 601.88 311.853 600.18C311.853 598.48 310.513 597.7 308.993 597.18C307.753 596.76 307.053 596.48 307.053 595.76C307.053 595.18 307.493 594.7 308.473 594.7C309.253 594.7 309.973 594.94 310.673 595.46L311.693 594.12C310.893 593.42 309.753 592.92 308.413 592.92C306.213 592.92 304.813 594.16 304.813 595.88C304.813 597.44 306.133 598.26 307.553 598.78C308.653 599.18 309.613 599.5 309.613 600.32C309.613 600.98 309.113 601.46 308.073 601.46C307.073 601.46 306.173 601.16 305.313 600.46L304.273 601.8C305.233 602.72 306.633 603.24 307.993 603.24Z" fill="#AC7FFF"/>
<path d="M316.266 603.24C317.426 603.24 318.386 602.68 319.266 601.92H319.346L319.546 603H321.466V597.18C321.466 594.44 320.226 592.92 317.786 592.92C316.226 592.92 314.826 593.52 313.746 594.2L314.586 595.76C315.466 595.24 316.386 594.84 317.346 594.84C318.666 594.84 319.066 595.68 319.106 596.68C315.066 597.12 313.346 598.2 313.346 600.36C313.346 602.08 314.546 603.24 316.266 603.24ZM316.986 601.36C316.186 601.36 315.626 601.04 315.626 600.2C315.626 599.2 316.426 598.6 319.106 598.28V600.36C318.386 601.04 317.786 601.36 316.986 601.36Z" fill="#AC7FFF"/>
<path d="M327.618 607.34C330.838 607.34 332.878 605.8 332.878 603.86C332.878 602.16 331.618 601.42 329.278 601.42H327.538C326.358 601.42 325.958 601.1 325.958 600.56C325.958 600.12 326.138 599.88 326.418 599.64C326.858 599.8 327.318 599.88 327.738 599.88C329.818 599.88 331.498 598.72 331.498 596.54C331.498 595.88 331.258 595.28 330.958 594.92H332.718V593.16H329.198C328.798 593.02 328.278 592.92 327.738 592.92C325.678 592.92 323.838 594.2 323.838 596.46C323.838 597.62 324.458 598.56 325.138 599.06V599.14C324.558 599.54 324.038 600.2 324.038 600.96C324.038 601.76 324.438 602.28 324.938 602.6V602.68C324.038 603.24 323.518 603.94 323.518 604.78C323.518 606.5 325.278 607.34 327.618 607.34ZM327.738 598.4C326.818 598.4 326.058 597.7 326.058 596.46C326.058 595.24 326.798 594.56 327.738 594.56C328.678 594.56 329.398 595.24 329.398 596.46C329.398 597.7 328.658 598.4 327.738 598.4ZM327.978 605.8C326.458 605.8 325.498 605.3 325.498 604.42C325.498 603.96 325.718 603.54 326.238 603.14C326.618 603.24 327.038 603.28 327.578 603.28H328.898C329.998 603.28 330.598 603.5 330.598 604.24C330.598 605.08 329.538 605.8 327.978 605.8Z" fill="#AC7FFF"/>
<path d="M338.495 603.24C339.775 603.24 340.975 602.88 341.895 602.2L341.095 600.72C340.415 601.16 339.655 601.4 338.815 601.4C337.255 601.4 336.215 600.44 335.975 598.8H342.175C342.255 598.44 342.295 598.08 342.295 597.6C342.295 594.84 340.855 592.92 338.195 592.92C335.895 592.92 333.655 594.88 333.655 598.08C333.655 601.36 335.775 603.24 338.495 603.24ZM335.975 597.04C336.175 595.56 337.135 594.76 338.255 594.76C339.535 594.76 340.215 595.6 340.215 597.04H335.975Z" fill="#AC7FFF"/>
<path d="M352.576 603.24C353.696 603.24 354.856 602.86 355.796 602.04L354.836 600.54C354.276 601 353.596 601.32 352.816 601.32C351.316 601.32 350.256 600.04 350.256 598.1C350.256 596.14 351.336 594.86 352.896 594.86C353.516 594.86 354.016 595.06 354.516 595.5L355.656 594.02C354.936 593.38 354.016 592.92 352.776 592.92C350.136 592.92 347.816 594.82 347.816 598.1C347.816 601.36 349.896 603.24 352.576 603.24Z" fill="#AC7FFF"/>
<path d="M361.246 603.24C363.686 603.24 365.926 601.36 365.926 598.1C365.926 594.82 363.686 592.92 361.246 592.92C358.786 592.92 356.546 594.82 356.546 598.1C356.546 601.36 358.786 603.24 361.246 603.24ZM361.246 601.32C359.826 601.32 358.986 600.04 358.986 598.1C358.986 596.14 359.826 594.86 361.246 594.86C362.666 594.86 363.506 596.14 363.506 598.1C363.506 600.04 362.666 601.32 361.246 601.32Z" fill="#AC7FFF"/>
<path d="M368.163 603H370.543V597.04C371.123 595.54 372.063 595.02 372.843 595.02C373.243 595.02 373.483 595.06 373.783 595.14L374.263 593.12C373.963 593 373.643 592.92 373.143 592.92C372.103 592.92 371.063 593.64 370.343 594.92H370.283L370.103 593.16H368.163V603Z" fill="#AC7FFF"/>
<path d="M375.682 603H378.062V597.04C378.642 595.54 379.582 595.02 380.362 595.02C380.762 595.02 381.002 595.06 381.302 595.14L381.782 593.12C381.482 593 381.162 592.92 380.662 592.92C379.622 592.92 378.582 593.64 377.862 594.92H377.802L377.622 593.16H375.682V603Z" fill="#AC7FFF"/>
<path d="M387.206 603.24C388.486 603.24 389.686 602.88 390.606 602.2L389.806 600.72C389.126 601.16 388.366 601.4 387.526 601.4C385.966 601.4 384.926 600.44 384.686 598.8H390.886C390.966 598.44 391.006 598.08 391.006 597.6C391.006 594.84 389.566 592.92 386.906 592.92C384.606 592.92 382.366 594.88 382.366 598.08C382.366 601.36 384.486 603.24 387.206 603.24ZM384.686 597.04C384.886 595.56 385.846 594.76 386.966 594.76C388.246 594.76 388.926 595.6 388.926 597.04H384.686Z" fill="#AC7FFF"/>
<path d="M395.443 603.24C396.003 603.24 396.403 603.16 396.683 603.02L396.403 601.28C396.243 601.32 396.163 601.32 396.043 601.32C395.803 601.32 395.543 601.12 395.543 600.54V588.88H393.163V600.42C393.163 602.16 393.783 603.24 395.443 603.24Z" fill="#AC7FFF"/>
<path d="M401.012 603.24C402.172 603.24 403.132 602.68 404.012 601.92H404.092L404.292 603H406.212V597.18C406.212 594.44 404.972 592.92 402.532 592.92C400.972 592.92 399.572 593.52 398.492 594.2L399.332 595.76C400.212 595.24 401.132 594.84 402.092 594.84C403.412 594.84 403.812 595.68 403.852 596.68C399.812 597.12 398.092 598.2 398.092 600.36C398.092 602.08 399.292 603.24 401.012 603.24ZM401.732 601.36C400.932 601.36 400.372 601.04 400.372 600.2C400.372 599.2 401.172 598.6 403.852 598.28V600.36C403.132 601.04 402.532 601.36 401.732 601.36Z" fill="#AC7FFF"/>
<path d="M412.112 603.24C412.912 603.24 413.632 603.06 414.152 602.82L413.732 601.16C413.392 601.3 413.052 601.36 412.712 601.36C411.792 601.36 411.332 600.8 411.332 599.66V595.04H413.832V593.16H411.332V590.1H409.372L409.092 593.16L407.572 593.28V595.04H408.972V599.66C408.972 601.8 409.812 603.24 412.112 603.24Z" fill="#AC7FFF"/>
<path d="M419.765 603.24C421.045 603.24 422.245 602.88 423.165 602.2L422.365 600.72C421.685 601.16 420.925 601.4 420.085 601.4C418.525 601.4 417.485 600.44 417.245 598.8H423.445C423.525 598.44 423.565 598.08 423.565 597.6C423.565 594.84 422.125 592.92 419.465 592.92C417.165 592.92 414.925 594.88 414.925 598.08C414.925 601.36 417.045 603.24 419.765 603.24ZM417.245 597.04C417.445 595.56 418.405 594.76 419.525 594.76C420.805 594.76 421.485 595.6 421.485 597.04H417.245Z" fill="#AC7FFF"/>
<path d="M428.481 603.24C430.981 603.24 432.341 601.88 432.341 600.18C432.341 598.48 431.001 597.7 429.481 597.18C428.241 596.76 427.541 596.48 427.541 595.76C427.541 595.18 427.981 594.7 428.961 594.7C429.741 594.7 430.461 594.94 431.161 595.46L432.181 594.12C431.381 593.42 430.241 592.92 428.901 592.92C426.701 592.92 425.301 594.16 425.301 595.88C425.301 597.44 426.621 598.26 428.041 598.78C429.141 599.18 430.101 599.5 430.101 600.32C430.101 600.98 429.601 601.46 428.561 601.46C427.561 601.46 426.661 601.16 425.801 600.46L424.761 601.8C425.721 602.72 427.121 603.24 428.481 603.24Z" fill="#AC7FFF"/>
<path d="M441.858 603.24C442.658 603.24 443.378 603.06 443.898 602.82L443.478 601.16C443.138 601.3 442.798 601.36 442.458 601.36C441.538 601.36 441.078 600.8 441.078 599.66V595.04H443.578V593.16H441.078V590.1H439.118L438.838 593.16L437.318 593.28V595.04H438.718V599.66C438.718 601.8 439.558 603.24 441.858 603.24Z" fill="#AC7FFF"/>
<path d="M449.371 603.24C451.811 603.24 454.051 601.36 454.051 598.1C454.051 594.82 451.811 592.92 449.371 592.92C446.911 592.92 444.671 594.82 444.671 598.1C444.671 601.36 446.911 603.24 449.371 603.24ZM449.371 601.32C447.951 601.32 447.111 600.04 447.111 598.1C447.111 596.14 447.951 594.86 449.371 594.86C450.791 594.86 451.631 596.14 451.631 598.1C451.631 600.04 450.791 601.32 449.371 601.32Z" fill="#AC7FFF"/>
<path d="M463.752 603.24C464.792 603.24 465.792 602.66 466.512 601.94H466.592L466.772 603H468.692V588.88H466.332V592.42L466.432 594C465.672 593.34 464.972 592.92 463.872 592.92C461.712 592.92 459.712 594.88 459.712 598.1C459.712 601.34 461.292 603.24 463.752 603.24ZM464.332 601.28C462.932 601.28 462.132 600.18 462.132 598.06C462.132 596.04 463.152 594.88 464.372 594.88C465.032 594.88 465.672 595.08 466.332 595.68V600.2C465.712 600.96 465.072 601.28 464.332 601.28Z" fill="#AC7FFF"/>
<path d="M475.8 603.24C477.08 603.24 478.28 602.88 479.2 602.2L478.4 600.72C477.72 601.16 476.96 601.4 476.12 601.4C474.56 601.4 473.52 600.44 473.28 598.8H479.48C479.56 598.44 479.6 598.08 479.6 597.6C479.6 594.84 478.16 592.92 475.5 592.92C473.2 592.92 470.96 594.88 470.96 598.08C470.96 601.36 473.08 603.24 475.8 603.24ZM473.28 597.04C473.48 595.56 474.44 594.76 475.56 594.76C476.84 594.76 477.52 595.6 477.52 597.04H473.28Z" fill="#AC7FFF"/>
<path d="M485.876 603.24C486.996 603.24 488.156 602.86 489.096 602.04L488.136 600.54C487.576 601 486.896 601.32 486.116 601.32C484.616 601.32 483.556 600.04 483.556 598.1C483.556 596.14 484.636 594.86 486.196 594.86C486.816 594.86 487.316 595.06 487.816 595.5L488.956 594.02C488.236 593.38 487.316 592.92 486.076 592.92C483.436 592.92 481.116 594.82 481.116 598.1C481.116 601.36 483.196 603.24 485.876 603.24Z" fill="#AC7FFF"/>
<path d="M490.995 603H493.375V597.04C493.955 595.54 494.895 595.02 495.675 595.02C496.075 595.02 496.315 595.06 496.615 595.14L497.095 593.12C496.795 593 496.475 592.92 495.975 592.92C494.935 592.92 493.895 593.64 493.175 594.92H493.115L492.935 593.16H490.995V603Z" fill="#AC7FFF"/>
<path d="M502.519 603.24C503.799 603.24 504.999 602.88 505.919 602.2L505.119 600.72C504.439 601.16 503.679 601.4 502.839 601.4C501.279 601.4 500.239 600.44 499.999 598.8H506.199C506.279 598.44 506.319 598.08 506.319 597.6C506.319 594.84 504.879 592.92 502.219 592.92C499.919 592.92 497.679 594.88 497.679 598.08C497.679 601.36 499.799 603.24 502.519 603.24ZM499.999 597.04C500.199 595.56 501.159 594.76 502.279 594.76C503.559 594.76 504.239 595.6 504.239 597.04H499.999Z" fill="#AC7FFF"/>
<path d="M510.641 603.24C511.801 603.24 512.761 602.68 513.641 601.92H513.721L513.921 603H515.841V597.18C515.841 594.44 514.601 592.92 512.161 592.92C510.601 592.92 509.201 593.52 508.121 594.2L508.961 595.76C509.841 595.24 510.761 594.84 511.721 594.84C513.041 594.84 513.441 595.68 513.481 596.68C509.441 597.12 507.721 598.2 507.721 600.36C507.721 602.08 508.921 603.24 510.641 603.24ZM511.361 601.36C510.561 601.36 510.001 601.04 510.001 600.2C510.001 599.2 510.801 598.6 513.481 598.28V600.36C512.761 601.04 512.161 601.36 511.361 601.36Z" fill="#AC7FFF"/>
<path d="M521.313 603.24C523.813 603.24 525.173 601.88 525.173 600.18C525.173 598.48 523.833 597.7 522.313 597.18C521.073 596.76 520.373 596.48 520.373 595.76C520.373 595.18 520.813 594.7 521.793 594.7C522.573 594.7 523.293 594.94 523.993 595.46L525.013 594.12C524.213 593.42 523.073 592.92 521.733 592.92C519.533 592.92 518.133 594.16 518.133 595.88C518.133 597.44 519.453 598.26 520.873 598.78C521.973 599.18 522.933 599.5 522.933 600.32C522.933 600.98 522.433 601.46 521.393 601.46C520.393 601.46 519.493 601.16 518.633 600.46L517.593 601.8C518.553 602.72 519.953 603.24 521.313 603.24Z" fill="#AC7FFF"/>
<path d="M531.386 603.24C532.666 603.24 533.866 602.88 534.786 602.2L533.986 600.72C533.306 601.16 532.546 601.4 531.706 601.4C530.146 601.4 529.106 600.44 528.866 598.8H535.066C535.146 598.44 535.186 598.08 535.186 597.6C535.186 594.84 533.746 592.92 531.086 592.92C528.786 592.92 526.546 594.88 526.546 598.08C526.546 601.36 528.666 603.24 531.386 603.24ZM528.866 597.04C529.066 595.56 530.026 594.76 531.146 594.76C532.426 594.76 533.106 595.6 533.106 597.04H528.866Z" fill="#AC7FFF"/>
<path d="M541.346 603H543.726V593.16H541.346V603ZM542.546 591.48C543.386 591.48 543.966 590.94 543.966 590.14C543.966 589.34 543.386 588.8 542.546 588.8C541.706 588.8 541.126 589.34 541.126 590.14C541.126 590.94 541.706 591.48 542.546 591.48Z" fill="#AC7FFF"/>
<path d="M546.6 603H548.98V596.16C549.76 595.36 550.32 594.96 551.18 594.96C552.22 594.96 552.68 595.54 552.68 597.14V603H555.04V596.84C555.04 594.36 554.12 592.92 552 592.92C550.66 592.92 549.66 593.64 548.78 594.48H548.72L548.54 593.16H546.6V603Z" fill="#AC7FFF"/>
<path d="M561.815 606.86H564.195V603.8L564.115 602.16C564.895 602.84 565.755 603.24 566.635 603.24C568.815 603.24 570.815 601.3 570.815 597.94C570.815 594.9 569.395 592.92 566.955 592.92C565.875 592.92 564.835 593.5 563.995 594.2H563.935L563.755 593.16H561.815V606.86ZM566.115 601.28C565.555 601.28 564.875 601.08 564.195 600.5V595.96C564.935 595.22 565.595 594.88 566.295 594.88C567.755 594.88 568.395 596.02 568.395 597.96C568.395 600.16 567.395 601.28 566.115 601.28Z" fill="#AC7FFF"/>
<path d="M577.184 603.24C579.624 603.24 581.864 601.36 581.864 598.1C581.864 594.82 579.624 592.92 577.184 592.92C574.724 592.92 572.484 594.82 572.484 598.1C572.484 601.36 574.724 603.24 577.184 603.24ZM577.184 601.32C575.764 601.32 574.924 600.04 574.924 598.1C574.924 596.14 575.764 594.86 577.184 594.86C578.604 594.86 579.444 596.14 579.444 598.1C579.444 600.04 578.604 601.32 577.184 601.32Z" fill="#AC7FFF"/>
<path d="M584.1 603H586.48V593.16H584.1V603ZM585.3 591.48C586.14 591.48 586.72 590.94 586.72 590.14C586.72 589.34 586.14 588.8 585.3 588.8C584.46 588.8 583.88 589.34 583.88 590.14C583.88 590.94 584.46 591.48 585.3 591.48Z" fill="#AC7FFF"/>
<path d="M589.354 603H591.734V596.16C592.514 595.36 593.074 594.96 593.934 594.96C594.974 594.96 595.434 595.54 595.434 597.14V603H597.794V596.84C597.794 594.36 596.874 592.92 594.754 592.92C593.414 592.92 592.414 593.64 591.534 594.48H591.474L591.294 593.16H589.354V603Z" fill="#AC7FFF"/>
<path d="M604.065 603.24C604.865 603.24 605.585 603.06 606.105 602.82L605.685 601.16C605.345 601.3 605.005 601.36 604.665 601.36C603.745 601.36 603.285 600.8 603.285 599.66V595.04H605.785V593.16H603.285V590.1H601.325L601.045 593.16L599.525 593.28V595.04H600.925V599.66C600.925 601.8 601.765 603.24 604.065 603.24Z" fill="#AC7FFF"/>
<path d="M614.595 603.24C617.095 603.24 618.454 601.88 618.454 600.18C618.454 598.48 617.115 597.7 615.595 597.18C614.355 596.76 613.655 596.48 613.655 595.76C613.655 595.18 614.094 594.7 615.074 594.7C615.854 594.7 616.575 594.94 617.275 595.46L618.294 594.12C617.494 593.42 616.354 592.92 615.014 592.92C612.814 592.92 611.414 594.16 611.414 595.88C611.414 597.44 612.735 598.26 614.155 598.78C615.255 599.18 616.215 599.5 616.215 600.32C616.215 600.98 615.714 601.46 614.674 601.46C613.674 601.46 612.774 601.16 611.914 600.46L610.875 601.8C611.835 602.72 613.235 603.24 614.595 603.24Z" fill="#AC7FFF"/>
<path d="M624.527 603.24C626.967 603.24 629.207 601.36 629.207 598.1C629.207 594.82 626.967 592.92 624.527 592.92C622.067 592.92 619.827 594.82 619.827 598.1C619.827 601.36 622.067 603.24 624.527 603.24ZM624.527 601.32C623.107 601.32 622.267 600.04 622.267 598.1C622.267 596.14 623.107 594.86 624.527 594.86C625.947 594.86 626.787 596.14 626.787 598.1C626.787 600.04 625.947 601.32 624.527 601.32Z" fill="#AC7FFF"/>
<path d="M633.724 603.24C634.284 603.24 634.684 603.16 634.964 603.02L634.684 601.28C634.524 601.32 634.444 601.32 634.324 601.32C634.084 601.32 633.824 601.12 633.824 600.54V588.88H631.444V600.42C631.444 602.16 632.064 603.24 633.724 603.24Z" fill="#AC7FFF"/>
<path d="M639.813 603.24C641.173 603.24 642.113 602.58 642.973 601.56H643.033L643.213 603H645.153V593.16H642.793V599.88C642.073 600.82 641.513 601.22 640.653 601.22C639.613 601.22 639.153 600.62 639.153 599.02V593.16H636.793V599.32C636.793 601.8 637.713 603.24 639.813 603.24Z" fill="#AC7FFF"/>
<path d="M651.545 603.24C652.345 603.24 653.065 603.06 653.585 602.82L653.165 601.16C652.825 601.3 652.485 601.36 652.145 601.36C651.225 601.36 650.765 600.8 650.765 599.66V595.04H653.265V593.16H650.765V590.1H648.805L648.525 593.16L647.005 593.28V595.04H648.405V599.66C648.405 601.8 649.245 603.24 651.545 603.24Z" fill="#AC7FFF"/>
<path d="M655.311 603H657.691V593.16H655.311V603ZM656.511 591.48C657.351 591.48 657.931 590.94 657.931 590.14C657.931 589.34 657.351 588.8 656.511 588.8C655.671 588.8 655.091 589.34 655.091 590.14C655.091 590.94 655.671 591.48 656.511 591.48Z" fill="#AC7FFF"/>
<path d="M664.625 603.24C667.065 603.24 669.305 601.36 669.305 598.1C669.305 594.82 667.065 592.92 664.625 592.92C662.165 592.92 659.925 594.82 659.925 598.1C659.925 601.36 662.165 603.24 664.625 603.24ZM664.625 601.32C663.205 601.32 662.365 600.04 662.365 598.1C662.365 596.14 663.205 594.86 664.625 594.86C666.045 594.86 666.885 596.14 666.885 598.1C666.885 600.04 666.045 601.32 664.625 601.32Z" fill="#AC7FFF"/>
<path d="M671.542 603H673.922V596.16C674.702 595.36 675.262 594.96 676.122 594.96C677.162 594.96 677.622 595.54 677.622 597.14V603H679.982V596.84C679.982 594.36 679.062 592.92 676.942 592.92C675.602 592.92 674.602 593.64 673.722 594.48H673.662L673.482 593.16H671.542V603Z" fill="#AC7FFF"/>
<path d="M689.676 603.24C691.036 603.24 691.976 602.58 692.836 601.56H692.896L693.076 603H695.016V593.16H692.656V599.88C691.936 600.82 691.376 601.22 690.516 601.22C689.476 601.22 689.016 600.62 689.016 599.02V593.16H686.656V599.32C686.656 601.8 687.576 603.24 689.676 603.24Z" fill="#AC7FFF"/>
<path d="M700.669 603.24C703.169 603.24 704.529 601.88 704.529 600.18C704.529 598.48 703.189 597.7 701.669 597.18C700.429 596.76 699.729 596.48 699.729 595.76C699.729 595.18 700.169 594.7 701.149 594.7C701.929 594.7 702.649 594.94 703.349 595.46L704.369 594.12C703.569 593.42 702.429 592.92 701.089 592.92C698.889 592.92 697.489 594.16 697.489 595.88C697.489 597.44 698.809 598.26 700.229 598.78C701.329 599.18 702.289 599.5 702.289 600.32C702.289 600.98 701.789 601.46 700.749 601.46C699.749 601.46 698.849 601.16 697.989 600.46L696.949 601.8C697.909 602.72 699.309 603.24 700.669 603.24Z" fill="#AC7FFF"/>
<path d="M708.942 603.24C710.102 603.24 711.062 602.68 711.942 601.92H712.022L712.222 603H714.142V597.18C714.142 594.44 712.902 592.92 710.462 592.92C708.902 592.92 707.502 593.52 706.422 594.2L707.262 595.76C708.142 595.24 709.062 594.84 710.022 594.84C711.342 594.84 711.742 595.68 711.782 596.68C707.742 597.12 706.022 598.2 706.022 600.36C706.022 602.08 707.222 603.24 708.942 603.24ZM709.662 601.36C708.862 601.36 708.302 601.04 708.302 600.2C708.302 599.2 709.102 598.6 711.782 598.28V600.36C711.062 601.04 710.462 601.36 709.662 601.36Z" fill="#AC7FFF"/>
<path d="M720.294 607.34C723.514 607.34 725.554 605.8 725.554 603.86C725.554 602.16 724.294 601.42 721.954 601.42H720.214C719.034 601.42 718.634 601.1 718.634 600.56C718.634 600.12 718.814 599.88 719.094 599.64C719.534 599.8 719.994 599.88 720.414 599.88C722.494 599.88 724.174 598.72 724.174 596.54C724.174 595.88 723.934 595.28 723.634 594.92H725.394V593.16H721.874C721.474 593.02 720.954 592.92 720.414 592.92C718.354 592.92 716.514 594.2 716.514 596.46C716.514 597.62 717.134 598.56 717.814 599.06V599.14C717.234 599.54 716.714 600.2 716.714 600.96C716.714 601.76 717.114 602.28 717.614 602.6V602.68C716.714 603.24 716.194 603.94 716.194 604.78C716.194 606.5 717.954 607.34 720.294 607.34ZM720.414 598.4C719.494 598.4 718.734 597.7 718.734 596.46C718.734 595.24 719.474 594.56 720.414 594.56C721.354 594.56 722.074 595.24 722.074 596.46C722.074 597.7 721.334 598.4 720.414 598.4ZM720.654 605.8C719.134 605.8 718.174 605.3 718.174 604.42C718.174 603.96 718.394 603.54 718.914 603.14C719.294 603.24 719.714 603.28 720.254 603.28H721.574C722.674 603.28 723.274 603.5 723.274 604.24C723.274 605.08 722.214 605.8 720.654 605.8Z" fill="#AC7FFF"/>
<path d="M731.171 603.24C732.451 603.24 733.651 602.88 734.571 602.2L733.771 600.72C733.091 601.16 732.331 601.4 731.491 601.4C729.931 601.4 728.891 600.44 728.651 598.8H734.851C734.931 598.44 734.971 598.08 734.971 597.6C734.971 594.84 733.531 592.92 730.871 592.92C728.571 592.92 726.331 594.88 726.331 598.08C726.331 601.36 728.451 603.24 731.171 603.24ZM728.651 597.04C728.851 595.56 729.811 594.76 730.931 594.76C732.211 594.76 732.891 595.6 732.891 597.04H728.651Z" fill="#AC7FFF"/>
<path d="M78.1843 511.88V508.25L72.9043 506.51L68.8543 505.1V504.98L72.9043 503.57L78.1843 501.83V498.2L64.3843 503.51V506.57L78.1843 511.88Z" fill="white"/>
<path d="M80.3239 515H93.7339V511.28H89.8939C88.9939 511.28 87.6739 511.4 86.7139 511.52C89.8039 508.28 92.8039 504.86 92.8039 501.65C92.8039 497.99 90.2539 495.59 86.5039 495.59C83.7739 495.59 82.0039 496.61 80.1139 498.62L82.5139 500.99C83.4739 499.97 84.5239 499.04 85.9039 499.04C87.5539 499.04 88.6039 500.06 88.6039 501.92C88.6039 504.62 85.1839 507.89 80.3239 512.48V515Z" fill="white"/>
<path d="M102.983 515.36C107.063 515.36 109.793 511.88 109.793 505.4C109.793 498.92 107.063 495.59 102.983 495.59C98.9035 495.59 96.1735 498.92 96.1735 505.4C96.1735 511.88 98.9035 515.36 102.983 515.36ZM102.983 511.94C101.513 511.94 100.343 510.59 100.343 505.4C100.343 500.18 101.513 499.01 102.983 499.01C104.483 499.01 105.623 500.18 105.623 505.4C105.623 510.59 104.483 511.94 102.983 511.94Z" fill="white"/>
<path d="M116.553 507.5C119.373 507.5 121.443 505.19 121.443 501.26C121.443 497.36 119.373 495.08 116.553 495.08C113.733 495.08 111.693 497.36 111.693 501.26C111.693 505.19 113.733 507.5 116.553 507.5ZM116.553 505.04C115.563 505.04 114.753 504.05 114.753 501.26C114.753 498.47 115.563 497.54 116.553 497.54C117.543 497.54 118.353 498.47 118.353 501.26C118.353 504.05 117.543 505.04 116.553 505.04ZM117.213 515.36H119.763L130.323 495.08H127.773L117.213 515.36ZM130.983 515.36C133.803 515.36 135.873 513.05 135.873 509.12C135.873 505.22 133.803 502.94 130.983 502.94C128.163 502.94 126.123 505.22 126.123 509.12C126.123 513.05 128.163 515.36 130.983 515.36ZM130.983 512.9C129.993 512.9 129.183 511.91 129.183 509.12C129.183 506.33 129.993 505.4 130.983 505.4C131.973 505.4 132.783 506.33 132.783 509.12C132.783 511.91 131.973 512.9 130.983 512.9Z" fill="white"/>
<path d="M729.52 134.9C738.145 134.9 745.345 128.825 745.345 118.925C745.345 108.875 739.345 104.225 731.17 104.225C728.245 104.225 724.12 106.1 721.645 109.25C722.02 98.1502 726.22 94.4002 731.47 94.4002C734.245 94.4002 737.245 95.9752 738.895 97.7752L744.67 91.1752C741.67 88.1002 737.095 85.4752 730.795 85.4752C720.745 85.4752 711.52 93.5002 711.52 111.275C711.52 128 720.295 134.9 729.52 134.9ZM729.295 126.65C725.995 126.65 722.845 124.25 721.87 116.75C723.82 113.375 726.595 112.025 729.07 112.025C732.67 112.025 735.295 113.9 735.295 118.925C735.295 124.325 732.595 126.65 729.295 126.65Z" fill="white"/>
<path d="M767.869 134.9C778.069 134.9 784.894 126.2 784.894 110C784.894 93.8002 778.069 85.4752 767.869 85.4752C757.669 85.4752 750.844 93.8002 750.844 110C750.844 126.2 757.669 134.9 767.869 134.9ZM767.869 126.35C764.194 126.35 761.269 122.975 761.269 110C761.269 96.9502 764.194 94.0252 767.869 94.0252C771.619 94.0252 774.469 96.9502 774.469 110C774.469 122.975 771.619 126.35 767.869 126.35Z" fill="white"/>
<path d="M801.793 115.25C808.843 115.25 814.018 109.475 814.018 99.6502C814.018 89.9002 808.843 84.2002 801.793 84.2002C794.743 84.2002 789.643 89.9002 789.643 99.6502C789.643 109.475 794.743 115.25 801.793 115.25ZM801.793 109.1C799.318 109.1 797.293 106.625 797.293 99.6502C797.293 92.6752 799.318 90.3502 801.793 90.3502C804.268 90.3502 806.293 92.6752 806.293 99.6502C806.293 106.625 804.268 109.1 801.793 109.1ZM803.443 134.9H809.818L836.218 84.2002H829.843L803.443 134.9ZM837.868 134.9C844.918 134.9 850.093 129.125 850.093 119.3C850.093 109.55 844.918 103.85 837.868 103.85C830.818 103.85 825.718 109.55 825.718 119.3C825.718 129.125 830.818 134.9 837.868 134.9ZM837.868 128.75C835.393 128.75 833.368 126.275 833.368 119.3C833.368 112.325 835.393 110 837.868 110C840.343 110 842.368 112.325 842.368 119.3C842.368 126.275 840.343 128.75 837.868 128.75Z" fill="white"/>
<path fill-rule="evenodd" clip-rule="evenodd" d="M790 564.5H63V561.5H790V564.5Z" fill="#978ACE"/>
<path fill-rule="evenodd" clip-rule="evenodd" d="M61.5 575L61.5 551L64.5 551L64.5 575L61.5 575Z" fill="#978ACE"/>
<path fill-rule="evenodd" clip-rule="evenodd" d="M788.5 575L788.5 551L791.5 551L791.5 575L788.5 575Z" fill="#978ACE"/>
<path fill-rule="evenodd" clip-rule="evenodd" d="M777.558 158.831C778.204 158.587 778.925 158.913 779.169 159.558L783.146 170.082C783.39 170.728 783.064 171.449 782.419 171.693C781.773 171.937 781.052 171.612 780.807 170.966L777.856 163.155C777.784 163.296 777.709 163.444 777.632 163.596C776.613 165.596 775.057 168.532 772.898 172.291C768.582 179.808 761.858 190.62 752.213 203.831C732.921 230.253 701.944 266.269 655.169 304.716C561.611 381.617 404.899 468.203 152.191 507.236L151.809 504.765C404.101 465.797 560.389 379.384 653.581 302.785C700.181 264.482 731.016 228.622 750.194 202.357C759.782 189.224 766.457 178.489 770.73 171.046C772.867 167.324 774.404 164.426 775.404 162.462C775.435 162.401 775.465 162.342 775.495 162.283L767.918 165.146C767.272 165.39 766.551 165.065 766.307 164.419C766.063 163.773 766.389 163.052 767.034 162.808L777.558 158.831Z" fill="white"/>
<path d="M0.925 571H12.1V567.9H8.9C8.15 567.9 7.05 568 6.25 568.1C8.825 565.4 11.325 562.55 11.325 559.875C11.325 556.825 9.2 554.825 6.075 554.825C3.8 554.825 2.325 555.675 0.75 557.35L2.75 559.325C3.55 558.475 4.425 557.7 5.575 557.7C6.95 557.7 7.825 558.55 7.825 560.1C7.825 562.35 4.975 565.075 0.925 568.9V571Z" fill="#AC7FFF"/>
<path d="M19.808 571.3C23.208 571.3 25.483 568.4 25.483 563C25.483 557.6 23.208 554.825 19.808 554.825C16.408 554.825 14.133 557.6 14.133 563C14.133 568.4 16.408 571.3 19.808 571.3ZM19.808 568.45C18.583 568.45 17.608 567.325 17.608 563C17.608 558.65 18.583 557.675 19.808 557.675C21.058 557.675 22.008 558.65 22.008 563C22.008 567.325 21.058 568.45 19.808 568.45Z" fill="#AC7FFF"/>
<path d="M27.341 571H38.516V567.9H35.316C34.566 567.9 33.466 568 32.666 568.1C35.241 565.4 37.741 562.55 37.741 559.875C37.741 556.825 35.616 554.825 32.491 554.825C30.216 554.825 28.741 555.675 27.166 557.35L29.166 559.325C29.966 558.475 30.841 557.7 31.991 557.7C33.366 557.7 34.241 558.55 34.241 560.1C34.241 562.35 31.391 565.075 27.341 568.9V571Z" fill="#AC7FFF"/>
<path d="M41.374 571H51.474V568.025H48.499V555.125H45.799C44.674 555.8 43.574 556.25 41.849 556.575V558.85H44.824V568.025H41.374V571Z" fill="#AC7FFF"/>
<path d="M801.093 571H812.268V567.9H809.068C808.318 567.9 807.218 568 806.418 568.1C808.993 565.4 811.493 562.55 811.493 559.875C811.493 556.825 809.368 554.825 806.243 554.825C803.968 554.825 802.493 555.675 800.918 557.35L802.918 559.325C803.718 558.475 804.593 557.7 805.743 557.7C807.118 557.7 807.993 558.55 807.993 560.1C807.993 562.35 805.143 565.075 801.093 568.9V571Z" fill="#AC7FFF"/>
<path d="M819.976 571.3C823.376 571.3 825.651 568.4 825.651 563C825.651 557.6 823.376 554.825 819.976 554.825C816.576 554.825 814.301 557.6 814.301 563C814.301 568.4 816.576 571.3 819.976 571.3ZM819.976 568.45C818.751 568.45 817.776 567.325 817.776 563C817.776 558.65 818.751 557.675 819.976 557.675C821.226 557.675 822.176 558.65 822.176 563C822.176 567.325 821.226 568.45 819.976 568.45Z" fill="#AC7FFF"/>
<path d="M827.509 571H838.684V567.9H835.484C834.734 567.9 833.634 568 832.834 568.1C835.409 565.4 837.909 562.55 837.909 559.875C837.909 556.825 835.784 554.825 832.659 554.825C830.384 554.825 828.909 555.675 827.334 557.35L829.334 559.325C830.134 558.475 831.009 557.7 832.159 557.7C833.534 557.7 834.409 558.55 834.409 560.1C834.409 562.35 831.559 565.075 827.509 568.9V571Z" fill="#AC7FFF"/>
<path d="M847.142 571H850.567V567.2H852.392V564.4H850.567V555.125H846.067L840.267 564.675V567.2H847.142V571ZM843.792 564.4L845.892 560.95C846.342 560.05 846.792 559.15 847.192 558.275H847.292C847.242 559.275 847.142 560.8 847.142 561.825V564.4H843.792Z" fill="#AC7FFF"/>
</svg>
