<svg width="331" height="120" viewBox="0 0 331 120" fill="none" xmlns="http://www.w3.org/2000/svg">
<g clip-path="url(#clip0)">
<path d="M193.648 72.2603C193.648 97.0429 180.095 100.173 166.543 100.173C143.346 100.173 138.394 88.1733 138.394 71.2168V22.9559H129.794V18.2603H162.372V22.9559H153.25V69.6516C153.25 86.0864 157.42 94.4342 169.409 94.4342C181.398 94.4342 187.393 88.4342 187.393 71.2168V22.9559H178.792V18.2603H201.988V22.9559H194.169L193.648 72.2603ZM216.323 94.4342V22.9559H207.201V18.2603H243.168C258.545 18.2603 266.103 26.869 266.103 37.0429C266.103 47.9994 256.199 53.9994 247.598 55.8255C264.539 57.3907 269.231 68.3472 269.231 76.4342C269.231 92.869 255.157 99.1298 241.604 99.1298H206.68V94.4342H216.323ZM251.508 38.0864C251.508 30.5211 247.598 22.9559 238.998 22.9559H229.615V53.9994H237.955C247.338 53.9994 251.508 46.4342 251.508 38.0864ZM254.635 76.6951C254.635 65.9994 249.944 58.6951 239.258 58.6951H230.136V94.6951H237.694C248.902 94.4342 254.635 87.6516 254.635 76.6951ZM305.458 21.9124C296.857 21.9124 291.384 26.869 291.384 35.7385C291.384 43.5646 299.985 47.4777 308.325 50.3472C313.277 52.1733 319.532 54.5211 323.963 58.4342C328.654 62.869 331.261 68.869 331 76.4342C330.739 90.5211 320.835 100.173 303.373 100.173C296.857 100.173 286.693 98.6081 280.698 95.2168L279.917 74.0864H285.129C285.65 88.4342 292.166 95.7385 303.895 95.7385C313.277 95.7385 318.49 89.4777 318.49 79.8255C318.49 71.4777 311.713 68.0864 301.288 64.4342C297.9 63.3907 291.124 60.782 286.432 56.0864C282.262 51.9124 280.177 46.4342 280.177 40.9559C280.177 24.5211 291.906 17.2168 306.501 17.2168C312.235 17.2168 320.835 19.3038 326.048 22.1733L326.569 40.6951H321.357C320.575 27.6516 314.841 21.9124 305.458 21.9124Z" fill="#E60000"/>
<path d="M88.8748 34.6957L86.7898 36.5217L89.1354 44.087L82.3591 40.4348L80.0134 42.2609L87.5716 46.4348L79.4921 52.9565L77.4071 50.087L80.274 47.7391L78.189 45.1304L75.322 47.4783L72.9764 44.3478L75.8433 42L73.7583 39.1304L59.163 51.3913L73.237 62.6087L75.8433 59.4783C77.6677 59.4783 78.9709 61.0435 79.7528 62.6087L77.1465 65.7391L78.7102 67.0435C82.0984 63.913 86.7898 61.8261 91.4811 61.8261C101.385 61.8261 108.943 69.913 108.943 79.8261C108.943 82.9565 108.161 86.6087 106.337 89.4783L108.943 91.5652C108.943 93.3913 107.119 95.4783 105.294 96L102.688 93.913C99.3 97.3044 94.6087 99.1304 89.9173 99.1304C80.0134 99.1304 72.4551 91.3044 72.4551 81.3913C72.4551 78.2609 73.4976 74.8696 74.8008 72L72.9764 70.6957L70.3701 74.087C68.5457 73.8261 66.9819 72.5217 66.4606 70.6957L69.0669 67.8261L57.3386 57.913V73.5652H61.248C61.7693 74.3478 62.0299 75.1304 62.0299 75.913C62.0299 76.6957 61.7693 77.7391 61.248 78.5217H57.3386V80.3478C65.9394 81.913 73.237 89.2174 73.237 98.087C73.237 107.217 66.2 114.522 57.3386 116.087V119.217C56.5567 119.739 55.5142 120 54.4717 120C53.4291 120 52.126 119.739 51.3441 119.217V116.087C42.4827 114.783 35.7063 107.217 35.7063 98.087C35.7063 89.2174 42.4827 81.913 51.3441 80.6087V78.5217H47.174C46.6528 77.7391 46.3921 76.9565 46.3921 75.913C46.3921 74.8696 46.6528 74.087 47.174 73.3044H51.3441V57.6522L39.3551 67.5652L41.9614 70.4348C41.4402 72.2609 39.8764 73.5652 38.052 73.8261L35.4457 70.4348L33.8819 72C35.4457 74.8696 36.4882 78 36.4882 81.3913C36.4882 91.3044 28.6693 99.1304 19.026 99.1304C14.3346 99.1304 9.64331 97.3044 6.25512 93.913L3.64882 96C2.08504 95.4783 0.26063 93.3913 0 91.5652L2.6063 89.4783C1.04252 86.6087 0 83.2174 0 79.8261C0 69.913 7.55827 61.8261 17.4622 61.8261C22.1535 61.8261 26.8449 63.913 30.2331 67.0435L31.7969 66L29.1905 62.8696C29.7118 61.3044 31.2756 60 33.1 59.7391L35.7063 62.8696L49.7803 51.6522L35.185 39.3913L33.1 42.2609L35.9669 44.6087L33.8819 47.4783L31.015 45.1304L28.9299 47.7391L31.2756 49.5652L29.1905 52.4348L21.3717 45.913L28.6693 41.7391L26.5843 39.913L19.8079 43.5652L21.8929 36.5217L19.8079 34.6957L17.2016 42.7826L9.12205 36.2609L11.2071 33.6522L14.074 36L16.4197 33.3913L13.5528 30.7826L15.6378 28.1739L18.5047 30.2609L20.5898 27.6522L14.3346 22.9565C14.8559 20.8696 16.1591 19.3043 18.2441 18L51.3441 45.1304V27.1304H47.9559V30.5217H44.5677V27.1304H41.1795V30.5217H37.7913V20.3478L45.6102 23.7391V20.8696L38.3126 17.7391L45.6102 14.8696V12.2609L37.7913 15.3913V4.95652H41.1795V8.6087H44.5677V4.95652H47.9559V8.6087H51.3441V0.521739C52.3866 0.26087 53.4291 0 54.4717 0C55.5142 0 56.5567 0.26087 57.3386 0.521739V45.1304L90.4386 18C92.263 19.3043 93.5661 20.8696 94.348 22.9565L88.0929 27.913L90.1779 30.5217L93.0449 28.4348L95.1299 31.0435L92.263 33.6522L94.348 36.2609L97.215 33.913L99.3 36.5217L91.2205 43.0435L88.8748 34.6957ZM21.3717 83.7391C21.3717 86.6087 23.4567 88.4348 26.063 88.6957L21.8929 91.8261C19.026 90.7826 16.4197 87.3913 16.4197 84.2609C16.4197 83.2174 16.6803 82.6957 16.9409 81.913H16.1591C12.2496 81.913 9.12205 78.2609 8.34016 74.6087L12.7709 71.2174V72.5217C12.7709 74.8696 15.1165 76.9565 17.4622 76.9565C20.0685 76.9565 22.4142 74.8696 22.4142 72.2609C22.4142 69.1304 20.0685 67.0435 16.9409 67.0435C11.2071 67.0435 5.47323 72.7826 5.47323 80.087C5.47323 82.1739 5.99449 84.2609 6.77638 86.087L9.38268 84C11.2071 84.7826 12.5102 86.6087 13.0315 88.6957L10.4252 90.7826C13.0315 92.8696 16.1591 93.913 19.2866 93.913C26.063 93.913 31.2756 88.4348 31.2756 83.7391C31.2756 80.8696 29.4512 78.5217 26.5843 78.5217C23.4567 79.0435 21.3717 81.1304 21.3717 83.7391ZM56.8173 94.1739C56.8173 96.7826 58.9024 98.8696 61.5087 98.8696C63.3331 98.8696 64.115 98.087 65.4181 97.0435V102.522C64.115 103.304 62.8118 103.565 61.248 103.565C58.3811 103.565 56.0354 102.783 54.4717 100.174C52.9079 102.783 50.3016 103.565 47.4346 103.565C46.1315 103.565 44.5677 103.304 43.2646 102.522V97.0435C44.5677 98.3478 45.3496 98.8696 47.174 98.8696C49.7803 98.8696 51.8654 96.7826 51.8654 94.1739C51.8654 91.5652 50.3016 89.4783 47.4346 89.4783C42.4827 89.4783 40.3976 94.1739 40.3976 98.6087C40.3976 104.87 45.089 110.348 51.0835 111.391V108.261C52.126 107.739 53.1685 107.739 53.9504 107.739C54.9929 107.739 56.0354 107.739 57.0779 108.261V111.391C62.8118 110.609 67.7638 104.609 67.7638 98.6087C67.7638 94.1739 65.9394 89.4783 60.7268 89.4783C58.6417 89.2174 56.8173 91.5652 56.8173 94.1739ZM86.5291 72.5217C86.5291 74.8696 89.1354 77.2174 91.4811 77.2174C93.8268 77.2174 96.1724 75.1304 96.1724 72.7826V71.4783L100.343 74.8696C99.5606 79.0435 95.9118 82.4348 91.7417 82.1739C92.0024 82.9565 92.0024 83.7391 92.0024 84.5217C92.0024 87.6522 89.3961 91.0435 86.5291 92.087L82.6197 88.6957C85.226 88.4348 87.311 86.6087 87.311 83.7391C87.311 80.8696 84.9654 79.0435 82.3591 79.0435C79.4921 79.0435 77.6677 81.3913 77.6677 84.2609C77.6677 87.6522 81.8378 94.4348 89.9173 94.4348C93.0449 94.4348 96.1724 93.3913 98.5181 91.3044L95.9118 89.2174C96.4331 87.1304 97.7362 85.3044 99.5606 84.5217L102.167 86.6087C103.209 84.7826 103.731 82.6957 103.731 80.6087C103.731 74.8696 99.3 67.5652 92.263 67.5652C89.1354 67.5652 86.5291 69.3913 86.5291 72.5217Z" fill="black"/>
</g>
<defs>
<clipPath id="clip0">
<rect width="331" height="120" fill="white"/>
</clipPath>
</defs>
</svg>
