<svg width="109" height="34" viewBox="0 0 109 34" fill="none" xmlns="http://www.w3.org/2000/svg">
<g clip-path="url(#clip0)">
<path d="M76.5322 8.12109H74.2011L74.2118 25.8883H83.6537V23.6906H76.5429L76.5322 8.12109Z" fill="white"/>
<path d="M92.6387 22.7697C92.2651 23.1666 91.8166 23.4817 91.3203 23.696C90.824 23.9102 90.2903 24.0192 89.7516 24.0162C87.9766 24.0162 87.2602 23.1196 87.2602 21.9497C87.2602 20.1894 88.4578 19.3475 91.0027 19.3475C91.554 19.3497 92.1045 19.3936 92.6495 19.4787V22.7699L92.6387 22.7697ZM90.2222 12C88.41 11.9944 86.6536 12.6407 85.2606 13.8259L86.0839 15.291C87.2192 14.5537 88.5351 14.1595 89.8799 14.1539C91.794 14.1539 92.6387 15.1599 92.6387 16.8436V17.7072C92.1046 17.6215 91.5648 17.5777 91.0241 17.576C86.9394 17.576 84.8649 19.0411 84.8649 22.1025C84.8649 24.8469 86.5117 26.2245 89.0032 26.2245C90.682 26.2245 92.2966 25.4372 92.8526 24.158L93.2803 25.8964H94.9271V16.8C94.9164 13.9244 93.6973 12.0001 90.2222 12.0001V12Z" fill="white"/>
<path d="M102.448 24.0968C101.689 24.1297 100.931 23.9993 100.224 23.7141V15.503C101.061 14.751 102.136 14.3353 103.25 14.3333C105.506 14.3333 106.373 15.9625 106.373 18.5975C106.373 22.3368 104.972 24.0971 102.448 24.0971L102.448 24.0968ZM103.432 12.0045C102.827 12.0007 102.228 12.1283 101.675 12.379C101.122 12.6297 100.628 12.9977 100.224 13.4587V11.1626L100.213 8.12305H97.9358L97.9465 25.4529C99.3545 25.9894 100.85 26.2455 102.352 26.2073C106.704 26.2073 108.8 23.3649 108.8 18.4553C108.789 14.5739 106.854 12.0044 103.432 12.0044" fill="white"/>
<path d="M51.1515 10.0486C52.6916 9.99129 54.2022 10.4907 55.418 11.4591L56.4231 9.67686C54.9825 8.42867 53.1463 7.7601 51.2584 7.79632C46.2969 7.79632 42.8217 10.8903 42.8217 17.1336C42.8217 23.6719 46.5749 26.2195 50.8628 26.2195C52.6368 26.2237 54.3946 25.8746 56.0382 25.1917L55.985 18.2051V16.0075H49.6227V18.2051H53.686L53.7392 23.5079C52.8835 23.8721 51.96 24.04 51.0339 24C47.5908 24 45.2811 21.7805 45.2811 17.1116C45.2704 12.3554 47.6552 10.0484 51.1516 10.0484" fill="white"/>
<path d="M67.5681 8.11719H65.2905L65.3012 11.1024V21.4128C65.3012 24.2883 66.5202 26.2127 69.9954 26.2127C70.4653 26.2139 70.9343 26.17 71.3962 26.0815V23.9931C71.0459 24.0474 70.6919 24.073 70.3376 24.0697C68.4236 24.0697 67.5788 23.0638 67.5788 21.38V14.2729H71.3961V12.3267H67.5788L67.5681 8.11747V8.11719Z" fill="white"/>
<path d="M59.4982 25.8879H61.7758V12.3301H59.4982V25.8879Z" fill="white"/>
<path d="M59.4982 10.4597H61.7758V8.13086H59.4982V10.4597Z" fill="white"/>
<path d="M18.0498 34.0005L24.7007 13.082H11.4086L18.0498 34.0005Z" fill="#E24329"/>
<path d="M2.09293 13.082L0.0675702 19.4374C-0.0223179 19.7199 -0.0225318 20.0243 0.0669817 20.307C0.156495 20.5896 0.331144 20.8361 0.565938 21.0112L18.05 34.0005L2.09293 13.082Z" fill="#FCA326"/>
<path d="M2.0929 13.0813H11.4087L7.39945 0.483095C7.35348 0.342396 7.2654 0.220038 7.14767 0.133342C7.02995 0.0466454 6.88853 0 6.74345 0C6.59837 0 6.45698 0.0466454 6.33925 0.133342C6.22153 0.220038 6.13345 0.342396 6.08747 0.483095L2.0929 13.0813Z" fill="#E24329"/>
<path d="M34.0166 13.082L36.0346 19.4374C36.1245 19.7199 36.1247 20.0243 36.0352 20.307C35.9457 20.5896 35.771 20.8361 35.5362 21.0112L18.0499 34.0005L34.0166 13.082Z" fill="#FCA326"/>
<path d="M34.0165 13.0813H24.7007L28.7026 0.483095C28.7486 0.342396 28.8367 0.220038 28.9544 0.133342C29.0722 0.0466454 29.2136 0 29.3586 0C29.5037 0 29.6451 0.0466454 29.7628 0.133342C29.8806 0.220038 29.9687 0.342396 30.0146 0.483095L34.0165 13.0813Z" fill="#E24329"/>
<path d="M18.0496 34.0002L24.7006 13.082H34.0164L18.0496 34.0002Z" fill="#FC6D26"/>
<path d="M18.0497 34.0002L2.0929 13.082H11.4087L18.0497 34.0002Z" fill="#FC6D26"/>
</g>
<defs>
<clipPath id="clip0">
<rect width="108.8" height="34" fill="white"/>
</clipPath>
</defs>
</svg>
