<svg width="133" height="30" viewBox="0 0 133 30" fill="none" xmlns="http://www.w3.org/2000/svg">
<g clip-path="url(#clip0)">
<path d="M17.7465 0C18.7894 0.219778 19.8423 0.399822 20.87 0.670523C23.0121 1.21716 24.9919 2.25771 26.6462 3.70648C25.3488 4.92953 24.0944 6.10547 22.7731 7.34836C21.4616 6.26823 19.8653 5.57831 18.1709 5.35917C16.4832 5.1284 14.7712 5.12923 13.0837 5.36164C8.97403 6.11291 6.21445 9.53253 5.96998 13.7927C5.7558 15.9447 6.14666 18.1133 7.09972 20.0608C7.78463 21.4244 8.82507 22.5837 10.1143 23.4201C11.4036 24.2565 12.8953 24.7398 14.4365 24.8205C16.5309 25.0483 18.6505 24.8324 20.6534 24.1872C20.9216 24.1447 21.162 23.9995 21.3223 23.7833C21.4827 23.5671 21.55 23.2973 21.5099 23.0325C21.4545 21.3477 21.4922 19.6612 21.4922 17.8657H15.5448C15.6846 16.1596 15.8131 14.5752 15.9479 12.9188C16.2653 12.8965 16.531 12.863 16.7956 12.863C19.9733 12.8555 23.151 12.879 26.3262 12.8419C27.0416 12.8344 27.2003 13.0803 27.1953 13.7383C27.1713 17.9303 27.1927 22.1271 27.1638 26.3216C27.1657 26.496 27.129 26.6688 27.0561 26.8277C26.9832 26.9866 26.876 27.1279 26.7418 27.2417C21.0388 30.1622 15.0891 30.9432 8.99544 28.7131C3.80375 26.8132 0.944665 22.9267 0.162506 17.5377C0.120912 17.3567 0.0666126 17.1787 0 17.0051V13.0801L0.158702 12.6392C0.461278 9.78311 1.6537 7.08945 3.57207 4.92851C5.49045 2.76756 8.04061 1.24539 10.8721 0.57122C11.7701 0.338981 12.6906 0.189771 13.5989 0H17.7465Z" fill="white"/>
<path d="M103.256 21.3106C103.657 23.1583 104.612 24.4137 106.278 24.9725C109.086 25.915 111.491 25.1551 113.547 22.9509C114.711 23.825 115.839 24.6706 117.036 25.5684C115.661 27.4123 113.68 28.7296 111.431 29.2959C107.416 30.2421 103.679 29.7032 100.707 26.6908C97.7766 23.7256 97.2627 20.0552 98.3723 16.196C99.4329 12.4933 102.022 10.2458 105.829 9.42882C107.976 8.95996 110.218 9.13552 112.263 9.9329C115.373 11.1188 116.949 13.544 117.531 16.6468C117.771 17.9208 117.738 19.247 117.86 20.5444C117.918 21.1727 117.65 21.3255 117.048 21.3218C112.823 21.3019 108.595 21.3106 104.365 21.3106L103.256 21.3106ZM112.4 17.1535C112.368 14.9792 110.638 13.4321 108.265 13.3651C105.675 13.2942 103.52 14.9408 103.354 17.1535H112.4Z" fill="white"/>
<path d="M42.5386 16.8348C42.6148 16.4722 42.6158 16.0982 42.5415 15.7353C42.4672 15.3723 42.3192 15.028 42.1063 14.723C41.8934 14.418 41.6201 14.1586 41.3028 13.9605C40.9855 13.7624 40.6308 13.6297 40.2601 13.5703C39.2068 13.3212 38.1112 13.3006 37.0491 13.5101C35.987 13.7195 34.9837 14.154 34.1087 14.7835C33.8593 14.9524 33.625 15.1423 33.4626 15.2653C32.4298 14.2781 31.4119 13.3034 30.3138 12.2529C30.7345 11.9537 31.1779 11.6035 31.6589 11.3067C33.3575 10.2201 35.2822 9.52386 37.2905 9.26959C39.2989 9.01532 41.3396 9.20951 43.2615 9.83779C44.555 10.1563 45.7015 10.8963 46.5147 11.9379C47.328 12.9795 47.7603 14.2614 47.7416 15.5757C47.8763 19.9291 47.8209 24.2911 47.8159 28.653C47.7887 28.7762 47.7301 28.8905 47.6457 28.9852C47.5613 29.0799 47.4539 29.1519 47.3335 29.1944C45.9581 29.2389 44.579 29.2193 43.1331 29.2193C43.0701 28.6307 43.0121 28.1017 42.9366 27.4238C41.8588 28.528 40.4476 29.2589 38.9137 29.5073C36.9284 29.9315 34.8579 29.7263 32.9978 28.9212C32.0883 28.485 31.3056 27.8289 30.7227 27.0141C30.1398 26.1993 29.7756 25.2522 29.6641 24.2612C29.5526 23.2702 29.6974 22.2674 30.0849 21.3464C30.4725 20.4255 31.0903 19.6162 31.8807 18.9941C33.0971 18.0779 34.5392 17.4979 36.0585 17.3141C37.9176 17.0645 39.798 16.9825 41.6659 16.8397C41.9606 16.8149 42.2566 16.8348 42.5387 16.8348H42.5386ZM42.579 20.7747C41.661 20.7172 40.7399 20.7259 39.8232 20.8008C38.581 20.9791 37.3585 21.2722 36.1719 21.6761C35.7907 21.8189 35.4713 22.0871 35.2675 22.4352C35.0638 22.7834 34.9881 23.1902 35.0535 23.587C35.0694 23.9839 35.2082 24.3666 35.4511 24.6835C35.694 25.0005 36.0295 25.2366 36.4125 25.3601C38.7602 26.2541 43.1848 24.5406 42.579 20.7746" fill="white"/>
<path d="M77.5238 9.72615H82.3641C82.4221 10.4488 82.4825 11.1553 82.5606 12.0568C83.2702 11.0866 84.2228 10.3142 85.3254 9.81505C86.428 9.31588 87.6429 9.10696 88.8519 9.20865C92.3771 9.34776 94.6317 11.2525 95.2967 14.6646C95.4471 15.4674 95.523 16.2821 95.5234 17.0984C95.5461 20.8868 95.5335 24.6752 95.5322 28.4636C95.5322 28.676 95.502 28.8883 95.4793 29.2161C93.8027 29.2161 92.1542 29.2347 90.5081 29.1826C90.367 29.1788 90.1227 28.7256 90.1201 28.4798C90.0924 25.4277 90.11 22.3766 90.0975 19.326C90.1183 18.5096 90.0771 17.6927 89.974 16.8823C89.6919 15.1266 88.935 14.3157 87.5256 14.1009C85.7749 13.8352 84.0922 14.5032 83.4548 15.951C83.0612 16.8752 82.8475 17.8643 82.8251 18.8664C82.747 21.9967 82.7974 25.1333 82.7974 28.2636V29.1787H77.5238V9.72615Z" fill="white"/>
<path d="M64.5724 4.28906H69.8723V9.68923H75.1522C75.0212 11.25 74.9003 12.7027 74.7653 14.2748H69.9301C69.9099 14.6523 69.8834 14.9192 69.8849 15.1839C69.8988 17.7692 69.8623 20.3581 69.9517 22.9433C70.0058 24.5414 70.7905 25.1784 72.419 25.1049C73.2932 25.0651 74.1648 24.8938 75.1396 24.7684C75.0212 26.1168 74.9129 27.4877 74.7591 28.8523C74.7466 28.9815 74.4544 29.1342 74.2679 29.1776C72.4457 29.6516 70.5376 29.7081 68.6898 29.3429C66.3207 28.8326 65.0247 27.3836 64.7035 24.9324C64.6092 24.2587 64.5562 23.5799 64.5448 22.8998C64.5335 16.9347 64.5318 10.9696 64.5398 5.00447C64.5398 4.7934 64.5599 4.57852 64.5726 4.28925" fill="white"/>
<path d="M56.5216 29.1674H51.1536C51.1359 28.8731 51.1057 28.5863 51.1057 28.3007C51.1044 22.3952 51.1158 16.4872 51.0894 10.5829C51.0855 9.86771 51.2669 9.63566 52.01 9.67031C53.3564 9.72988 54.7091 9.68767 56.1361 9.68767C56.1992 10.4203 56.2596 11.1044 56.3377 11.9799C58.1023 9.83046 60.358 9.58461 62.8179 9.71869C62.6957 11.1491 62.5949 12.5014 62.4362 13.8461C62.4173 14.01 62.0999 14.2174 61.8896 14.267C61.5611 14.3059 61.2296 14.3143 60.8996 14.2919C60.3239 14.285 59.7526 14.3921 59.2196 14.6066C58.6866 14.8212 58.2026 15.139 57.7963 15.5412C57.39 15.9433 57.0697 16.4217 56.8542 16.9481C56.6387 17.4744 56.5324 18.038 56.5417 18.6056C56.4966 21.8141 56.5241 25.0276 56.5216 28.2386V29.1674Z" fill="white"/>
<path d="M120.278 9.72641H125.238C125.288 10.4194 125.341 11.106 125.404 11.9478C127.225 9.68171 129.676 9.60345 132.32 9.7189C132.235 10.7694 132.18 11.7888 132.069 12.7995C131.9 14.2784 131.883 14.2772 130.359 14.2859C127.359 14.3082 125.545 16.1174 125.54 19.1123C125.53 22.4351 125.537 25.7555 125.537 29.1502H120.278V9.72641Z" fill="white"/>
<path d="M133 26.905C133.005 27.2556 132.939 27.6037 132.806 27.9287C132.672 28.2538 132.475 28.5493 132.224 28.798C131.973 29.0467 131.675 29.2435 131.346 29.3769C131.017 29.5103 130.664 29.5775 130.309 29.5747C129.953 29.5719 129.601 29.4991 129.275 29.3605C128.948 29.222 128.653 29.0205 128.406 28.7678C128.159 28.5152 127.967 28.2166 127.839 27.8895C127.711 27.5623 127.65 27.2133 127.661 26.8628C127.683 26.1756 127.976 25.524 128.479 25.0474C128.982 24.5708 129.654 24.3071 130.351 24.3126C131.049 24.3181 131.716 24.5924 132.211 25.0769C132.706 25.5614 132.989 26.2175 133 26.905ZM130.313 24.8128C130.031 24.8052 129.749 24.8548 129.487 24.9585C129.224 25.0621 128.986 25.2177 128.787 25.4155C128.587 25.6134 128.431 25.8494 128.328 26.109C128.225 26.3686 128.176 26.6463 128.186 26.9249C128.177 27.4881 128.394 28.0319 128.791 28.4376C129.187 28.8433 129.73 29.078 130.301 29.0904C130.886 29.0808 131.444 28.8449 131.854 28.4336C132.265 28.0223 132.495 27.4684 132.495 26.8914C132.494 26.6125 132.437 26.3365 132.326 26.0798C132.216 25.8231 132.054 25.5909 131.85 25.397C131.647 25.2031 131.406 25.0515 131.142 24.9511C130.878 24.8507 130.596 24.8036 130.313 24.8125" fill="white"/>
<path d="M129.417 25.4537C130.137 25.527 130.967 25.1272 131.496 25.9442C131.754 26.344 131.508 26.7612 130.854 27.2181C130.974 27.4168 131.096 27.618 131.215 27.8241C131.321 28.0017 131.421 28.1842 131.52 28.363L131.319 28.5318C130.898 28.0389 130.477 27.5472 129.938 26.9139C129.822 27.5993 129.751 28.0278 129.679 28.4599L129.417 28.4301V25.4537ZM129.835 26.8205C130.217 26.7335 130.593 26.6265 130.964 26.5002L130.966 26.0756C130.595 25.9495 130.218 25.8433 129.835 25.7577V26.8205Z" fill="white"/>
</g>
<defs>
<clipPath id="clip0">
<rect width="133" height="30" fill="white"/>
</clipPath>
</defs>
</svg>
