<svg width="19" height="19" viewBox="0 0 19 19" fill="none" xmlns="http://www.w3.org/2000/svg">
<circle cx="9.5" cy="9.5" r="9.5" fill="#FF9769"/>
<circle cx="9.49998" cy="9.50065" r="3.16667" fill="#380D75"/>
</svg>
