<?xml version="1.0" encoding="UTF-8"?>
<svg width="85px" height="37px" viewBox="0 0 85 37" version="1.1" xmlns="http://www.w3.org/2000/svg" xmlns:xlink="http://www.w3.org/1999/xlink">
    <title>Rectangle</title>
    <g id="Page-1" stroke="none" stroke-width="1" fill="none" fill-rule="evenodd">
        <g id="DevSecOps-UI" transform="translate(-858.000000, -2804.000000)" fill="#2E0864">
            <path d="M870.426407,2774.42641 L930.426407,2834.42641 L885.426407,2834.42641 C877.142136,2834.42641 870.426407,2827.71068 870.426407,2819.42641 L870.426407,2774.42641 L870.426407,2774.42641 Z" id="Rectangle" transform="translate(900.426407, 2804.426407) rotate(-45.000000) translate(-900.426407, -2804.426407) "></path>
        </g>
    </g>
</svg>