<?xml version="1.0" encoding="UTF-8"?>
<svg width="243px" height="243px" viewBox="0 0 243 243" version="1.1" xmlns="http://www.w3.org/2000/svg" xmlns:xlink="http://www.w3.org/1999/xlink">
    <title>Group 20</title>
    <defs>
        <filter x="-45.5%" y="-45.5%" width="191.0%" height="191.0%" filterUnits="objectBoundingBox" id="filter-1">
            <feOffset dx="0" dy="9" in="SourceAlpha" result="shadowOffsetOuter1"></feOffset>
            <feGaussianBlur stdDeviation="12.5" in="shadowOffsetOuter1" result="shadowBlurOuter1"></feGaussianBlur>
            <feColorMatrix values="0 0 0 0 0.0787839621   0 0 0 0 0.00529208677   0 0 0 0 0.182716259  0 0 0 1 0" type="matrix" in="shadowBlurOuter1" result="shadowMatrixOuter1"></feColorMatrix>
            <feMerge>
                <feMergeNode in="shadowMatrixOuter1"></feMergeNode>
                <feMergeNode in="SourceGraphic"></feMergeNode>
            </feMerge>
        </filter>
        <polygon id="path-2" points="0 0.0003 145 0.0003 145 145 0 145"></polygon>
    </defs>
    <g id="Page-1" stroke="none" stroke-width="1" fill="none" fill-rule="evenodd">
        <g id="DevSecOps-UI" transform="translate(-538.000000, -1336.000000)">
            <g id="Group-20" filter="url(#filter-1)" transform="translate(587.000000, 1385.000000)">
                <g id="Group-3">
                    <mask id="mask-3" fill="white">
                        <use xlink:href="#path-2"></use>
                    </mask>
                    <g id="Clip-2"></g>
                    <path d="M145,72.5003 C145,112.5403 112.541,145.0003 72.5,145.0003 C32.459,145.0003 0,112.5403 0,72.5003 C0,32.4593 32.459,0.0003 72.5,0.0003 C112.541,0.0003 145,32.4593 145,72.5003" id="Fill-1" fill="#FFFFFF" mask="url(#mask-3)"></path>
                </g>
                <line x1="72.5" y1="27.3186" x2="72.5" y2="41.0736" id="Stroke-4" stroke="#380D75" stroke-width="5.407" stroke-linecap="round" stroke-linejoin="round"></line>
                <line x1="119.5141" y1="70.1751" x2="105.7591" y2="70.1751" id="Stroke-6" stroke="#380D75" stroke-width="5.407" stroke-linecap="round" stroke-linejoin="round"></line>
                <line x1="25.4858" y1="70.1751" x2="39.2408" y2="70.1751" id="Stroke-8" stroke="#380D75" stroke-width="5.407" stroke-linecap="round" stroke-linejoin="round"></line>
                <line x1="36.477" y1="39.9729" x2="46.203" y2="49.6989" id="Stroke-10" stroke="#380D75" stroke-width="5.407" stroke-linecap="round" stroke-linejoin="round"></line>
                <line x1="36.477" y1="101.4944" x2="46.203" y2="91.7684" id="Stroke-12" stroke="#380D75" stroke-width="5.407" stroke-linecap="round" stroke-linejoin="round"></line>
                <line x1="108.5229" y1="101.4944" x2="98.7969" y2="91.7684" id="Stroke-14" stroke="#380D75" stroke-width="5.407" stroke-linecap="round" stroke-linejoin="round"></line>
                <path d="M66.6879,81.8079 L66.6879,81.8079 C70.6909,85.8109 77.3629,85.1179 80.4579,80.3769 L108.5229,39.9729 L68.1189,68.0369 C63.3779,71.1319 62.6849,77.8039 66.6879,81.8079" id="Fill-16" fill="#49F2BA"></path>
                <path d="M66.6879,81.8079 L66.6879,81.8079 C70.6909,85.8109 77.3629,85.1179 80.4579,80.3769 L108.5229,39.9729 L68.1189,68.0369 C63.3779,71.1319 62.6849,77.8039 66.6879,81.8079 Z" id="Stroke-18" stroke="#380D75" stroke-width="5.407" stroke-linecap="round" stroke-linejoin="round"></path>
            </g>
        </g>
    </g>
</svg>