<?xml version="1.0" encoding="utf-8"?>
<!-- Generator: Adobe Illustrator 25.0.1, SVG Export Plug-In . SVG Version: 6.00 Build 0)  -->
<svg version="1.1" id="Layer_1" xmlns="http://www.w3.org/2000/svg" xmlns:xlink="http://www.w3.org/1999/xlink" x="0px" y="0px"
	 viewBox="0 0 308.5 109.7" style="enable-background:new 0 0 308.5 109.7;" xml:space="preserve">
<style type="text/css">
	.st0{fill:#36276C;stroke:#36276C;stroke-width:4;stroke-linecap:round;stroke-linejoin:round;stroke-miterlimit:10;}
	.st1{fill:#9080BA;}
	.st2{fill:#C1B2D8;}
	.st3{fill:#5C4D9B;}
	.st4{fill:#EC6762;}
	.st5{fill:#E14734;}
	.st6{fill:#BC2A22;}
	.st7{fill:#56BAA4;}
	.st8{fill:#71C09B;}
	.st9{fill:#499AD5;}
	.st10{fill:#69BFEC;}
	.st11{fill:#208CCD;}
	.st12{fill:#ED6F8D;}
	.st13{fill:#F18F8E;}
	.st14{fill:#38276D;}
	.st15{fill:#ED6E2F;}
	.st16{fill:#F6A027;}
	.st17{fill:#E58616;}
	.st18{fill:#FBC36F;}
	.st19{fill:#FDD8A4;}
	.st20{fill:#E6DAD1;}
	.st21{fill:#FCF7F3;}
	.st22{fill:#E8592B;}
	.st23{fill:#594189;}
	.st24{fill:#806A97;}
	.st25{fill:none;stroke:#38276D;stroke-width:4;stroke-linecap:round;stroke-linejoin:round;stroke-miterlimit:10;}
	.st26{opacity:0.25;fill:none;stroke:#36276C;stroke-width:4;stroke-linecap:round;stroke-linejoin:round;stroke-miterlimit:10;}
	
		.st27{opacity:0.15;fill:none;stroke:#3C2779;stroke-width:4;stroke-linecap:round;stroke-linejoin:round;stroke-miterlimit:10;stroke-dasharray:12,20;}
	.st28{fill:#F9F7FC;}
	.st29{fill:#E4DEF0;}
	.st30{fill:#AFA3C6;}
	.st31{fill:#DAD4EB;}
	.st32{fill:#968AC1;}
	.st33{fill:#AFAAD5;}
	.st34{fill:#F3956C;}
	.st35{fill:#FBD7CC;}
	.st36{fill:none;stroke:#38276D;stroke-width:2.5;stroke-linecap:round;stroke-linejoin:round;stroke-miterlimit:10;}
	.st37{opacity:0.25;fill:none;stroke:#36276C;stroke-width:2.5;stroke-linecap:round;stroke-linejoin:round;stroke-miterlimit:10;}
	.st38{clip-path:url(#SVGID_2_);}
	.st39{fill:none;stroke:#D1CBE6;stroke-width:1.5;stroke-linecap:round;stroke-linejoin:round;stroke-miterlimit:10;}
	.st40{fill:#D1CBE6;}
	.st41{fill:none;stroke:#36276C;stroke-width:2;stroke-linecap:round;stroke-linejoin:round;stroke-miterlimit:10;}
	.st42{fill:#E34329;}
	.st43{fill:#F6A22D;}
	.st44{fill:none;stroke:#36276C;stroke-width:4;stroke-linecap:round;stroke-linejoin:round;stroke-miterlimit:10;}
	.st45{fill:none;stroke:#D0CAE5;stroke-width:4;stroke-linecap:round;stroke-linejoin:round;stroke-miterlimit:10;}
	.st46{fill:#8674B4;}
	.st47{fill:#958AC1;}
	.st48{fill:#6E5FA6;}
	.st49{fill:none;stroke:#4C4193;stroke-width:4;stroke-linecap:round;stroke-linejoin:round;stroke-miterlimit:10;}
	.st50{fill:#36276C;}
	.st51{fill:none;stroke:#36276C;stroke-width:5;stroke-linecap:round;stroke-linejoin:round;stroke-miterlimit:10;}
	.st52{fill:#535487;}
	.st53{fill:#FFFFFF;}
</style>
<g>
	<g>
		<g>
			<path class="st53" d="M4.8,23.9V3.6h4.3c2,0,3.7,0.2,4.9,0.6c1.3,0.4,2.4,1.1,3.5,2c2.1,1.9,3.2,4.4,3.2,7.6
				c0,3.1-1.1,5.7-3.3,7.6c-1.1,1-2.3,1.6-3.5,2c-1.1,0.4-2.7,0.6-4.8,0.6H4.8z M7.9,21.1h1.4c1.4,0,2.5-0.1,3.4-0.4
				c0.9-0.3,1.7-0.8,2.5-1.5c1.5-1.4,2.3-3.2,2.3-5.4c0-2.2-0.7-4-2.2-5.4c-1.3-1.2-3.3-1.9-5.9-1.9H7.9V21.1z"/>
		</g>
		<g>
			<path class="st53" d="M38.6,6.5h-8.2v4.9h7.9v2.9h-7.9v6.8h8.2v2.9H27.4V3.6h11.2V6.5z"/>
		</g>
		<g>
			<path class="st53" d="M46.6,3.6l5.6,14.1L58,3.6h3.4l-9.1,21.9L43.3,3.6H46.6z"/>
		</g>
		<g>
			<path class="st53" d="M77.9,6.6l-2.5,1.5c-0.5-0.8-0.9-1.3-1.3-1.6c-0.4-0.3-1-0.4-1.7-0.4c-0.9,0-1.6,0.2-2.1,0.7
				c-0.6,0.5-0.8,1.1-0.8,1.8c0,1,0.7,1.8,2.2,2.4l2,0.8c1.7,0.7,2.9,1.5,3.6,2.4c0.8,1,1.1,2.1,1.1,3.5c0,1.9-0.6,3.4-1.9,4.6
				c-1.3,1.2-2.8,1.8-4.7,1.8c-1.8,0-3.2-0.5-4.4-1.6c-1.1-1.1-1.8-2.5-2.1-4.4l3.1-0.7c0.1,1.2,0.4,2,0.7,2.5
				c0.6,0.9,1.6,1.3,2.8,1.3c1,0,1.8-0.3,2.4-1c0.6-0.6,0.9-1.5,0.9-2.4c0-0.4-0.1-0.8-0.2-1.1c-0.1-0.3-0.3-0.6-0.5-0.9
				c-0.2-0.3-0.5-0.5-0.9-0.8c-0.4-0.2-0.8-0.5-1.3-0.7l-2-0.8c-2.8-1.2-4.2-2.9-4.2-5.2c0-1.5,0.6-2.8,1.8-3.8
				c1.2-1,2.6-1.6,4.4-1.6C74.7,3.2,76.5,4.3,77.9,6.6z"/>
		</g>
		<g>
			<path class="st53" d="M96.3,6.5h-8.2v4.9h7.9v2.9h-7.9v6.8h8.2v2.9H85.1V3.6h11.2V6.5z"/>
		</g>
		<g>
			<path class="st53" d="M118.4,4.7v3.6c-1.8-1.5-3.6-2.2-5.5-2.2c-2.1,0-3.9,0.8-5.3,2.3c-1.4,1.5-2.2,3.3-2.2,5.5
				c0,2.1,0.7,3.9,2.2,5.4c1.4,1.5,3.2,2.2,5.3,2.2c1.1,0,2-0.2,2.8-0.5c0.4-0.2,0.9-0.4,1.3-0.7c0.5-0.3,0.9-0.7,1.4-1.1v3.7
				c-1.8,1-3.6,1.5-5.5,1.5c-2.9,0-5.4-1-7.5-3c-2-2-3.1-4.5-3.1-7.4c0-2.6,0.9-4.9,2.6-6.9c2.1-2.5,4.8-3.7,8.2-3.7
				C114.9,3.2,116.6,3.7,118.4,4.7z"/>
		</g>
		<g>
			<path class="st53" d="M124.1,13.7c0-2.9,1.1-5.3,3.2-7.4c2.1-2.1,4.6-3.1,7.5-3.1c2.9,0,5.4,1,7.5,3.1c2.1,2.1,3.1,4.6,3.1,7.5
				c0,2.9-1,5.4-3.1,7.5c-2.1,2-4.6,3.1-7.6,3.1c-2.6,0-5-0.9-7.1-2.7C125.2,19.6,124.1,16.9,124.1,13.7z M127.2,13.7
				c0,2.2,0.8,4.1,2.3,5.5c1.5,1.4,3.2,2.2,5.2,2.2c2.1,0,3.9-0.7,5.4-2.2c1.5-1.5,2.2-3.3,2.2-5.5c0-2.2-0.7-4-2.2-5.5
				c-1.4-1.5-3.2-2.2-5.4-2.2c-2.1,0-3.9,0.7-5.4,2.2C127.9,9.8,127.2,11.6,127.2,13.7z"/>
		</g>
		<g>
			<path class="st53" d="M155.3,15.7v8.3h-3.1V3.6h3.5c1.7,0,3,0.1,3.9,0.4c0.9,0.2,1.7,0.7,2.3,1.3c1.2,1.1,1.8,2.6,1.8,4.3
				c0,1.9-0.6,3.3-1.9,4.4c-1.2,1.1-2.9,1.6-5.1,1.6H155.3z M155.3,12.8h1.1c2.8,0,4.2-1.1,4.2-3.3c0-2.1-1.5-3.2-4.4-3.2h-1V12.8z"
				/>
		</g>
		<g>
			<path class="st53" d="M181.3,6.6l-2.5,1.5c-0.5-0.8-0.9-1.3-1.3-1.6c-0.4-0.3-1-0.4-1.7-0.4c-0.9,0-1.6,0.2-2.1,0.7
				c-0.6,0.5-0.8,1.1-0.8,1.8c0,1,0.7,1.8,2.2,2.4l2,0.8c1.7,0.7,2.9,1.5,3.6,2.4s1.1,2.1,1.1,3.5c0,1.9-0.6,3.4-1.9,4.6
				c-1.3,1.2-2.8,1.8-4.7,1.8c-1.8,0-3.2-0.5-4.4-1.6c-1.1-1.1-1.8-2.5-2.1-4.4l3.1-0.7c0.1,1.2,0.4,2,0.7,2.5
				c0.6,0.9,1.6,1.3,2.8,1.3c1,0,1.8-0.3,2.4-1c0.6-0.6,0.9-1.5,0.9-2.4c0-0.4-0.1-0.8-0.2-1.1c-0.1-0.3-0.3-0.6-0.5-0.9
				c-0.2-0.3-0.5-0.5-0.9-0.8c-0.4-0.2-0.8-0.5-1.3-0.7l-2-0.8c-2.8-1.2-4.2-2.9-4.2-5.2c0-1.5,0.6-2.8,1.8-3.8
				c1.2-1,2.6-1.6,4.4-1.6C178.1,3.2,179.9,4.3,181.3,6.6z"/>
		</g>
		<g>
			<path class="st53" d="M211.3,6.6l-2.5,1.5c-0.5-0.8-0.9-1.3-1.3-1.6c-0.4-0.3-1-0.4-1.7-0.4c-0.9,0-1.6,0.2-2.1,0.7
				c-0.6,0.5-0.8,1.1-0.8,1.8c0,1,0.7,1.8,2.2,2.4l2,0.8c1.7,0.7,2.9,1.5,3.6,2.4c0.8,1,1.1,2.1,1.1,3.5c0,1.9-0.6,3.4-1.9,4.6
				c-1.3,1.2-2.8,1.8-4.7,1.8c-1.8,0-3.2-0.5-4.4-1.6c-1.1-1.1-1.8-2.5-2.1-4.4l3.1-0.7c0.1,1.2,0.4,2,0.7,2.5
				c0.6,0.9,1.6,1.3,2.8,1.3c1,0,1.8-0.3,2.4-1c0.6-0.6,0.9-1.5,0.9-2.4c0-0.4-0.1-0.8-0.2-1.1c-0.1-0.3-0.3-0.6-0.5-0.9
				c-0.2-0.3-0.5-0.5-0.9-0.8c-0.4-0.2-0.8-0.5-1.3-0.7l-2-0.8c-2.8-1.2-4.2-2.9-4.2-5.2c0-1.5,0.6-2.8,1.8-3.8
				c1.2-1,2.6-1.6,4.4-1.6C208.1,3.2,210,4.3,211.3,6.6z"/>
		</g>
		<g>
			<path class="st53" d="M221.6,3.6v12.3c0,1.7,0.3,3,0.9,3.8c0.9,1.2,2.1,1.8,3.6,1.8c1.6,0,2.8-0.6,3.6-1.8
				c0.6-0.8,0.9-2.1,0.9-3.8V3.6h3.1v13.1c0,2.1-0.7,3.9-2,5.3c-1.5,1.5-3.4,2.3-5.5,2.3c-2.2,0-4-0.8-5.5-2.3c-1.3-1.4-2-3.2-2-5.3
				V3.6H221.6z"/>
		</g>
		<g>
			<path class="st53" d="M248.3,15.3l6.3,8.7h-3.8l-5.8-8.3h-0.6v8.3h-3.1V3.6h3.6c2.7,0,4.6,0.5,5.8,1.5c1.3,1.1,2,2.6,2,4.5
				c0,1.4-0.4,2.7-1.2,3.7C250.8,14.3,249.7,15,248.3,15.3z M244.5,12.9h1c2.9,0,4.4-1.1,4.4-3.3c0-2.1-1.4-3.1-4.2-3.1h-1.1V12.9z"
				/>
		</g>
		<g>
			<path class="st53" d="M261,3.6l5.6,14.1l5.7-14.1h3.4l-9.1,21.9l-8.9-21.9H261z"/>
		</g>
		<g>
			<path class="st53" d="M292.4,6.5h-8.2v4.9h7.9v2.9h-7.9v6.8h8.2v2.9h-11.2V3.6h11.2V6.5z"/>
		</g>
		<g>
			<path class="st53" d="M303.5,15.2l-6.6-11.6h3.5l4.7,8.1l4.7-8.1h3.5l-6.7,11.6v8.8h-3.1V15.2z"/>
		</g>
		<g>
			<path class="st53" d="M117.9,60.9h7.6v2.9h-13.7l7.1-8.6c0.7-0.9,1.3-1.6,1.7-2.2c0.5-0.6,0.8-1.1,1.1-1.6
				c0.5-0.8,0.8-1.6,0.8-2.2c0-0.9-0.3-1.7-1-2.4c-0.7-0.6-1.5-1-2.5-1c-2.1,0-3.2,1.2-3.5,3.7h-3.1c0.5-4.3,2.7-6.4,6.5-6.4
				c1.9,0,3.4,0.6,4.7,1.8c1.3,1.2,1.9,2.6,1.9,4.4c0,1.1-0.3,2.2-0.9,3.3c-0.3,0.6-0.7,1.2-1.3,2c-0.6,0.8-1.3,1.7-2.2,2.7
				L117.9,60.9z"/>
		</g>
		<g>
			<path class="st53" d="M141.9,53.5c0-3.2,0.8-5.8,2.3-7.8c1.4-1.7,3-2.6,4.9-2.6s3.6,0.9,4.9,2.6c1.5,1.9,2.3,4.6,2.3,7.9
				c0,3.3-0.8,6-2.3,7.9c-1.4,1.8-3,2.6-4.9,2.6c-1.9,0-3.6-0.9-4.9-2.6C142.6,59.6,141.9,56.9,141.9,53.5z M144.9,53.5
				c0,2.3,0.4,4.1,1.2,5.6c0.8,1.5,1.8,2.2,3,2.2c1.2,0,2.2-0.7,3-2.2c0.8-1.5,1.2-3.3,1.2-5.5c0-2.2-0.4-4.1-1.2-5.5
				c-0.8-1.5-1.8-2.2-3-2.2c-1.2,0-2.2,0.7-3,2.2C145.3,49.5,144.9,51.3,144.9,53.5z"/>
		</g>
		<g>
			<path class="st53" d="M177.1,60.9h7.6v2.9h-13.7l7.1-8.6c0.7-0.9,1.3-1.6,1.7-2.2c0.5-0.6,0.8-1.1,1.1-1.6
				c0.5-0.8,0.8-1.6,0.8-2.2c0-0.9-0.3-1.7-1-2.4c-0.7-0.6-1.5-1-2.5-1c-2.1,0-3.2,1.2-3.5,3.7h-3.1c0.5-4.3,2.7-6.4,6.5-6.4
				c1.9,0,3.4,0.6,4.7,1.8c1.3,1.2,1.9,2.6,1.9,4.4c0,1.1-0.3,2.2-0.9,3.3c-0.3,0.6-0.7,1.2-1.3,2c-0.6,0.8-1.3,1.7-2.2,2.7
				L177.1,60.9z"/>
		</g>
		<g>
			<path class="st53" d="M205.1,46.3h-3.5l1.7-2.9h4.9v20.4h-3.1V46.3z"/>
		</g>
	</g>
	<g>
		<g>
			<g>
				<path class="st52" d="M241.3,90.6h-28c-1.4,0-2.5-1.1-2.5-2.5s1.1-2.5,2.5-2.5h28c3.7,0,7-1.8,9.2-5.2l12-18
					c3.1-4.6,8.2-7.4,13.8-7.4H297c1.4,0,2.5,1.1,2.5,2.5S298.3,60,297,60h-20.6c-3.9,0-7.5,1.9-9.7,5.2l-12,18
					C251.5,88,246.8,90.6,241.3,90.6z"/>
			</g>
		</g>
		<g>
			<g>
				<path class="st52" d="M304.1,66.7c-5,0-9.2-4.1-9.2-9.2s4.1-9.2,9.2-9.2s9.2,4.1,9.2,9.2S309.2,66.7,304.1,66.7z M304.1,53.4
					c-2.3,0-4.2,1.9-4.2,4.2c0,2.3,1.9,4.2,4.2,4.2s4.2-1.9,4.2-4.2C308.3,55.2,306.4,53.4,304.1,53.4z"/>
			</g>
		</g>
		<g>
			<g>
				<path class="st52" d="M298.4,90.6h-87.8c-2.4,0-3.5-1.1-3.5-2.5s1.1-2.5,3.5-2.5h87.8c0.4,0,1.5,1.1,1.5,2.5
					S298.8,90.6,298.4,90.6z"/>
			</g>
		</g>
		<g>
			<g>
				<path class="st52" d="M304.1,97.3c-5,0-9.2-4.1-9.2-9.2c0-5.1,4.1-9.2,9.2-9.2s9.2,4.1,9.2,9.2
					C313.3,93.1,309.2,97.3,304.1,97.3z M304.1,83.9c-2.3,0-4.2,1.9-4.2,4.2c0,2.3,1.9,4.2,4.2,4.2s4.2-1.9,4.2-4.2
					C308.3,85.8,306.4,83.9,304.1,83.9z"/>
			</g>
		</g>
		<g>
			<g>
				<path class="st52" d="M202.9,97.3c-5,0-9.2-4.1-9.2-9.2c0-5.1,4.1-9.2,9.2-9.2c5,0,9.2,4.1,9.2,9.2
					C212.1,93.1,208,97.3,202.9,97.3z M202.9,83.9c-2.3,0-4.2,1.9-4.2,4.2c0,2.3,1.9,4.2,4.2,4.2c2.3,0,4.2-1.9,4.2-4.2
					C207.1,85.8,205.2,83.9,202.9,83.9z"/>
			</g>
		</g>
	</g>
	<g>
		<g>
			<g>
				<path class="st52" d="M76.7,90.6h28c1.4,0,2.5-1.1,2.5-2.5s-1.1-2.5-2.5-2.5h-28c-3.7,0-7-1.8-9.2-5.2l-12-18
					c-3.1-4.6-8.2-7.4-13.8-7.4H21.1c-1.4,0-2.5,1.1-2.5,2.5s1.1,2.5,2.5,2.5h20.6c3.9,0,7.5,1.9,9.7,5.2l12,18
					C66.5,88,71.3,90.6,76.7,90.6z"/>
			</g>
		</g>
		<g>
			<g>
				<path class="st52" d="M4.8,57.5c0-5.1,4.1-9.2,9.2-9.2s9.2,4.1,9.2,9.2s-4.1,9.2-9.2,9.2S4.8,62.6,4.8,57.5z M9.8,57.5
					c0,2.3,1.9,4.2,4.2,4.2s4.2-1.9,4.2-4.2c0-2.3-1.9-4.2-4.2-4.2S9.8,55.2,9.8,57.5z"/>
			</g>
		</g>
		<g>
			<g>
				<path class="st52" d="M19.6,90.6h87.8c2.4,0,3.5-1.1,3.5-2.5s-1.1-2.5-3.5-2.5H19.6c-0.4,0-1.5,1.1-1.5,2.5S19.2,90.6,19.6,90.6
					z"/>
			</g>
		</g>
		<g>
			<g>
				<path class="st52" d="M4.8,88.1c0-5.1,4.1-9.2,9.2-9.2s9.2,4.1,9.2,9.2c0,5.1-4.1,9.2-9.2,9.2S4.8,93.1,4.8,88.1z M9.8,88.1
					c0,2.3,1.9,4.2,4.2,4.2s4.2-1.9,4.2-4.2c0-2.3-1.9-4.2-4.2-4.2S9.8,85.8,9.8,88.1z"/>
			</g>
		</g>
		<g>
			<g>
				<path class="st52" d="M106,88.1c0-5.1,4.1-9.2,9.2-9.2c5,0,9.2,4.1,9.2,9.2c0,5.1-4.1,9.2-9.2,9.2C110.1,97.3,106,93.1,106,88.1
					z M110.9,88.1c0,2.3,1.9,4.2,4.2,4.2s4.2-1.9,4.2-4.2c0-2.3-1.9-4.2-4.2-4.2S110.9,85.8,110.9,88.1z"/>
			</g>
		</g>
	</g>
	<g>
		<path class="st52" d="M157.8,113.2c-0.5,0-1-0.2-1.5-0.5L139,100.2c-1.4-1-1.9-2.7-1.4-4.3l6-18.3c0.4-1.3,1.7-2.2,3-2.2
			c0,0,0,0,0,0c1.4,0,2.6,0.9,3,2.2L153,88l9.5,0l3.4-10.5c0.4-1.3,1.6-2.2,3-2.2c0,0,0,0,0,0c1.4,0,2.6,0.9,3,2.2l6,18.4
			c0.5,1.6,0,3.3-1.4,4.3l-17.3,12.6C158.8,113.1,158.3,113.2,157.8,113.2z M142.6,96.6l15.2,11l15.2-11l-4-12.2l-2.2,6.9
			c-0.3,1-1.3,1.7-2.4,1.7l-13.2,0h0c-1.1,0-2-0.7-2.4-1.7l-2.2-6.9L142.6,96.6z"/>
	</g>
</g>
</svg>
