<?xml version="1.0" encoding="utf-8"?>
<!-- Generator: Adobe Illustrator 21.0.2, SVG Export Plug-In . SVG Version: 6.00 Build 0)  -->
<svg version="1.1" id="Layer_1" xmlns="http://www.w3.org/2000/svg" xmlns:xlink="http://www.w3.org/1999/xlink" x="0px" y="0px"
	 viewBox="0 0 60 55" style="enable-background:new 0 0 60 55;" xml:space="preserve">
<style type="text/css">
	.st0{clip-path:url(#SVGID_2_);}
	.st1{fill:#E24329;}
	.st2{fill:#FC6D26;}
	.st3{fill:#FCA326;}
	.st4{fill:#8C929D;}
	.st5{fill:#373D47;}
	.st6{fill:#37474F;}
	.st7{fill:#554488;}
	.st8{fill:#6B4FBB;}
	.st9{fill:#FFFFFF;}
</style>
<g>
	<path class="st2" d="M59.884,31.569l-3.362-10.279l-6.65-20.389c-0.341-1.042-1.827-1.042-2.181,0l-6.65,20.376H18.946
		l-6.65-20.376c-0.341-1.042-1.827-1.042-2.181,0L3.477,21.278L0.116,31.568c-0.304,0.934,0.025,1.964,0.829,2.546L29.995,55.12
		l29.051-21.006c0.804-0.582,1.145-1.612,0.84-2.546"/>
	<path class="st1" d="M30,55.107l11.048-33.829H18.952L30,55.107z"/>
	<path class="st2" d="M29.992,55.107L18.944,21.279H3.474L29.992,55.107z"/>
	<path class="st3" d="M3.47,21.289L0.109,31.567c-0.304,0.933,0.025,1.964,0.829,2.546l29.051,21.006L3.471,21.289"/>
	<path class="st1" d="M3.474,21.289h15.482L12.294,0.913c-0.341-1.043-1.827-1.043-2.181,0L3.474,21.289"/>
	<path class="st2" d="M30,55.107l11.048-33.829h15.482L30,55.107z"/>
	<path class="st3" d="M56.521,21.289l3.362,10.279c0.304,0.933-0.024,1.964-0.829,2.546L30.002,55.107L56.52,21.289"/>
	<path class="st1" d="M56.531,21.289H41.049l6.65-20.376c0.341-1.043,1.827-1.043,2.181,0L56.531,21.289"/>
</g>
<g>
	<path class="st9" d="M13.055,26.875h9.241v3.168h-5.457v2.244h4.665v3.169h-4.665v2.553h5.677v3.168h-9.461V26.875z"/>
	<path class="st9" d="M25.286,26.875h9.241v3.168H29.07v2.244h4.665v3.169H29.07v2.553h5.678v3.168h-9.462V26.875z"/>
	<path class="st9" d="M37.519,26.875h5.545c3.081,0,5.721,1.144,5.721,4.752c0,3.499-2.729,5.018-5.721,5.018h-1.76v4.532h-3.785
		V26.875z M42.888,33.651c1.496,0,2.2-0.748,2.2-2.024c0-1.275-0.792-1.76-2.2-1.76h-1.584v3.784H42.888z"/>
</g>
</svg>
