<?xml version="1.0" encoding="utf-8"?>
<!-- Generator: Adobe Illustrator 25.3.0, SVG Export Plug-In . SVG Version: 6.00 Build 0)  -->
<svg version="1.1" id="Layer_1" xmlns="http://www.w3.org/2000/svg" xmlns:xlink="http://www.w3.org/1999/xlink" x="0px" y="0px"
	 viewBox="0 0 284 160" style="enable-background:new 0 0 284 160;" xml:space="preserve">
<style type="text/css">
	.st0{fill:#FC6D26;}
	.st1{fill:none;stroke:#380D75;stroke-width:4;stroke-linecap:round;stroke-linejoin:round;stroke-miterlimit:10;}
	.st2{fill:#FCA121;}
	.st3{fill:#DB3B21;}
	.st4{opacity:0.4;}
	.st5{fill:none;stroke:#380D75;stroke-width:5;stroke-linecap:round;stroke-linejoin:round;stroke-miterlimit:10;}
	.st6{fill:none;stroke:#380D75;stroke-width:6;stroke-linecap:round;stroke-linejoin:round;stroke-miterlimit:10;}
	.st7{fill:#FF675F;}
	.st8{fill:#AF1B1B;}
	.st9{fill:#00DBB1;}
	.st10{fill:#38F2AF;}
	.st11{fill:#18A3FF;}
	.st12{fill:#5AC4FF;}
	.st13{fill:#0B8ED6;}
	.st14{fill:#F968B3;}
	.st15{fill:#AC7FFF;}
	.st16{fill:#CAB5FF;}
	.st17{fill:#FF908D;}
	.st18{fill:#6E49CB;}
	.st19{fill:#380D75;}
	.st20{fill:#180633;}
	.st21{fill:#E58615;}
	.st22{fill:#FFC46C;}
	.st23{fill:#FFD8A4;}
	.st24{fill:#E5DAD1;}
	.st25{fill:#FCF7F2;}
	.st26{fill:#8C929D;}
	.st27{fill:#2E2E2E;}
	.st28{fill:#CCCCCC;}
	.st29{fill:#E85929;}
	.st30{fill:#584088;}
	.st31{fill:#7F6997;}
	.st32{opacity:0.25;fill:none;stroke:#341472;stroke-width:4;stroke-linecap:round;stroke-linejoin:round;stroke-miterlimit:10;}
	
		.st33{opacity:0.15;fill:none;stroke:#3C257B;stroke-width:4;stroke-linecap:round;stroke-linejoin:round;stroke-miterlimit:10;stroke-dasharray:12,20;}
	.st34{fill:#F9F7FF;}
	.st35{fill:#E5E0FC;}
	.st36{fill:#AFA3C6;}
	.st37{fill:#D9D3EA;}
	.st38{fill:#978ACE;}
	.st39{fill:#AFAAE5;}
	.st40{fill:#FF9769;}
	.st41{fill:#FFD8CC;}
	.st42{fill:none;stroke:#380D75;stroke-width:2.5;stroke-linecap:round;stroke-linejoin:round;stroke-miterlimit:10;}
	.st43{opacity:0.25;fill:none;stroke:#341472;stroke-width:2.5;stroke-linecap:round;stroke-linejoin:round;stroke-miterlimit:10;}
	.st44{fill:none;stroke:#FC6D26;stroke-width:6;stroke-linecap:round;stroke-linejoin:round;stroke-miterlimit:10;}
	.st45{fill:none;stroke:#FCA121;stroke-width:6;stroke-linecap:round;stroke-linejoin:round;stroke-miterlimit:10;}
	.st46{fill:none;stroke:#380D75;stroke-width:3;stroke-linecap:round;stroke-linejoin:round;stroke-miterlimit:10;}
	.st47{fill:#FFFFFF;}
	.st48{fill:none;stroke:#FCA121;stroke-width:4;stroke-linecap:round;stroke-linejoin:round;stroke-miterlimit:10;}
	.st49{fill:none;stroke:#DB3B21;stroke-width:4;stroke-linecap:round;stroke-linejoin:round;stroke-miterlimit:10;}
</style>
<g>
	<g>
		<g>
			<path class="st19" d="M140.6,98.1c-25.3,0-45.9-20.6-45.9-45.9s20.6-45.9,45.9-45.9c12.3,0,23.8,4.8,32.4,13.4
				c0.8,0.8,0.8,2.1,0,3c-0.8,0.8-2.1,0.8-3,0c-7.9-7.9-18.3-12.2-29.5-12.2c-23,0-41.7,18.7-41.7,41.7s18.7,41.7,41.7,41.7
				c11.1,0,21.6-4.3,29.5-12.2c0.8-0.8,2.1-0.8,3,0c0.8,0.8,0.8,2.1,0,3C164.3,93.3,152.8,98.1,140.6,98.1z"/>
		</g>
		<g>
			<circle class="st0" cx="140.6" cy="8.4" r="6.3"/>
		</g>
		<g>
			<circle class="st0" cx="140.6" cy="96" r="6.3"/>
		</g>
		<g>
			<circle class="st2" cx="96.8" cy="52.2" r="6.3"/>
		</g>
		<g>
			<circle class="st15" cx="171.5" cy="21.2" r="6.3"/>
		</g>
		<g>
			<circle class="st15" cx="109.6" cy="83.2" r="6.3"/>
		</g>
		<g>
			<circle class="st15" cx="171.5" cy="83.2" r="6.3"/>
		</g>
		<g>
			<circle class="st15" cx="109.6" cy="21.2" r="6.3"/>
		</g>
		<g>
			<path class="st0" d="M140.5,68.8L158,56.1c0.5-0.4,0.7-1,0.5-1.5l-6-18.5c-0.2-0.6-1.1-0.6-1.3,0l-4,12.3h0v0l-13.3,0l-4-12.3
				c-0.2-0.6-1.1-0.6-1.3,0l-6,18.5c-0.2,0.6,0,1.2,0.5,1.5L140.5,68.8"/>
		</g>
		<g>
			<path class="st19" d="M140.5,70.9c-0.4,0-0.9-0.1-1.2-0.4l-17.5-12.7c-1.2-0.9-1.7-2.4-1.3-3.9l6-18.5c0.4-1.2,1.4-1.9,2.6-1.9
				c0,0,0,0,0,0c1.2,0,2.3,0.8,2.6,1.9l3.5,10.9l10.2,0l3.5-10.8c0.4-1.1,1.4-1.9,2.6-1.9c1.2,0,2.3,0.8,2.7,1.9l6,18.5
				c0.5,1.4,0,3-1.3,3.9l-17.5,12.7C141.4,70.8,141,70.9,140.5,70.9z M124.7,54.7l15.8,11.5l15.8-11.5l-4.5-13.9l-2.7,8.2
				c-0.3,0.9-1.1,1.4-2,1.4l-13.3,0c0,0,0,0,0,0c-0.9,0-1.7-0.6-2-1.4l-2.7-8.2L124.7,54.7z"/>
		</g>
		<g>
			<path class="st19" d="M140.6,16.8c-4.6,0-8.4-3.8-8.4-8.4s3.8-8.4,8.4-8.4c4.6,0,8.4,3.8,8.4,8.4S145.2,16.8,140.6,16.8z
				 M140.6,4.2c-2.3,0-4.2,1.9-4.2,4.2s1.9,4.2,4.2,4.2c2.3,0,4.2-1.9,4.2-4.2S142.9,4.2,140.6,4.2z"/>
		</g>
		<g>
			<path class="st19" d="M140.6,104.4c-4.6,0-8.4-3.8-8.4-8.4s3.8-8.4,8.4-8.4c4.6,0,8.4,3.8,8.4,8.4S145.2,104.4,140.6,104.4z
				 M140.6,91.7c-2.3,0-4.2,1.9-4.2,4.2c0,2.3,1.9,4.2,4.2,4.2c2.3,0,4.2-1.9,4.2-4.2C144.8,93.6,142.9,91.7,140.6,91.7z"/>
		</g>
		<g>
			<path class="st19" d="M96.8,60.6c-4.6,0-8.4-3.8-8.4-8.4s3.8-8.4,8.4-8.4s8.4,3.8,8.4,8.4S101.4,60.6,96.8,60.6z M96.8,48
				c-2.3,0-4.2,1.9-4.2,4.2s1.9,4.2,4.2,4.2c2.3,0,4.2-1.9,4.2-4.2S99.1,48,96.8,48z"/>
		</g>
		<g>
			<path class="st19" d="M171.5,29.7c-2.2,0-4.3-0.8-6-2.5c-3.3-3.3-3.3-8.6,0-11.9c3.3-3.3,8.6-3.3,11.9,0c3.3,3.3,3.3,8.6,0,11.9
				C175.8,28.8,173.7,29.7,171.5,29.7z M171.5,17c-1.1,0-2.2,0.4-3,1.2c-1.7,1.7-1.7,4.4,0,6c1.7,1.7,4.4,1.7,6,0
				c1.7-1.7,1.7-4.4,0-6C173.7,17.4,172.6,17,171.5,17z"/>
		</g>
		<g>
			<path class="st19" d="M109.6,91.6c-2.2,0-4.3-0.8-6-2.5c-3.3-3.3-3.3-8.6,0-11.9c3.3-3.3,8.6-3.3,11.9,0c3.3,3.3,3.3,8.6,0,11.9
				C113.9,90.8,111.8,91.6,109.6,91.6z M109.6,78.9c-1.1,0-2.2,0.4-3,1.2c-1.7,1.7-1.7,4.4,0,6c1.7,1.7,4.4,1.7,6,0
				c1.7-1.7,1.7-4.4,0-6C111.8,79.3,110.7,78.9,109.6,78.9z"/>
		</g>
		<g>
			<path class="st19" d="M171.5,91.6c-2.2,0-4.3-0.8-6-2.5c-3.3-3.3-3.3-8.6,0-11.9c3.3-3.3,8.6-3.3,11.9,0c3.3,3.3,3.3,8.6,0,11.9
				C175.8,90.8,173.7,91.6,171.5,91.6z M171.5,78.9c-1.1,0-2.2,0.4-3,1.2c-1.7,1.7-1.7,4.4,0,6c1.7,1.7,4.4,1.7,6,0
				c1.7-1.7,1.7-4.4,0-6C173.7,79.3,172.6,78.9,171.5,78.9z"/>
		</g>
		<g>
			<path class="st19" d="M109.6,29.7c-2.2,0-4.3-0.8-6-2.5c-3.3-3.3-3.3-8.6,0-11.9c3.3-3.3,8.6-3.3,11.9,0c3.3,3.3,3.3,8.6,0,11.9
				C113.9,28.8,111.8,29.7,109.6,29.7z M109.6,17c-1.1,0-2.2,0.4-3,1.2c-1.7,1.7-1.7,4.4,0,6c1.7,1.7,4.4,1.7,6,0
				c1.7-1.7,1.7-4.4,0-6C111.8,17.4,110.7,17,109.6,17z"/>
		</g>
	</g>
	<g>
		<path class="st19" d="M0.7,123.9h8.8c6.2,0,10.8,2.2,10.8,8.6c0,6.2-4.6,9-10.6,9H5.7v10.2H0.7V123.9z M9.3,137.6c4.1,0,6-1.6,6-5
			c0-3.4-2.1-4.6-6.2-4.6H5.7v9.6H9.3z"/>
		<path class="st19" d="M22.7,141.3c0-6.8,4.8-11,9.7-11c5.7,0,8.7,4.1,8.7,10c0,1-0.1,1.8-0.3,2.6H27.7c0.5,3.5,2.7,5.5,6,5.5
			c1.8,0,3.4-0.5,4.9-1.4l1.7,3.2c-2,1.4-4.5,2.2-7.2,2.2C27.2,152.3,22.7,148.3,22.7,141.3z M36.7,139.1c0-3.1-1.4-4.9-4.2-4.9
			c-2.4,0-4.4,1.7-4.9,4.9H36.7z"/>
		<path class="st19" d="M44.4,141.3c0-7,4.8-11,10-11c5.2,0,10,4,10,11c0,6.9-4.8,10.9-10,10.9C49.1,152.3,44.4,148.3,44.4,141.3z
			 M59.2,141.3c0-4.2-1.8-6.9-4.8-6.9c-3,0-4.8,2.7-4.8,6.9c0,4.1,1.8,6.9,4.8,6.9C57.4,148.2,59.2,145.5,59.2,141.3z"/>
		<path class="st19" d="M69.1,130.8h4.1l0.4,2.2h0.1c1.8-1.5,4-2.7,6.3-2.7c5.2,0,8.2,4.2,8.2,10.7c0,7.2-4.3,11.3-8.9,11.3
			c-1.9,0-3.7-0.9-5.4-2.3l0.2,3.5v6.5h-5.1V130.8z M83.1,141c0-4.1-1.4-6.6-4.5-6.6c-1.5,0-2.9,0.7-4.5,2.3v9.7
			c1.4,1.2,2.9,1.7,4.1,1.7C81,148.1,83.1,145.7,83.1,141z"/>
		<path class="st19" d="M93.2,146.3v-24.6h5.1v24.8c0,1.2,0.6,1.7,1.1,1.7c0.3,0,0.4,0,0.8-0.1l0.6,3.7c-0.6,0.3-1.4,0.5-2.6,0.5
			C94.5,152.3,93.2,150,93.2,146.3z"/>
		<path class="st19" d="M103.4,141.3c0-6.8,4.8-11,9.7-11c5.7,0,8.7,4.1,8.7,10c0,1-0.1,1.8-0.3,2.6h-13.2c0.5,3.5,2.7,5.5,6,5.5
			c1.8,0,3.4-0.5,4.9-1.4l1.7,3.2c-2,1.4-4.5,2.2-7.2,2.2C107.9,152.3,103.4,148.3,103.4,141.3z M117.4,139.1c0-3.1-1.4-4.9-4.2-4.9
			c-2.4,0-4.4,1.7-4.9,4.9H117.4z"/>
		<path class="st19" d="M133.9,137.9c0-9.1,5.7-14.5,12.8-14.5c3.5,0,6.3,1.6,8,3.5l-2.7,3.1c-1.4-1.4-3.1-2.2-5.3-2.2
			c-4.4,0-7.7,3.7-7.7,10c0,6.3,2.9,10.1,7.6,10.1c2.4,0,4.3-1,5.9-2.7l2.7,3c-2.3,2.7-5.2,4-8.8,4
			C139.5,152.3,133.9,147.2,133.9,137.9z"/>
		<path class="st19" d="M158.1,141.3c0-7,4.8-11,10-11c5.2,0,10,4,10,11c0,6.9-4.8,10.9-10,10.9
			C162.9,152.3,158.1,148.3,158.1,141.3z M172.9,141.3c0-4.2-1.8-6.9-4.8-6.9c-3,0-4.8,2.7-4.8,6.9c0,4.1,1.8,6.9,4.8,6.9
			C171.2,148.2,172.9,145.5,172.9,141.3z"/>
		<path class="st19" d="M182.9,130.8h4.1l0.4,2.8h0.1c1.9-1.8,4-3.3,6.9-3.3c4.5,0,6.5,3.1,6.5,8.3v13.1h-5v-12.5
			c0-3.4-1-4.6-3.2-4.6c-1.8,0-3,0.9-4.7,2.6v14.6h-5.1V130.8z"/>
		<path class="st19" d="M206.8,130.8h4.1l0.4,2.8h0.1c1.9-1.8,4-3.3,6.9-3.3c4.5,0,6.5,3.1,6.5,8.3v13.1h-5v-12.5
			c0-3.4-1-4.6-3.2-4.6c-1.8,0-3,0.9-4.7,2.6v14.6h-5.1V130.8z"/>
		<path class="st19" d="M229.3,141.3c0-6.8,4.8-11,9.7-11c5.7,0,8.7,4.1,8.7,10c0,1-0.1,1.8-0.3,2.6h-13.2c0.5,3.5,2.7,5.5,6,5.5
			c1.8,0,3.4-0.5,4.9-1.4l1.7,3.2c-2,1.4-4.5,2.2-7.2,2.2C233.8,152.3,229.3,148.3,229.3,141.3z M243.3,139.1c0-3.1-1.4-4.9-4.2-4.9
			c-2.4,0-4.4,1.7-4.9,4.9H243.3z"/>
		<path class="st19" d="M250.9,141.3c0-7,4.9-11,10.6-11c2.6,0,4.6,1,6.1,2.3l-2.4,3.2c-1.1-0.9-2.1-1.4-3.4-1.4
			c-3.3,0-5.6,2.7-5.6,6.9c0,4.1,2.3,6.9,5.5,6.9c1.7,0,3.1-0.7,4.3-1.7l2,3.2c-2,1.7-4.5,2.6-6.9,2.6
			C255.4,152.3,250.9,148.3,250.9,141.3z"/>
		<path class="st19" d="M272.3,144.7v-9.8h-3v-3.7l3.2-0.3l0.6-6.5h4.2v6.5h5.3v4h-5.3v9.8c0,2.4,1,3.6,2.9,3.6
			c0.7,0,1.4-0.1,2.2-0.4l0.9,3.5c-1.1,0.5-2.6,0.9-4.3,0.9C274.1,152.3,272.3,149.2,272.3,144.7z"/>
	</g>
</g>
</svg>
